{
    "text": "Fred: Wow! Aus diesen Büchern kann man wirklich viel lernen...!\r\n\r\nFred: Hier kann man sogar seinen Intelligenzquotienten bestimmen...\r\n\r\nFred: Ich wette, meiner ist blau...\r\nKäfer: *HiHi!*\r\n\r\nWurm: !",
    "user": null
}