{
    "text": "Fred: Hier steht:...\r\n\r\nFred: ...\"Fledermäuse essen gar keine Würmer!\"\r\nWurm: Puuh! Glück gehabt!\r\n\r\nFred: Happ!\r\n\r\nFred: Fledermäuse können überhaupt nich lesen!",
    "user": "robby"
}