{
    "text": "Fred: Meine grösste Schwäche ist es...\r\n\r\nFred: ...dass ich vor anderen...\r\n\r\nFred: ...viel zu oft erwähne...\r\n\r\nFred: ...was meine grösste Schwäche ist...",
    "user": null
}