{
    "text": "Käfer: Ich wollte mit Fred ein bisschen durch den Winter spazieren...\r\n\r\nKäfer: ...doch er möchte heute auf keinen Fall raus...!\r\n\r\nFred [[liegt auf dem Filosofiestein unter einer Schneedecke, ist nicht zu sehen]]: Hihi!\r\n\r\n{{Ich schätze, Fred versucht sich wieder als Schneeegel.}}",
    "user": "Woodpecker68"
}