{
    "text": "[[Fred und Käfer sitzen auf einem Stein]]\r\n\r\nFred: Das Licht der Sterne hat teilweise hunderte von Jahren zurückgelegt, bevor es hierher gelangte...\r\n\r\nFred: Ich würde sagen, dass wir ziemlich grosses Glück haben...\r\n\r\nFred: ...dass Sternenlicht nicht gammelt...! / Käfer: *seufz*",
    "user": "Sanne"
}