{
    "text": "[[Fred und Käfer stehen vor dem kleinen Erdhügel.]] Käfer: Unser Weihnachtsbaum braucht noch viel Wachstum...\r\n\r\n[[Fred hält einen Wachsmalstift und eine brennende Kerze.]] \r\nFred: Deswegen brachte ich auch Kerzen und Wachsmalstifte!\r\nKäfer: Seufz\r\n\r\n{{Wachstum. Müdestum.}}",
    "user": "superschaaaf"
}