{
  "user": "Woodpecker68",
  "text": "Fred: Ich habe mir extra einen Keksvorrat angelegt.\r\n\r\nKäfer: Für später?\r\n\r\nFred [[liegt kauend am Filsofiestein, vor sich einen leeren Teller mit Kekskrümeln]]: Für vorhin!\r\nKäfer [[schaut auf den Teller]]: !\r\n\r\n{{Rathäuser sind voller kleiner englische Nagetiere!}}"
}