{
  "user": "Clarklag",
  "text": "choloquine \r\n<a href=https://chloroquineorigin.com/#>chloroquine sulfate</a> \r\nerectile dysfunction drugs \r\n<a href=https://erectiledysfunctionbjul.com/#>erectile winstrol</a> \r\nhydroxychloroquine side effects eye \r\n<a href=https://hydroxychloroquinex.com/#>hydroxychloroquine for sale</a> \r\nerectile dysfunction in children \r\n<a href=https://plaquenilx.com/#>side effects to plaquenil</a> \r\ntadagra 20 \r\n<a href=https://tadalisxs.com/#>buy tadalafil</a> \r\nzithrocin \r\n<a href=https://zithromaxes.com/#>zithromax antibiotics</a>"
}