{
  "user": "Woodpecekr68",
  "text": "Fred [[sitzt auf der Wiese vor einer brennenden Kerze]]: <3\r\nKäfer [[sitzt Fred gegenüber, die Kerze zwischen den beiden]]\r\n\r\nFred [[entsetzt, die Kerze geht aus]]\r\nKäfer\r\n\r\nFred [[traurig, ein kleiner Rauchfaden über der Kerze]]\r\nKäfer\r\n\r\nFred [[grinsend vor der Kerze]]\r\nKäfer: 1. Advent.\r\n\r\n{{In der Mitte jeder KErze befindet sich ein Mineralgemende.}}"
}