{
    "text": "[[Fred, das Gesicht verkrampft, setzt einen Haufen.]]\r\nKäfer: Iih! Was machst Du??\r\n\r\nFred: Das ist Dünger für die Pflanzen!\r\n\r\nKäfer: Das nennt man dann wohl 'BegrünDung'...!\r\nFred: Hihi!\r\n\r\n{{Ich habe mir die künstlerische Freiheit herausgenommen, die tatsächliche Konsistenz von Fledermauskot nicht zu recherchieren.}}",
    "user": "his"
}