{
    "text": "Fred: Allen, die sich auch in diesem Jahr wieder fragen, was das Nächste bringen wird...\r\n\r\nFred:...sei zumindest Folgendes verraten:\r\n\r\nFred: Ihr werdet am Ende des nächsten Jahres eine Menge Zeit damit verbringen...\r\n\r\nFred:...euch zu fragen, wie das übernächste Jahr wird...!",
    "user": "Lorena"
}