{
    "text": "[[Fred schaut bedrückt drein.]]\r\nFred: Ich mag es nicht...\r\n\r\nFred: ...wenn jemand anderen vorschreibt...\r\n\r\nFred: ...was sie nicht machen sollen...!\r\n\r\n[[Fred schaut böse den Leser an.]]\r\nFred: Also: Macht das nicht!!\r\n\r\n{{Huch. Ein böse dreinschauender Fred. Schnell, wo sind die Kekse?}}",
    "user": "his"
}