{
    "user": "Woodpecker68",
    "text": "Fred: Wasser trinke ich ganz gerne aus einem Glas.\r\n\r\nFred [[steht bei Fisch im Glas und trinkt aus einer Flasche]]\r\nFisch\r\n\r\n{{Uh. Ein Flaschwitz.}}"
}
