{
    "text": "Fred [[liest in einem Flyer]]: Hier steht:\r\n\r\nFred: &quot;Heute ist Vorlesetag.&quot;\r\nKäfer [[schaut zu Fred]]: ?\r\n\r\nFred [[nachdenklich]]\r\n\r\nFred [[geht nach rechts ab, der Flyer liegt auf dem Boden]]: Fertig.\r\nKäfer [[schaut auf den Flyer]]: !\r\n\r\n{{Wenn ich blasenbedingt meine Lektüre unterbeche, entsteht übrigens ein Leserstrahl.}}",
    "user": "Woodpecker68"
}