{
    "user": "Woodpecker68",
    "text": "Fred [[hinter vorgehaltener Hand]]: hey!\r\n\r\nFred [[freudestrahlend]]: Lasst uns zusammen eine gute Zeit haben!\r\n\r\nFred [[schaut nachdenklich auf die Uhr in seinen Händen]]: 'tik tak'\r\n\r\nFred: zum Beispiel 11:23 Uhr!\r\n\r\n{{3600! Wuhuuu!!!}}"
}
