{
    "text": "Fred: Dieses Jahr ging wirklich schnell vorbei...!\r\n\r\nFred: !\r\nSchnecke [[am rechten Panelrand]]: Gesundes Neues!\r\n\r\nFred [[entsetzt]]\r\nSchnecke [[hat einen Luftballon mit der Jahreszahl '2009' drauf]]\r\n\r\n{{Ich schätze, nächstes Jahr wird mindestens 24 Stunden schneller vergehen als dieses.}}",
    "user": "Woodpecker68"
}