{
    "text": "Fred: Wenn mich nicht einmal meine Lieblingskrawatte aufheitert...\r\n\r\nFred:... bin ich froh Freunde zu haben...!\r\n[[Fred lacht, Spinne hängt als Krawatte um seinen Hals]]\r\nSpinne. &quot;HiHi&quot;\r\n\r\n{{Besser als jede Fliege}}",
    "user": "ksa"
}