{
    "text": "Fred [[lehnt sinierend an einem Fass]]: Manchmal bin ich fassziniert...\r\n\r\nFred [[mit einem Glas in der Hand]]: ...manchmal nur glasziniert.\r\n\r\n{{Potientelle Orthographiekritiker seien zum einen auf das Lautliche, zum anderen auf Freds übliche Rechtschreibung hingewiesen. Und darauf, dass niemand Besserwisser mag. So!}}",
    "user": "Woodpecker68"
}