{
    "text": "Fred: Der Osterhase versteckt am liebsten an nicht ganz so gut zugänglichen Orten... *kratz*\r\n\r\nFred: ...irgendwo, wo nicht all zu viel Licht hinkommt...\r\n\r\nFred: ...in kleinen Höhlen und Löchern beispielsweise...\r\n\r\n\r\n[[Schild zeigt auf Freds geöffneten Mund. Schild: Gutes Fersteck]]",
    "user": "sini"
}