{
    "text": "Fred [[am Stein liegend]]: Ameisenbären sind weder Ameisen...\r\n\r\nFred: ... noch Bären!\r\n\r\nFred [[nachdenklich]]: Dementsprechend bin ich vielleicht...\r\n\r\nFred [[freudig]]: ein Eulefant!\r\n\r\n{{Keksefant.}}",
    "user": "Woodpecker68"
}