{
    "text": "Fred: Ich habe einen wirklich einfachen Weg gefunden, um Geld zu sparen...\r\n\r\nFred: Ich beschließe einfach, mir eine fetzige Sportyacht zu kaufen...\r\n\r\nFred: Entscheide mich aber kurz darauf dagegen...\r\n\r\nFred: ...und -schwupps- habe ich zehn Millionen Euro gespart...\r\nFred: Die ich dann anderweitig ausgeben kann...\r\nKäfer: *seufz*",
    "user": "sini"
}