{
    "text": "Fred [[mit Schal]]: Manche sind ja vom Winter so genervt...\r\n\r\nFred: ...dass sie sich wünschen, jetzt wäre Sommer...!\r\n\r\nFred [[in Schneelandschaft mit Schneekäfer]]: Aber wenn das hier jetzt Sommer wäre... wie kalt wäre es dann im Winter...?\r\n\r\n{{Yay, Fredlogik!}}",
    "user": "Woodpecker68"
}