{
    "text": "Fred [[trägt ein Schild]] Fred for sident!\r\n\r\nKäfer: &quot;Sident&quot;?\r\n\r\nFred: Der Nachfolger vom Präsidenten!\r\nKäfer: !\r\n\r\n{{Und anschließend kommt der Exident.}}",
    "user": "Woodpecker68"
}