{
  "user": "Woodpecker68",
  "text": "Fred [[winkt dem Leser]]: Dieses Jahr war für mich wirklich wunderschön!\r\n\r\nFred: Denn jeder einzelne Tag war angefüllt mit...\r\n\r\nFred [[im Strahlenkranz]]: ...mir!\r\n\r\n{{Meine Lieblingswochentage sind Montag, Dienstag, Mittwoch, Donnerstag, Freitag, Samstag und Sonntag.}}"
}