{
    "user": "Woodpecker68",
    "text": "Fred [[steht auf der Wiese]]: Um mich aufzuheitern...\r\n\r\nFred: schaue ich  mir gerne etwas Schönes an...!\r\n\r\nFred [[grinst]]\r\n\r\nFred [[nur der Kopf im Panel, winkt dem Leser zu]]: <3\r\n\r\n{{Sag es niemandem weiter, aber heute bist DU am Allerschönsten.}}"
}
