{
    "text": "Fred [[mit einem Schokoriegel]]: Ich trainiere dafür, irgendwann...\r\nKäfer: ?\r\n\r\nFred: ...mein gesamtes Körpergewicht in Schokolade essen zu können...!\r\n\r\nFred: Aber irgendwie wird das mit der Zeit...\r\n\r\nFred: ...immer schwerer...\r\nKäfer: seufz\r\n\r\n{{Ein Grund, warum es Fred mag zu trainieren, ist übrigens, dass zum Training englischer Regen gehört.}}",
    "user": "Woodpecker68"
}