{
    "text": "Fred: Hallo lieber Schöpfer.\r\n\r\nFred: Kann es vielleicht sein...\r\nWurm: ?\r\n\r\n[[Ein leeres weisses Kästchen ist zu sehen]]\r\n\r\nFred: ...vergessen hasst...\r\nWurm: !\r\n\r\n[[Mehrere leere weisse Kästchen sind zu sehen]]\r\n\r\nFred: ...dass du heute irgendwas...\r\n\r\n{{(nicht vergessen, hier Inhalt einzufügen)}}",
    "user": "Gamlor"
}