{
    "text": "Fred: Was wünschst du dir denn zum Geburtstag?\r\n\r\nKäfer: Äh...keine Ahnung.\r\n\r\nFred: Super!\r\n\r\nFred: Davon habe ich eine Menge vorrätig...!\r\nKäfer: !",
    "user": "Gamlor"
}