{
    "text": "Käfer: Gleich geht's los!\r\n\r\nKäfer: Ich freue mich schon auf den Anstoß!\r\n\r\nKäfer:\r\n\r\nKäfer [[Herz über dem Kopf]]\r\nSpinne[[baumelt herab mit Weinglas]]\r\nFred[[mit Weinglas und lacht]]\r\nFred und Spinne stoßen an: Ping!\r\n\r\n\r\n{{Spinne mag übrigens auch Tornetze.}}",
    "user": "ksa"
}