{
    "text": "Fred: was ich dich schon immer fragen wollte... /Käfer: ?\r\nKäfer: ?? /Fred\r\nKäfer: ??? /Fred\r\nFred: ...bist du eigentlich geduldig...? /Käfer: seufz",
    "user": "Woodpecker68"
}