{
    "user": "ksa",
    "text": "[[ein weißer Karton in Draufsicht]]:Vogelperspektive\r\n\r\n[[ein weißer Karton von vorn schräg unten gesehen]]:Froschperspektive\r\n\r\n[[schwarzes Panel]]:Fredperspektive\r\n\r\nFred:[[schlafend mit Z über dem Kopf vor dem Karton liegend]]"
}
