{
    "user": "Woodpecker68",
    "text": "Fred [[fliegt zwischen den Wolken]]: Weiter oben kann man am besten in die Ferne schauen...\r\n\r\nFred [[sitzt auf dem Stein]]: Weiter unten sieht man, was in der Nähe ist.\r\n\r\nFred: Noch weiter unten braucht man keine guten Augen mehr...\r\n\r\nFred [[schaut runter zu Maulwurf]]: ...weil man tief ins eigene Innere blickt...!\r\nMaulwurf [[schaut aus seinem Hügel]]: ?\r\n\r\n{{Und deswegen bringt Fernsehen keine tiefen Einsichten.}}"
}
