{
    "text": "[[Fred schaut durch eine Lupe]]\r\n\r\nFred: ? [[schaut angestrengt durch die Lupe]]\r\n\r\nFred: Anscheinend handelt es sich hierbei...\r\n\r\nFred: ...um eine Zeitlupe...!\r\nSchnecke: ? [[kriecht ins Bild]]",
    "user": "Sanne"
}