{
    "user": "Woodpecker68",
    "text": "Fred [[liegt am Stein]]: Ich vermeide Arbeit.\r\n\r\nFred [[liegt am Stein]]: Wenn aber das Vermeiden von Arbeit...\r\n\r\nFred [[liegt am Stein]]: ...zuviel Arbeit macht...\r\n\r\nFred [[liegt am Stein]]: ...vermeide ich diese Arbeit!\r\n\r\n{{Ver ist ürbigens der Bruder von Iron Meiden.}}"
}
