{
    "user": null,
    "text": "Fred: Ein Sprichwort sagt: \"Aller Anfang ist schwer!\"\r\nWurm: ?\r\n\r\nFred: Oder, in Umgangssprache: \"Der Anfang von allem ist schwer.\"\r\n\r\nFred: Nun ja... es wird zuweilen behauptet, ich sei schwer...\r\n\r\nFred: Also bin ich der Anfang von allem!!\r\nWurm: !"
}
