{
    "text": "Fred: eigentlich gibt es nur zwei Möglichkeiten... /Käfer\r\nFred: entweder ich darf nach meinem Tod nicht in den Himmel und komme in die Hölle... /Käfer: ?\r\nFred: ...oder ich komme in den Himmel und erhalte ein zweites Paar Flügel... /Käfer: !\r\nFred: ...was ja wohl reichlich bescheuert aussähe...!!! /Käfer",
    "user": "Woodpecker68"
}