{
    "text": "Fred [[als Zauberer verkleidet, ein kleines Herz über dem Kopf.]]\r\n'Magier.'\r\n\r\nFred  [[als Zauberer verkleidet, ein großes Herz über dem Kopf.]]\r\n'Liebier.'\r\n\r\n{{An dieser Stelle dürft ihr euch einen amüsanten Wortwitz mit Bier und Libyen zusammenbasteln.}}",
    "user": "Woodpecker68"
}