{
    "text": "Fred: Während des Fliegens schaue ich gerne auf die winzige Welt unter mir...\r\n\r\nFred: ...und erkenne , wie unbedeutend, wie nichtig und klein alles ist...\r\n\r\n\r\n\r\nFred: Nur ich nicht!",
    "user": "sini"
}