{
  "user": "Woodpecker68",
  "text": "Fred [[schaut nach unten auf seinen Bauch]]: Manchmal müssen Dinge erste schlechter werden...\r\n\r\nFred [[auf derWiese mit Käfer und einem leeeren Teller]]: ...bevor sie besser werden.\r\nKäfer\r\n\r\nFred [[schaut traurig auf den leeren Teller]]\r\nKäfer: Wir haben alle Kekse gegessen...\r\n\r\nFred [[springt freudig in die Luft]]: ...und fühlen uns jetzt super!!\r\nKäfer [[macht einen Luftsprung]]\r\n\r\n{{B-esser}}"
}