{
    "text": "Fred: Lieber Schöpfer, könntest du bitte dafür sorgen...\r\n\r\nFred: ...dass man immer meinen gesamten Körper sieht?\r\n\r\nFred: das ist sonst nämlich so, als würdest du bei einer Geschichte das letzte Viertel...\r\n\r\n[[Panel 4 existiert nicht]]",
    "user": "Sanne"
}