{
    "user": "Woodpecker68",
    "text": "Fred: Willkommen zu meiner Ausstellung!\r\nKäfer\r\n\r\nFred [[bewegt den Hebel eines Ein-Aus-Schalters]]\r\nSchalter: 'Aus' klack\r\n\r\nFred [[liegt schlafend am Stein]]: Z\r\nKäfer: !\r\n\r\n{{Auslegung, eigentlich.}}"
}
