{
    "text": "Fred: es gibt sieben Totsünden...\r\nFred: Zorn, Trägheit, Hochmut, Völlerei...\r\nFred [[schaut verdutzt]]\r\nFred: jetzt fehlen nur noch drei...! Mampf [[Kekse futternd]]",
    "user": "Woodpecker68"
}