{
    "text": "Fred [[flüsternd]]: Der Fisch geht zu Halloween übrigens als...\r\n\r\nFred [[strahlend]]: ...Kugelfisch...!\r\nFisch [[in einem Goldfischglas]]\r\n\r\n{{Wasserball.}}",
    "user": "Woodpecker68"
}