{
    "user": "Woodpecker68",
    "text": "Fred [[steht breit grinsend auf der Wiese]]: Ich arbeite gerade an meiner Kondition!\r\n\r\nFred [[hält ein Stück Torte]]: Mit Hilfe des Konditors!\r\n\r\n{{KondiThor - Bäcker von Asgard.}}"
}
