{
    "text": "Fred [[mit Schal, stapft durch den Schnee]]: Seit Anbeginn allen Lebens sind Jahrhunderte  vergangen...\r\n\r\nFred [[Es wird langsam Zeit für ein paar Jahrkatzerte!\r\n\r\n{{Oder Jahrfledermauserte.]]",
    "user": "Woodpecker68"
}