{
  "user": "Woodpecker68",
  "text": "Fred [[mit einem Hexenhut auf dem Kopf und einem brennenden Streichholz in der linken Hand]]: Maifeuer dienen dazu böse Geister zu vertreiben.\r\n\r\nFred [[schaut auf ein kleines Gespenst}}\r\nGespenst: Nur böse Geister?\r\n\r\nFred [[hält das Gespenst im Arm]]: Nur böse. <3\r\nGespenst: <3\r\n\r\n{{Gewar. Geist. Gewirdsein.}}"
}