{
    "text": "Professor-Fred [[sitzt auf einem Stein]]: Ein negiertes Verbot ist eine Erlaubnis.\r\n\r\nProfessor-Fred [[zeigt auf ein Parkverbotsschild]]: Parkverbot.\r\n\r\nProfessor-Fred [[zeigt aif ein Schild 'Absolutes Halteverbot']]: Parkverbot durchgestrichen.\r\n\r\n{{The X marks the spot.}}",
    "user": "Woodpecker68"
}