{
    "text": "Kästchen: Ausgebildet.\r\n[[Fred ist stolz und als Student gekleidet]]\r\n\r\nKästchen: Eingebildet.\r\n[[Fred ist immer noch stolz und als Student gekleidet]]\r\n\r\n{{Schalter -- Ich mag diese Ein-Aus-Comics.}}",
    "user": "Gamlor"
}