{
    "text": "Fred: Eigentlich suoer:\r\n\r\nFred: Bei Wärme dehnen sich die Dinge aus...\r\n\r\nFred: Bei Kälte ziehen sie sich zusammen...\r\n\r\nFred: Ich liebe den Winter!\r\n[[Fred blickt auf das Maßband um seinen Bauch.]]",
    "user": null
}