{
    "user": "Woodpecker68",
    "text": "Fred [[sitzt auf dem Stein und hält eine Erdbeere]]: Wenn Früchte reifen...\r\n\r\nFred [[kauend]]: ...werden sie allmählich dicker und dicker...\r\n\r\nFred [[leckt sich den Mund]]: ...und süßer!\r\n\r\nFred [[liegt am Stein]]: So wie Fledermäuse!\r\n\r\n{{Das Wichtigste ist, dass Früchte immer früch sind.}}"
}
