{
  "user": "Woodpecker68",
  "text": "Fred [[mit Schal]]: Am liebsten mag ich meine Wintermütze!\r\n\r\nFred [[mit Schal]]: Sie ist so warm und flauschig!!\r\n\r\nFred [[sitzt mit Schal um den Hals auf dem Boden und schaut zu Käfer]]: <3\r\nKäfer [[sitzt schlafend in Freds Pudelmütze]]: z\r\n\r\n{{Warm und wreich.}}"
}