{
    "text": "Fred [[hält ein Schild]]: 'Der Untergang ist nah!!\r\n\r\nFred [[sitzt und schaut auf den Boden]]\r\nMaulwurf [[hat unter Fred einen Gang gebaut und schaut nun vor ihm aus dem Boden]]\r\n\r\n{{Uuh. Ein Comic mit Tiefgang.}}",
    "user": "Woodpecker68"
}