{
    "text": "Fred: mal überlegen...\r\nFred: traurig aber wahr ist:\r\nnichts bleibt. alles ist vergänglich.\r\nFred: wenn jedoch nichts bleibt, dürfte auch die tatsache, dass nichts bleibt vergänglich sein...\r\nFred: es besteht also noch hoffnung...!",
    "user": "Drachin"
}