{
    "text": "Fred [[mit Schal]]: Wenn mir sehr kalt ist...\r\n\r\nFred: ... mache ich mir einen Tee.\r\n\r\nFred: Im Augenblick ist mir nur ein bisschen kalt...\r\n\r\nFred [[malt mit Bleistift eine Kuh auf die Staffelei]]\r\n\r\n{{Am liebsten mag ich Erkältungen an Lokationen, die nicht mit meiner übereinstimmen.}}",
    "user": "Woodpecker68"
}