{
    "text": "[[Fred schläft am Filosofierstein und der Wecker klingelt]]\r\n\r\n[[Fred steht verschlafen auf]]\r\n\r\n[[Fred hat einen Pinsel und malt das ringring weg]]\r\n\r\n[[Fred legt sich wieder hin und schläft]]",
    "user": "Lorena"
}