{
  "user": "Woodpecker68",
  "text": "Fred [[liegt am Stein]]: Ich schlafe nicht.\r\n\r\nFred [[liegt am Stein]]: Als Steinpräsident lausche ich der Stimme des Volkes.\r\n\r\nFred [[liegt mit geschlossenen Augen am Stein]]\r\nKäfer: Und was sagen die Steine?\r\n\r\nFred [[liegt am Stein]]: Z\r\n\r\n{{PräsiDent? Klingt wie eine Zahnpasta.}}"
}