{
    "text": "[[Man sieht den Stein, daneben ein Schild]]\r\nSchild: Gegen D!\r\n\r\n[[Fred hält ein Schild in der Hand, mit zufriedenem lächeln im Gesicht und Krönchen auf]]\r\nSchild: Für St!\r\n\r\n{{Dieser Comic entstand übrigens aus der Überlegung, dass sich Gegensätze anziehen, und der damit einhergehenden Frage, welche Kleidung sie sich denn anziehen würden. Einen Gegensatz mit Bommelmütze kann ich mir gut vorstellen.}}",
    "user": "Gamlor"
}