{
    "user": "Woodpecker68",
    "text": "Fred [[auf der Schneewiese]]: Liebe beinhaltet auch...\r\n\r\nFred: ...selbstlose Taten! <3\r\n\r\nFred [[zeigt nach rechts]]: Deswegen werde ich im nächsten Panel...\r\n\r\n[[Schneewiese]]\r\n\r\n{{Für den heutigen Comic bekam ich übrigens nur 3/4 meines Lohns.}}"
}
