{
  "user": "Woodpecker68",
  "text": "Fred [[steht freudig mit ausgebreiteten Armen, Pudelmütze und Schal im Schnee]]: Willst Du mein neuestes Kunstwerk sehen?\r\nKäfer [[mit kleiner Pudelmütze]]\r\n\r\nKäfer: Kunstwerk?\r\n\r\nFred [[zeigt über die geschlossene Schneedecke]]: \"Schnemman vor seiner Geburt.\"\r\nKäfer: <3\r\n\r\n{{Werk. Wies. Wask.}}"
}