{
    "text": "Panel 1: Käfer (mit Partyhut): Fred etwas fetziges zu schenken ist gar nicht so schwer...\r\nPanel 2: Käfer: ...schließlich man er Essen und sich selbst am liebsten...\r\nPanel 3: Fred und alle seine Freunde stehen vor einer grißen Torte, die aussieht wie ein großer Fred: ALLES GUTE!\r\n\r\n{{Etwas Fetziges -- Die Kerze ist übrigens genauso essbar wie der Kuchen. Meint zumindest Fred.}}",
    "user": "Woodpecker68"
}