{
    "text": "Fred: Nicken bedeutet \"Ja\".\r\n\r\nFred: Und da ich es mag, hin und wieder ein bisschen \"Ja\" zu sagen ...\r\n\r\nFred: ... halte ich jetzt ein Nickerchen!\r\nWurm: !\r\n\r\n{{alt-text: Deswegen hält man im Ja_nuar auch Winterschlaf.}}",
    "user": "Andi"
}