{
    "text": "Fred: Ich flaube, heute ist mal wieder einer dieser Tage, ...\r\nKäfer: ?\r\n\r\nFred: ...an denen ich ständig...\r\n\r\nFred: Äh...\r\n\r\nFred: Seufz\r\nKäfer: Seufz",
    "user": "Sanne"
}