{
    "text": "Käfer: Wieso besitzt du eigentlich einen Adelstitel?\r\n\r\nKäfer: Hast du etwa blaues Blut?\r\n\r\nFred: Ich würde das ja gerne nachprüfen...\r\n\r\nFred: ...aber das hier ist ein Schwarz-Weiss-Comic!\r\nKäfer: !",
    "user": "Sanne"
}