{
    "text": "Fred: [grinst]\r\n\r\nFred: [läuft]\r\n\r\nFred: [winkt]\r\n\r\nFred: !\r\n\r\nFred: Beinahe wäre dies ein wortloser Comic geworden...\r\n\r\nFred: Schade.\r\n\r\n{{alt-text: Es hätte geklappt, wenn ich - wie häufig üblich - nach vier Paneln aufgehört hätte.}}",
    "user": "Andi"
}