{
    "text": "Fred: Es rumort gewaltig unter der Erde...\r\nKäfer: ?\r\n[[liegt auf dem Boden und horcht]]\r\n\r\nFred: Da wird gleich eine ganze Kompanie Würmer auftauchen...! [[hält eine Gabel in der Hand]]\r\nKäfer: ?\r\n\r\n[[Der Mailwurf kommt aus dem Boden, Fred wirft vor Schreck seine Gabel weg]]\r\nKäfer: !",
    "user": "Sanne"
}