{
    "text": "Fred: Ich mag den Winter nicht. Er ist immer so...kalt! *bibber*\r\n\r\nFred: Frierst du nicht, kleiner Käfer? *zitter*\r\n\r\nFred: Käfer?\r\n\r\nKäfer: Geht so.\r\nFred: ?",
    "user": "Briongloid"
}