{
    "user": "Woodpecker68",
    "text": "Fred [[zu Käfer auf der Wiese]]: Vielleicht sollte der Schöpfer mehr Werbung für uns machen...!\r\n\r\nKäfer: Aber würde das die Leute nciht nerven?\r\n\r\nFred [[auf der Wiese sitzend]]: Nur diejenigen, die nicht klug und schön und sexy sind...!\r\nKäfer: Hihi!\r\n\r\n{{Kauft den Fredkalender, ihr Sexy-Schönen-Klugen!}}"
}
