{
    "user": "Woodpecker68",
    "text": "Fred [[mit Schal]]: In der Adventszeit geht es um Liebe, Freude, um Glück und Seelenfrieden...\r\n\r\nFred: Es geht um Nadelbäume, Plätzchen, um Glühwein, Zmit und Kerzen...\r\n\r\nFred: Also um innerstes ... und Gerüche.\r\n\r\nFred [[steht im Schnee in der Hocke und drückt einen Pups hinaus]]: 'Pups'\r\n\r\n{{Interessanterweise beinhaltet 'Adventszeit' ein 'ß'.}}"
}
