{
    "user": "Woodpecker68",
    "text": "Fred [[steht auf der Wiese, schaut zum Himmel, es regnet]]: Es regnet nicht sehr viel...\r\n\r\nFred [[im Regen]]: ...weil es ziemlich anstrengend ist...\r\n\r\nFred [[deutet auf die Regentropfen]]: ...so viele Striche zu zeichnen...!\r\n\r\n{{Sind Schwertfische Nasshörner?}}"
}
