{
    "text": "Professor-Fred: Ich erfinde derzeit Massenvernichtungswaffen!\r\n\r\nProfessor-Fred: Zur Entfernung überflüssiger Pfunde!\r\n\r\n{{Massenvernichtungswaffeln.}}",
    "user": "Woodpecker68"
}