{
  "user": "Woodpecker68",
  "text": "Magier-Fred [[mit Zaubererhut und Fliege]]: Ich werde nun eine Erkenntnis herbeizaubern.\r\n\r\n[[leeres Panel]]: Pof!\r\n\r\nMagier-Fred: Ich kann gar nicht zaubern!\r\n\r\n{{UnsIchErheit beinhaltet drei Pronomen.}}"
}