{
    "text": "Fred: Ich kann übrigens bestätigen...\r\n\r\nFred: ... dass ich niemals etwas bestätige...!\r\nKäfer: !\r\n\r\n{{alt-text: #1749: Bestätigung -- Das kann ich bestätigen.}}",
    "user": "Andi"
}