{
    "text": "Fred: Ich mag Kekfe...\r\n\r\nFred: Eigentlich ift mir auch egal, um welche Forte ef fich handelt.\r\n\r\nFred: Doch aus irgendeinem Grund...\r\n\r\nFred: ...mag ich diese Sorte besonders...!\r\nKäfer: ?\r\n[[Fred ist einen Keks, der Käfer ähnelt]]",
    "user": "sini"
}