{
    "user": "Woodpecker68",
    "text": "Fred: Du siehst so angespannt aus...\r\nSpinne [[hängt von oben im Panel]]\r\n\r\nFred: Du solltest dich ein wenig entspannen.\r\nSpinne\r\n\r\nSpinne [[sitzt auf Freds Kopf, der Faden hängt locker]]\r\nFred\r\n\r\n{{Mmh. Leckeres Str-Essen.}}"
}
