{
    "text": "Fred: der Sternenhimmel ist wunderschön...! [[mit Käfer unter Sternenhimmel]]\r\nFred: plötzlich komme ich mir ganz klein vor...\r\n[[Fred schaut auf Käfer runter]]\r\nFred: ich bin froh, dass es dich gibt...!",
    "user": "Woodpecker68"
}