{
    "text": "Fred: Angeblich ist man Optimist, wenn man das Glas als \"halbvoll\" bezeichnet...\r\n\r\nFred: ...und Pessimist, wenn man \"halbleer\" dazu sagt.\r\n\r\nFred: Das ist doch bescheuert!\r\n\r\nFred: Es kommt schliesslich darauf an, was in dem Glas drin ist...!",
    "user": "Sanne"
}