{
    "user": "Woodpecker68",
    "text": "Professor-Fred [[sitzt auf dem Filosofiestein]]: Wartung ist die Durchführung von Arbeiten zur Erhaltung der Funktionstätigkeit.\r\n\r\nProfessor-Fred: Also ist das Behandlungszimmer beim Arzt...\r\n\r\nProfessor-Fred [[sitzt auf dem Filosofiestein]]: ...das eigentliche Wartezimmer...!\r\nWurm [[auf dem kleinen Stein]]\r\n\r\n{{Behandlung und Befußung.}}"
}
