{
    "text": "Fred: Käfer! Käfer! Ich hatte wieder diesen schrecklichen Traum!\r\n\r\nFred: Du weißt schon... Der mit dem Riesenregenwurm...\r\n\r\nFred: ... der mich mit Haut & Haar verschlingt!!\r\n\r\nRiesenkäfer, Riesenwurm1, Riesenwurm2: Lecker!\r\nFred: Käfer?",
    "user": "sini"
}