{
    "text": "Fred: Der Winter nervt allmählich.\r\n\r\n[[Fred schaut besorgt nach oben]]\r\n\r\n[[Fred sieht die erste Schneeflocke]]\r\n\r\n[[Es fängt an zu schneien]]\r\nFred: Wuhu\r\n\r\n{{Schjaa!}}",
    "user": "Gamlor"
}