{
    "text": "Fred: Ich mag sowohl Spinnen...\r\n[[Fred und Spinne sind in der Höhle drinnen und hängen von der Decke]]\r\n\r\nFred: ...als auch Spaussen!\r\n[[Fred und Spinne sind draussen beim Stein]]\r\n\r\n{{Und sogar Spzwischendrin.}}",
    "user": "Gamlor"
}