{
    "user": "Woodpecker68",
    "text": "Fred [[in einem weissen Panel, hält einen angebissenen Keks]]: Ich gebe mir stets Mühe...\r\n\r\nFred [[hält ein Stück Kuchen]]: ...um möglichst viel zu spenden.\r\n\r\nFred [[sitzt in der Sonne auf der Wiese]]: Schatten!\r\nKäfer [[sitzt im Rücken in Fred's Schatten]]: Hihi!\r\nWurm\r\n\r\n{{Wett. Wetter. Am wettersten.}}"
}
