{
    "user": "Woodpecker68",
    "text": "Fred [[auf der Wiese]]: Der einfachste Weg beliebt zu werden, ist jemanden zu imitieren, der bereits beliebt ist.\r\nKäfer [[schaut hoch zu Fred]]\r\n\r\nFred [[auf der Wiese]]: Der einfachste Weg beliebt zu werden, ist jemanden zu imitieren, der bereits beliebt ist.\r\nKäfer [[schaut hoch zu Fred]]: !\r\n\r\n{{Fred erfreut sich ja großer Beleibtheit.}}"
}
