{
    "text": "Fred: Kaum weicht der Winter...\r\n\r\nFred: ...lieght in der Luft etwas Wunderbares...\r\n\r\nFred: ...etwas Zauberhafter, Majestätisches, ein Hauch aus Hoffnung und Schönheit...\r\n\r\nFred: ich. [[Fred fliegt davon]] *Flap Flap*\r\n\r\n{{Freds Flattern ist eher ein Durch-die-Luft-Kugeln.}}",
    "user": "Gamlor"
}