{
    "text": "Fred: Lebensmittel sind mich nicht länger genug!\r\nKäfer: ?\r\n\r\nFred: Ab sofort gibt es für mih nur noch...\r\n\r\nFred: ...Lebensgut!\r\n\r\nFred: Wenn nicht sogar Lebenssuper...!\r\nKäfer: Hihi!",
    "user": "Sanne"
}