{
    "text": "Fred: Der Teil meines Körpers, der sich vor allen anderen befindet...\r\n\r\n...ist mein Bauch![[Fred lacht und hält sich seinen Bauch]]\r\n\r\nFred: Mein Vorteil wächst ständig...[[Fred sitzt auf seinem Stein und futtert einen Keks]]\r\nWurm: \"!\"\r\nKäfer:HiHi!\r\n\r\n\r\n{{Nachteile stinken}}",
    "user": "ksa"
}