{
    "text": "Fred: Der Teil meines Körpers, der sich vor allen anderen befindet ...\r\nFred: ... ist mein Bauch!\r\nFred: Mein Vorteil wächst ständig... [[Keks essend]]\r\nWurm: !\r\nKäfer: Hihi!\r\n{{Alt-Text: Nachteile stinken.}}",
    "user": "Neil"
}