{
    "user": "Woodpecker68",
    "text": "Fred [[schaut aus dem Panel zum Leser]]: Hey Du!\r\n\r\nFred: Du bist das Beste, was mir heute passiert ist...! <3\r\n\r\nKäfer: Hi!\r\nFred [[dreht den Kopf nach links und schaut zu Käfer]]\r\n\r\nFred: Naja, das Zweitbeste...!\r\n\r\n{{Be Beer. Am Besten.}}"
}
