{
    "user": "Woodpecker68",
    "text": "Fred [[steht traurig auf der Wiese und schaut ins rechte Panel]]\r\n\r\nKäfer [[steht traurig auf der Wiese und schaut ins linke Panel]]\r\n\r\nBleistift [[liegt im rechten Panel auf der Wiese]]\r\n[[der Zwischenraum zwischen den Panelen ist teilweise übermalt]]\r\nFred [[hält Käfer auf dem Arm]]: <3\r\nKäfer\r\n\r\n{{Painting the 4th wall.}}"
}
