{
    "text": "Fred Wenn bei jedem Fußballspiel eine Handvoll Spieler...\r\n\r\nFred[[sitzt auf dem Filostein]]:...auf der Ersatzbank sitzt...\r\n\r\nFred[[sitzt auf dem Filostein]]...stellt sich doch die Frage...:\r\n\r\nFred[[nur der Kopf zusehen, erstaunt]] Was ist mit der Originalbank passiert?!?\r\n\r\n{{Die Bank war vielleicht zu sehr an Geld interessiert.}}",
    "user": "ksa"
}