{
    "text": "[[Schnecke schaut traurig]]\r\n\r\n[[Batfred kommt, mit einem Stift in der Hand, angerannt. Schnecke schaut weiterhin traurig.]]\r\n\r\n[[Batfred rennt aus dem Bild und Schnecke blickt sich fragend um.]]\r\nSchnecke: ?\r\n\r\n[[Das Schneckengehäuse sieht jetzt - Gegensatz zu den ersten bei den Bildern - wieder normal aus. Dank Batfred.]]\r\nSchnecke: Hihi!\r\n\r\n{{alt-text: Der Comic sollte eigentlich 'ooo' heißen. Wegen des ersten Panels.}}",
    "user": null
}