{
    "text": "Fred: Auch toll wäre es, gäbe es Gemüse, dessen Verzehr schlau macht.\r\n[[Fred mit Glühbirnen-Krawatte und Karotte in der Hand]]\r\n\r\nFred: Dann würde ich nämlich so viel davon essen, dass ich...\r\nKäfer: ?\r\n\r\nFred: ...ein Gemüse erfinden könnte, dessen Verzehr so schlau macht, dass ich...\r\n\r\nFred: Mift!\r\nKäfer: *seufz*",
    "user": null
}