{
    "text": "Fred: Das ist eine Liste der 100 hübschesten Personen der Welt...\r\nFred: ...und ich stehe drauf!\r\nFred guckt lieb, Käfer: Seufz\r\n\r\n{{100 -- Listig.}}",
    "user": "Woodpecker68"
}