{
    "text": "Fred: Es gibt Tage, an denen ich nur ganz leise reden möchte.\r\n[[Fred ganz klein, flüstert]]\r\n\r\nFred: Heute ist keiner von ihnen!\r\n[[Fred ganz nah, schreit]]",
    "user": null
}