{
    "text": "Fred: Diese Hitze ist einfach unerträglich...!\r\n\r\nFred: *Kerze*\r\n\r\nFred: Viel besser... [[hält einen Rasierer in der Hand und hat sich den Bauch geschoren]]\r\nRasierer: Bssss\r\n\r\nKäfer: Diese Hitze ist einfach unerträglich...!\r\n[[Fred schaut überrascht auf den Käfer, der seine Punkte abgeworfen hat]]",
    "user": "Sanne"
}