{
    "user": "Woodpecker68",
    "text": "Käfer: Bei einer Erkältung soll man sehr viel Tee trinken!\r\n\r\nFred [[saugt aus einem Strohhalm durch den Panelboden]]: Ich weiß!\r\nKäfer: !\r\n\r\ngroßes Panel [[mit einem schwimmenden Teebeutel und dem Strohhalmende]]\r\n\r\n{{Lieber Tee!}}"
}
