{
    "text": "Schnecke [[zu Fred]]: Dieses Jahr zu Halloween...\r\n\r\nSchnecke: ...gehe ich als Wohnhaus!\r\n\r\nSchnecke [[hat sich in ihr Haus zurückgezogen]]\r\nFred: !\r\n\r\n{{Sie könnte so allerdings auch als Skelett gehen.}}",
    "user": "Woodpecker68"
}