{
    "text": "SCHOKOEISTEE\r\nFred:[[hält ein großes Eis mit 3Kugeln in den Flügeln  und auf der Waffel befindet sich ein &quot;T&quot;]]\r\nKäfer:seufz\r\n\r\n{{Das ist übrigends Blasentee. Als zusätzliche Frischluftzufuhr}}",
    "user": "ksa"
}