{
    "text": "Käfer: Mal schauen, ob ich dich richtig verstanden habe:...\r\n\r\nKäfer: ein Baum atmet eine ganze Nacht lang aus. Du schaffst  immerhin  zwei Minuten. Das bedeutet  deine Logik zufolge ...\r\n\r\nKäfer: ... Dass du zu nullkommavier Prozent ein Baum bist...\r\n\r\nKäfer: ... Oder aber, dass ein Baum aus 240 Fledermäusen besteht...",
    "user": "sini"
}