{
    "text": "Fred: Ich habe nicht zugenommen!\r\n\r\nFred: Ich passe noch immer in die selbe Kleidung wie vor fünf Jahren...!\r\nWurm: !\r\n\r\n[[Strahlender Fred, der seine Fliegen-Krawatte zeigt]]\r\n\r\n{{Vielleicht hat er die Fliege ja auch mit Keksen gefüttert.}}",
    "user": "Gamlor"
}