{
    "text": "Fred [[mit Nadel und Faden]]: Ich lerne gerade zu nähen...\r\n\r\nFred [[hält ein Stück Stoff mit einer kurvigen Naht]]: bisher nähe ich aber nur krumm...!\r\nKäfer: !\r\n\r\n{{Ich lerne gerade zunähen. Mmpf-mhh-mmf.}}",
    "user": "Woodpecker68"
}