{
  "user": "Woodpecker",
  "text": "Fred [[reibt sich den Bauch und leckt sich dabei die Lippen]]: Nur die besten Zutaten ergeben das beste Essen.\r\n\r\nFred [[stehend]]: Daher zeichnet der Schöpfer...\r\n\r\nFred: ...mich so oft!\r\n\r\n{{Ziegen an Salzsteinen sind lecker.}}"
}