{
    "text": "Fred: Auf den Weihnachtsmann ist Verlass.\r\n\r\nFred: Jedes Jahr zu Weihnachten wünsche ich mir das Gleiche...\r\n\r\nFred: ...und jedes Jahr wieder wird mir der Wunsch erfüllt...:\r\n\r\nFred: Kälte...!\r\nKäfer: *bibber*",
    "user": "Sanne"
}