{
    "user": "Woodpecker68",
    "text": "Fred: Angeblich bewege ich mich zu wenig...\r\n\r\nFred: Das ist aber nicht verwunderlich...\r\n\r\nFred: ...muss ich doch jeden Tag Modell stehen...\r\n\r\nFred [[grinsend auf der Wiese]]: ...für irgendeinen Comic...!\r\n\r\n{{Fred freut sich ein wenig darüber, dass er nicht animiert ist.}}"
}
