{
    "text": "Fred: Wenn du dich durch die Erde wühlst, ... [[redet mit dem Maulwurf]]\r\n\r\nFred: ...wirst du doch bestimmt ziemlich dreckig...\r\n\r\nFred: Dagegen hilft ja angenlich Seife...\r\n\r\nFred: ...kann if aber nift beftätigen...![[hat von der Seife abgebissen]]",
    "user": "Sanne"
}