{
    "user": "Woodpecker68",
    "text": "Fred [[schaut auf seinen Schal]]: Huch! In meinem Schal fehlt etwas!\r\n\r\nFred [[liegt mit Schal am Stein]]: Besser!\r\nKäfer [[sitzt auf dem Schal]]\r\n\r\n{{Es fehlen Punkte!}}"
}
