{
    "text": "Fred: Kürbisschnitzen fetzt!\r\nFred: da kann man richtige Gesichter entstehen lassen!\r\nFred: meine Kürbisse werden besonders gruselig sein...!\r\nFred: Voila! /Käfer: ? [[im Bild ein Kürbis-Käfer]]",
    "user": "Woodpecker68"
}