{
    "text": "Fred: Was ich schon immer wissen wollte: Wofür sind eigentliche dine komischen Punkte? *Zeig*\r\nKäfer&Wurm: ?\r\n\r\nKäfer: Während Fledermäuse wegen ihrer bedrohlichen Eckzähne und ihrer ledrigen Flatterflügel argwöhnisch beäugt werden, lieben die Menschen uns Marienkäfer, uns Mutschekiepchen, uns Himmelswürmer. Wir sind klein, nützlich, niedlich und knubbelig. Und: Wir haben Punkte! Die bringen nämlich Glück [und sehen - nebenbei gesagt - äusserst sexy aus]! *schwafel*\r\n\r\nFred: *Kerze*\r\n\r\nFred: Ta-daa!\r\nKäfer: *Seufz*",
    "user": "robby"
}