{
    "text": "Fred: (schreit) AAAH!\r\n\r\nFred: (schreit) AAAAAAHH...!\r\n\r\nKäfer: Das klappt nicht.\r\n\r\nKäfer: Schreien und schneien ist einfach nicht dasselbe!\r\nFred: *Seufz*",
    "user": "Sanne"
}