{
    "text": "Erzähler: Einhorn.\r\n[[Fred sieht sich ein Bild von einem Einhorn an.]]\r\n\r\nErzähler: Aushorn.\r\n[[Fred sieht sich ein Bild von einem Pferd an.]]\r\n\r\n{{alt-text: Habe ich ja erwähnt, dass ich die Fliege mag?}}",
    "user": "Gamlor"
}