{
    "text": "Fred: Bei Ärger besinne ich mich immer auf meine feminine Seite...\r\nWurm: ?\r\n\r\nFred [[hat Wurm auf seinem Kopf sitzen]]: ...und werde zum Sieger!\r\nWurm: !\r\n\r\n{{Allerdings bewahrt er sich noch ein wenig Mönnlichkeit. Sonst wäre er ein Siegsie.}}",
    "user": "Woodpecker68"
}