{
    "text": "Fred [[hält einen Keks]]: Wenn du jemanden wirklich liebst,...\r\n\r\nFred [[läßt den Keks fallen]]: ...musst du ihn loslassen können...\r\n\r\nFred: ...und wenn er zurückkommt...\r\n\r\nFred [[liegt am Stein, der Keks liegt auf seinem Bauch]]: ...ist es die wahre Liebe...!\r\n\r\n{{Dabei fällt mir ein, dass ich auch mal wieder.kehren muss.}}",
    "user": "Woodpecker68"
}