{
    "user": "Woodpecker68",
    "text": "Fred [[liegt schlafend am Stein]]: z\r\nKäfer: Hast du denn den Weihnachtsbaum schon aufgestellt?\r\n\r\nFred: Na klar!\r\n\r\nFred [[flüstert]]: Und unter ihm befindet sich bereits das schönste Geschenk!\r\nKäfer: ?\r\n\r\nFred [[liegt wieder am Stein, über ihm kopfüber an der Höhlendecke hängt ein geschmückter Weihnachtsbaum]]\r\nKäfer: !\r\n\r\n{{Welch unauffälliger, nach unten weisender Pfeil, der da an der Deke hängt.}}"
}
