{
    "user": "Woodpecker68",
    "text": "Fred [[schaut mit schiefem Blick aus dem Panel]]: Wenn ich ein Kompliment bekomme...\r\n\r\nFred [[presst grinsend die Hände an den Körper]]: ...erröte ich!\r\n\r\nFred [[geht über die Wiese]]: Rot ist eine Komplimentarfarbe!\r\n\r\n{{Compliments always containe lime.}}"
}
