{
    "text": "Fred: Ich habe beschlossen, meine umfangreichen Fähigkeiten zu nutzen,...\r\n\r\n[[Fred mit Zauberhut und Zauberstab]]\r\nFred: ...um Schnee herbeizuzaubern...!\r\n\r\nFred: ABRAKDABRA HOKUS POKUS!\r\n\r\n[[Fred wird von einem riesigen Schneeball verfolgt]]\r\nFred: Lawine! Lawine!!!",
    "user": "der Don"
}