{
    "text": "Fred: Es wir allmählich kalt...\r\n\r\nFred: Wir müssen uns bald wärmer anziehen...\r\n\r\nFred: Daher kommt meine neueste Erfindung gerade rechtzeitig...\r\n\r\nFred: Eine gefütterte Krawatte...!\r\nKäfer: *seufz*\r\n[[Fred zeigt stolz seine Krawatte mit Punkten]]",
    "user": null
}