{
    "user": "Woodpecker68",
    "text": "Fred [[liegt schwitzend am Stein]]: Heute habe ich alle möglichen Anstrengungen unternommen...\r\n\r\nFred [[liegt grinsend am Stein]]: ...um Anstrenungen zu vermeiden!\r\n\r\n{{Anstrengung. Ausstrengung.}}"
}
