{
    "user": "Woodpecker68",
    "text": "Fred [[sitzt mit einem Bleistift auf der Wiese vor einem Blatt Papier]]: Wenn man mehr drückt...\r\nPapier [[mit einer breiter werdenden Schlangenlinie]]\r\n\r\nFred [[hält das Papier vor sich]]: ...wird die Linie dicker!\r\nFred [[nachdenklich]]: Das heißt, ich bin nicht dick...\r\n\r\nFred [[hält Käfer im Arm]]: ...sondern wurde sehr viel gedrückt! <3\r\nKäfer\r\n\r\n{{3D-Druck}}"
}
