{
    "text": "Fred: [[im Shirt, mit Tasse]] Man nehme eine Tasse mit leckerem Tee...\r\n\r\nFred: ... trinke einen grossen Schluck...\r\n\r\nFred: ... und bekleckere sich dabei...\r\n[[Fred hat einen Felck auf dem Shirt.]]\r\n\r\nFred: Und fertig ist das Tea-Shirt...!\r\nKäfer: Ich will nicht wissen, wie er Sweatshirts herstellt...",
    "user": null
}