{
    "text": "Fred [[ist rechts ausserhalb des Panel, nur eine Gedankenblase ist zu sehen]]: Es ist gar nicht so schwer, außerhalb der Box zu denken...!\r\nWurm: ?\r\n\r\n{{Ich wette, der liebe Fred durchbricht da hinten nicht nur die vierte, sondern auch die fünfte und die dreiundzwanzigste Mauer.}}",
    "user": "Woodpecker68"
}