{
  "user": "Woodpecker68",
  "text": "Professor-Fred [[liegt am Filosofiestein]]: Da man mit zunehmenden Alter auch weise wird...\r\n\r\nProfessor-Fred [[nachdenklich am Filosofiestein]]: ...sind gelbe Bananen schlauer als Grüne...!\r\nWurm[[ schaut vor Fred aus dem Boden]]: !\r\n\r\n{{Ein Thomas. Viele Thomaten.}}"
}