{
    "text": "Fred: Nach oben, ein wenig nach oben... und den anderen Arm noch ein bisschen weiter nach unten...\r\n\r\nFred: Die perfekte Sonne!\r\nSpinne: Hihi! [[hängt oben im Eck]]",
    "user": "Sanne"
}