{
    "user": "Woodpecker68",
    "text": "Fred [[auf der Wiese, hält in der rechten Hand ein Basecap und in der linken eine Krawatte]]: Nein!\r\nKäfer: Fred entscheidet gerade...\r\n\r\nFred [[hält ein kleid]]: Nein!\r\nKäfer: ...was an ihm gut aussieht...\r\n\r\nFred [[schaut runter auf Käfer]]\r\nKäfer: ?\r\n\r\nFred [[hält Käfer fest in den Armen]]\r\nKäfer: <3\r\n\r\n{{Unmoderne Kleidung ist gerade modern.}}"
}
