{
    "text": "Fred: Meine Mami hat mit diesen tollen Schal gestrickt\r\n\r\nFred: Er hält wirklich schön warm!\r\n\r\nFred: Aber er ist viel zu lang!\r\n\r\nFred: Und? Wie findest Du ihn?\r\nKäfer: Super!\r\n[[Käfer sitzt auf dem Schal, den Fred hinter sich herzieht]]",
    "user": "ksa"
}