{
  "user": "Woodpecker68",
  "text": "Fred [[hat ein quadratisches Amulett umhängen]]: Dieses Amulett schützt mich davor...\r\n\r\nFred [[schaut runter auf das Amulett]]: ...Kaufentscheisugnen zu bereuen.\r\n\r\nFred: Es war sehr teuer.\r\nKäfer: ?\r\n\r\nFred [[grinst breit]]: Aber das hat sich gelohnt!!\r\n\r\n{{Ich mus mich schützen. Oder jungfrauen. Oder skorpionen.}}"
}