{
    "text": "Fred: Das ist ja interessant... [[Zeitung lesend]]\r\n\r\nFred: Das Insekt des Jahres 2004 war die Hain-Schwebfliege. In diesem Jahr ist es die Steinhummel. Und 2006 ist es... [[weiter Zeitung lesend]]\r\n\r\nFred: Der Siebenpunkt-Marienkäfer! Du bist das Insekt des Jahres 2006!! [[Fred strahlt und freut sich für Käfer]]\r\n\r\nKäfer: Ich weiss... [[auf einem Thron sitzend und eine Krone tragend]]",
    "user": "Björn"
}