{
    "text": "Fred [[steht traurig im Regen]]: Seufz, Regen...\r\n\r\nFred: Moment! Ich habe ganz vergessen...\r\n\r\nFred [[mit einem Regenschirm in der Hand]]: ...mich an das Wetter anzupassen...\r\n\r\nFred [[hüpft vor Freude, der Regenschirm liegt auf dem Boden]]: WUHUU! REGEN!!\r\n\r\n{{Freds Regenbekleidung ist Begeisterung.}}",
    "user": "Woodpecker68"
}