{
  "user": "Woodpecker68",
  "text": "Professor-Fred: Zeitreisen sind unmöglich!\r\n\r\nProfessor-Fred: Um das zu beweisen...\r\n\r\nProfessor-Fred [[freudig mit ausgebreiteten Armen]]: ...werde ich eine Zeitmaschine bauen...\r\n\r\nProfessor-Fred [[Geht nach rechts über die Wiese ab]]: ...die nicht funktioniert!\r\n\r\n{{Zum Zeitreisen braucht man Zeitreis.}}"
}