{
    "user": "Woodpecker68",
    "text": "Fred: Zur Weihnachtszeit verspüre ich immer...\r\n\r\nFred: ...eine besonders große Wäre...! <3\r\n\r\nFred [[vor zwei Blechen mit Plätzchen]]: Frisch gebackene Plätzchen!! <3\r\n\r\n{{Jede*r braucht ein warmes, gemütliches Plätzchen.}}"
}
