{
    "text": "Fred (strahelnd): Diese Welt ist ausgezeichnet!\r\nFred: Sie hat sogar einen Orden bekommen!\r\nFred: ... den Norden! \r\nKäfer: seufz\r\n\r\n{{Ausgezeichnet -- ausserdem ist sie angefüllt mit Fj-Orden.}}",
    "user": "Woodpecker68"
}