{
    "text": "Fred: Eigentlich muss ich nur eine chemische Formel finden...\r\n\r\nFred: ...mit der ich intelligent genug werde, um eine chemische Formel zu finden...\r\n\r\nFred: ...mit der ich intelligent genug werde, um...\r\n\r\nFred: ...äh... Mist...!",
    "user": null
}