{
    "text": "Professor-Fred: Man plant, Dinge, die besonders süß sind, speziell zu kennzeichnen...\r\n\r\nProfessor-Fred [[hält einen Schokokeks]]: Mit Punkten zum Beispiel...\r\n\r\nProfessor-Fred [[schaut auf Käfer]]: hihi! &lt;3\r\nKäfer: ?\r\n\r\n{{...}}",
    "user": "Woodpecker68"
}