{
    "user": "Woodpecker68",
    "text": "Fred [[schaut bedrückt]]: Jemand muss es dir sagen:\r\nHase [[man sieht nur zwei Hasenohren]]\r\n\r\nFred: Aber du darfst nicht traurig sein...!\r\nHase [[nur die zwei Ohrspitzen zu sehen]]\r\n\r\nFred: Du bist häslich!\r\nKäfer [[neben einem Korb mit zwei bemalten Ostereiern]]\r\nHase [[neben einem Osterei]]\r\n\r\n{{Hässlich.Hässldu. Hässler.}}"
}
