{
    "user": "winnie",
    "text": "Fred: Das ist ein Apfel.\r\n\r\nFred: Das ist eine Kartoffel, ein sogenannter Erdapfel ...\r\n\r\nFred: Soweit so gut ... doch was passiert, wenn man anstelle eines Apfels ...\r\n\r\nFred: eine Birne vergräbt?\r\n"
}
