{
    "text": "Fred: If mache gerade FDH-Diät...\r\n\r\nFred: Daf bedeutet, daff if nur noch die Hälfte von allem futtere...\r\n\r\nFred: und damit die Diät wirklich effizient ift...\r\n\r\nFred: ...mache ich das doppelt so oft...!",
    "user": "Sanne"
}