{
    "text": "Fred [[sitzt auf dem Filosofiestein]]: Vor einer Übersetzung...\r\nWurm\r\n\r\nFred [[liegt auf dem Filosofiestein]]: ...bedarf es einer Überlegung...!\r\nWurm: z\r\n\r\n{{Translate. Transsoon.}}",
    "user": "Woodpecker68"
}