{
    "text": "Professor-Fred [[mit einem Blatt Papier]]: Ich werd eheute ein fleißiges Vorbild sein...\r\n\r\nProfessor-Fred: ...und nicht innerhalb des Comics faulenzen!\r\n\r\nProfessor-Fred [[sitzt auf dem Filosofiestein und liest]]\r\nWurm [[auf dem kleinen Stein]]: !\r\n\r\n[[Filosofiestein ist leer]]\r\nWurm [[schaut nach rechts aus dem Panel]]: ?!\r\n[[von rechts ausserhalb]]: Z\r\n\r\n{{Er liegt bestimmt schon wieder auf einem Weg herum.}}",
    "user": "Woodpecker68"
}