{
    "user": "Woodpecker68",
    "text": "Fred: Übrigens:\r\n\r\nFred: Ich ziehe meinen Hut vor Euch!\r\n\r\nFred [[zieht grinsend an einem Seil einen Hut über die Wiese]]\r\n\r\n{{...weil ihr all die Wortspielereien so tapfer ertragt. Ihr seid also sehr ertragreich.}}"
}
