{
    "text": "Fred: Eigentlich wollte ich dir einen riesigen Blumenstrauß herbeizaubern...\r\n[[Fred mit Zaubererhut, farbiger Käfer und drei andere Freds]]\r\n\r\nFred: ...doch irgendwas ging schief...\r\n\r\nFred: ...und plötzlich erscheinen diese drei Typen, die dir unbedingt...\r\n\r\nFred: ...zum Geburtstag gratulieren wollten...!\r\nVier Freds, Spinne: *Happy Birthday to you...*\r\nKäfer: !",
    "user": "sini"
}