{
  "user": "Woodpecker",
  "text": "Fred [[laufend]]: Wenn etwas neu ist, versuche ich stets...\r\n\r\nFred: ...offen zu sein!\r\n\r\nFred [[auf einem Stein steht ein dampfender Teller mit Keksen]]: Uuh, neue Kekse!\r\n\r\nFred [[schüttet den ganzen Teller in den weit geöffneten Mund]]: Aaaah!\r\n\r\n{{Neun. Altn.}}"
}