{
    "text": "Fred: Beim Geschenkekauf besonders wichtig:\r\n\r\nFred: Vergleichen\r\n\r\nFred: [[nachdenklich]]\r\n\r\nFred: Keine Ahnung was ein verg ist!\r\n\r\n{{Verg? Ist das das nicht ein kleines Tierchen, das alberne Wortwitzmacher frisst?}}",
    "user": "ksa"
}