{
    "text": "Fred: Ich werde nun allein mit meinen Geisteskräften...\r\n\r\nFred [[hält einen Suppenlöffel]]: ..diesen Löffel verbiegen...!\r\n\r\nFred [[hochkonzentriert]]\r\n\r\nFred [[bedrückt, mit Löffel]]: Klappt nicht.\r\nPanel [[nicht mehr quadratisch, sondern nach unten verzogen]]\r\n\r\n{{Falls also mal eine Line nicht so aussieht, wie sie soll, war's bestimmt Fred Fähigkeit und nicht mangelndes Zeichentalent.}}",
    "user": "Woodpecker68"
}