{
    "text": "Fred: Mir ist laaangweilig ...\r\n\r\nKäfer: Das ist - wissenschaftlich betrachtet - unmöglich!\r\n\r\nKäfer: Bei Wärme dehnen sich die Dinge aus, bei Kälte ziehen sie sich zusammen.\r\n\r\nKäfer: Folglich gibt es im Winter ausschließlich Kurzweil ... !\r\nFred: *seufz*",
    "user": "winnie"
}