{
    "user": "Woodpecker68",
    "text": "Fred [[sitzend zu Käfer]]: Alle denkne, dass ihr eigenes Kind...\r\n\r\nFred: ...das schönste und klügste ist...\r\n\r\nFred [[nachdenklich]]: Dabei ist doch das schönste und klügste Kind...\r\nKäfer\r\n\r\nFred: ...das meiner Eltern!!\r\nKäfer: seufz\r\n\r\n{{Oneofa Kind}}"
}
