{
    "text": "Fred [[schaut nach oben]]: Vielleicht senden die Sterne uns ja Leuchtsignale im Morsecode...!\r\n\r\nKäfer: Und was sagen sie?\r\n\r\nFred: Einmal lang...\r\nKäfer\r\n\r\nFred: Ttttttt\r\nKäfer: seufz\r\n\r\n{{Vielleicht sind es ja  Audi-Fans.}}",
    "user": "Woodpecker68"
}