{
    "user": "Woodpecker68",
    "text": "Fred: Als Vorbereitung für Halloween bin ich heute...\r\n\r\nFred [[neigt sich leicht nach links]]: ...ein bisschen schräglich...!\r\n\r\n{{Ist 'gru-selig' so etwas wie 'un-heilig'?}}"
}
