{
    "text": "[[Fred sitzt auf einem Berg Briefe.]]\r\nFred: Ich habe zahlreiche Leserbriefe bekommen...\r\n\r\n[[Fred schaut traurig in einen Brief.]]\r\nFred: Allerdings sind sie alle leer...!\r\n\r\nFred: Vielleicht wären Schreiberbriefe besser gewesen!\r\n\r\n{{Oder Laserbriefe!}}",
    "user": "his"
}