{
    "text": "Fred [[steht mit Punktekrawatte auf dem Filosofiestein]]: Einer Sache bin ich mir völlig sicher:\r\nWurm: !\r\n\r\nFred: Man kann sich niemals völlig sicher sein!\r\n\r\n{{Türlich türlich.}}",
    "user": "Woodpecker68"
}