{
    "text": "Fred: wenn wir enorm viel Geld hätten... /Käfer [[im Regen]]\r\nFred: ...dann wären wir jetzt nicht klitschnass! /Käfer\r\nFred: ...dann sässen wir jetzt gemütlivh im Whirlpool... /Käfer\r\nKäfer: ..und wären trotzdem nass...! /Fred: ach so...",
    "user": "Woodpecker68"
}