{
    "text": "Spinne [[hängt von der Decke]]\r\nFred [[schaut hoch]]: In den USA ist Spinne übrigens nicht symmetrich...\r\n\r\nFred [[geht nach rechts ab]]: ...sondern Sym=3,3fußig!\r\nSpinne: seufz\r\n\r\n{{'Drei Länder verwenden kein metrisches Maßsystem: Liberia, Myanmar und die USA.' (wikipedia)}}",
    "user": "Woodpecker68"
}