{
    "text": "Professor-Fred: Um abnehmen zu können, sollte man Kekse und Kuchen...\r\n\r\nProfessor-Fred: ...möglichst weit von sich entfernen!\r\n\r\nProfessor-Fred [[sitzt vor einem Teller Kekse und hält noch einen Kuchen in der Hand]]\r\nKäfer: Was machst Du?\r\n\r\nProfessor-Fred [[mit vollem Mund]]: Ich entferne Kekse und Kuchen!\r\n\r\n{{Dis-Tanz.}}",
    "user": "Woodpecker68"
}