{
    "user": "Woodpecker68",
    "text": "Fred [[schaut aus dem Panel]]: Dieser Comic wäre viel populärer, wenn es mehr Referenzen...\r\n\r\nFred: ...zu beliebten Comicfiguren gäbe!\r\n\r\nFred [[hält ein Schild]]: <3\r\nSchild: 'Fred fetzt!'\r\n\r\n{{Augenlöcher sind übrigens sehr pupillär.}}"
}
