{
    "user": "Woodpecker68",
    "text": "Fred [[nachdenklich]]: Persönliche Geschenke sind oft die besten!\r\n\r\nFred [[steht neben Käfer]]: Zum Beispiel, wenn ich ein Bild von mir verschenke...\r\nKäfer: !\r\n\r\nFred [[mit freudig ausgebreiteten Armen]]: Oder wenn ich der ganzen Welt mehrmals pro Woche mehrere Bilder von mir schenke.\r\nKäfer: !!\r\n\r\nFred [[schaut zum Leser]]: Das wäre doch schön, oder?!?\r\n\r\n{{Ich hoffe, Ihrbraucht kein Geschenkpapier...}}"
}
