{
    "user": "Woodpecker68",
    "text": "Fred: Comic vereinigen die besten drei Künste:\r\n\r\nFred: Bild, Text...\r\n\r\nFred [[auf derWiese]]\r\nKäfer [[recht neben Fred]]: Und?\r\n\r\nFred: Comics!\r\n\r\n{{Zentraler Bestandteil jedes Comics ist Omi.}}"
}
