{
    "user": "Woodpecker68",
    "text": "Fred [[sitzt auf dem Stein]]: Weisheiten sind umso besser...\r\n\r\nFred: ...je tiefer sie sind.\r\n\r\nFred [[schaut nach unten aus dem Panel]]: Ich freu mich schon auf den letzten Kommentar unter diesem Comic...!\r\n\r\n{{Tief antasttischen 4}}"
}
