{
    "text": "Fred: Ich habe mir zum Geburtstag eine Krawatte gewünscht...\r\n\r\nFred: Mit all meinen Freunden drauf...!\r\n\r\nFred: ...und ich habe sie bekommen...!\r\nWurm, Käfer,Schnecke, Spinne, Fisch, Maulwurf: Alles Gute zum Geburtstag, Kristin!!\r\n[[Wurm, Käfer,Schnecke, Spinne, Fisch, Maulwurf sitzen auf einer langen Krawatte]]",
    "user": "Kristin"
}