{
    "user": "Woodpecker68",
    "text": "Käfer: Huch! Plötzlich ist da das Schaf!\r\n\r\nKäfer [[schaut fragend]]: Worn das wohl liegen mag.?\r\n\r\nFred [[liegt an einem schlafenden Schaf]]: An mir!\r\nSchaf: Z\r\nKäfer: Hihi!\r\n\r\n{{Damit der Wortwitz funktioniert, musste ich jemanden aus dem Fred-Universum finden, der sächlich ist.Vielen Dank, liebe Schaf!"
}
