{
    "user": "Woodpecker68",
    "text": "Professor-Fred [[sitzt auf dem Filosofiestein]]: Schuppen sind eigentlich Wasserfelle...!\r\nFisch [[in seinem Glas auf dem kleinen Stein]]\r\n\r\n{{Nominatief. Genitief. Datief. Akkusatief. - Wasserfälle.}}"
}
