{
    "text": "Fred: Manchmal muss man sich einfach auf sein Bauchgefühl verlassen\r\n\r\n[[Fred grinst]]\r\n\r\nFred: [[mit Keks in der Hand]] Dabei gilt: Je mehr Bauch\r\n\r\nFred: [[mit angebissenem Keks in der Hand]] defto mehr Gefühl!",
    "user": "Daniel Bohrer"
}