{
    "text": "Fred [[kommt von links zu einem Wegweiser in Richtung rechts]] &quot;Institut&quot;\r\n\r\nFred [[läuft weiter, kommt zu einem Wegweiser nach links]] &quot;Rausausdemtitut&quot;\r\n\r\n{{HarHar! Kommt alle mit, ihr atomaren Landratten! Auf uins Pirat-Ion!}}",
    "user": "Woodpecker68"
}