{
  "user": "Testtranskribierend",
  "text": "Fred [[schaut besonnen nach unten]]: Ich bin zu spät ...\r\n\r\nFred: ... weil ich sehr viel Zeit brauchte ...\r\n\r\nFred: ... um einen guten Grund zu finden ...\r\n\r\nFred [[zu Käfer]]: ... warum ich zu spät bin ...!\r\nKäfer: Seufz\r\n\r\n{{Zu-Spät-Kommen ist meine Spät-Zialität.}}"
}