{
    "text": "Fred [[schaut nachdenklich auf den Filosofiestein]]: !\r\n\r\nWurm [[von der Seite kommend mit einem Freund]]\r\n\r\nFred [[holt einen Bleistift]]\r\n\r\nFred [[hat dem Filosofiestein Punkte und ein Gesicht aufgemalt, Wurm und Freund sind die Fühler --&gt; Käfer]]: &lt;3\r\n\r\n{{Mal sehen, ob die Steine auch seufzen.}}",
    "user": "Woodpecker68"
}