{
    "text": "Fred: Ich habe soeben ein Buch gelesen!\r\n\r\nKäfer: Nicht schlecht, Fred! Du wirst ja noch eine richtige Leseratte!\r\n\r\nFred: Äh... naja... vielleicht habe ich mich auch falsch ausgedrückt...\r\n\r\nFred: Ich meinte: Ich habe soeben \"ein Buch\" gelesen...!\r\nKäfer: *seufz*\r\n[[Schild: \"ein Buch\" mit Pfeil auf ein Buch]]",
    "user": null
}