{
    "text": "Fred: Hochzeiten sind berauschende Fester voller Liebe, Hoffnung und Glück...\r\n\r\nFred: ...und das Symbol dieser Wunderbärigkeiten ist der Trauring...\r\n\r\nFred: Also ist es gar nicht so schlimm, Traurig zu sein...\r\n\r\nFred: ...weil man nur einen winzigen Buchstaben von Heiterkeit und Frohsinn entfernt ist...!",
    "user": "Gamlor"
}