{
    "text": "Fred [[hängt an seiner Höhlendecke]]: Ich werde oft gefragt...\r\n\r\nFred [[hängt an seiner Höhlendecke]]: ...wie Fledermäuse auf Toilette gehen...\r\n\r\nFred [[fliegend]]: Dabei ist das ganz einfach:\r\nKäfer [[schaut hoch zu Fred]]\r\n\r\nKäfer: Außerhalb des Comics!\r\n\r\n{{Mit lieben Grüßen an Pestfloh.}}",
    "user": "Woodpecker68"
}