{
  "user": "Woodpecker68",
  "text": "Fred [[steht ratlos auf der Wiese]]: Ich habe das Gefühl, heute etwas wichtiges vergessen  u haben.\r\nKäfer\r\n\r\nKäfer: z?\r\n\r\nFred [[liegend schlafend auf der Wiese]]: Z\r\nKäfer: <3\r\n\r\n{{wichtig ist das Gegenteil von riesig.}}"
}