{
    "text": "Fred: Wirklich gut sind die Verstecke des Osterhasen ja nie...\r\n\r\nFred: Vermutlich hat es der Osterhase stets viel zu eilig, um die Präsente richtig zu verstecken.\r\n[[Fred schreibt]]\r\n\r\nFred: Deswegen werde ich dem Osterhasen helfen...!\r\n[[Fred trägt Schild]]\r\n\r\n\r\n[[Schild zeigt auf Stein. Schild: Gutes Fersteck]]",
    "user": "sini"
}