{
  "user": "Woodpecker68",
  "text": "Fred [[drückt eine Keks-Packung an sich]]: Kekse! Bei mir werdet ihr es immer warm und kuschlig haben!\r\n\r\nFred [[liest von der Packung ab]]: \"Bitte kühl und trocken lagern\"\r\n\r\nFred [[hält die Packung hoch]]: Das heißt, ich werde euch wohl...\r\n\r\nFred [[sitzt kauend auf der Wiese, Kekskrümmel um sich verteilt]]: ...nicht lange lagern können...!\r\n\r\n{{Trock'n Roll.}}"
}