{
    "text": "Käfer: Ich weiß nicht, ob es am Wetter liegt...\r\n\r\nKäfer: ...oder ob Fred tatsächlich einen Drang Richtung Süden verspürt...\r\n\r\nKäfer: ...aber in der letzten Zeit...\r\n\r\nKäfer: ...hält sich Fred für einen Zugvogel...\r\nFred: *piep, piep*\r\n[[Fred sitzt in einem Modelzug]]",
    "user": "sini"
}