{
    "text": "Fred: Regen fetzt.\r\n\r\nFred: Wenn es regnet, kann ich meinen Schirm benutzen ...\r\n\r\nFred: ... und ich liebe meinen Schirm ...\r\n\r\nFred: ... denn irgendwas verbindet uns ...\r\n\r\n[[Fred spannt die Flügel auf und sieht selber aus wie der Regenschirm.]]",
    "user": "robby"
}