{
    "text": "Professor-Fred [[auf dem Stein sitzend]]: Andere mit gähnen anzustecken...\r\n\r\nProfessor-Fred: ...bezeichnet man üblicherweise...\r\n\r\nProfessor-Fred [[liegt am Stein]]: ...als Gähnmanipulation!\r\n\r\n{{Gähnial.}}",
    "user": "Woodpecker68"
}