{
    "text": "Fred: Ich mag es, im Regen zu fliegen...\r\n\r\nFred: allerdings kann ich bei der vielen Flüssigkeit um mich herum...\r\n\r\nFred: ...oft meinen Harndrang nicht kontrollieren...\r\n\r\nFred: ...was aber letztlich nicht weiter auffällt...!",
    "user": "Sanne"
}