{
  "user": "Woodpecker68",
  "text": "Fred [[schaut nach unten]]: Ich brauche dringend Eure Hilfe!\r\n\r\nFred: Ihr seid die besten Ostereiersucher, die es gibt...\r\n\r\nFred [[steht ratlos auf der Wiese vor drei Ostereiern, die mit seinem GEsicht bemalt sind]]: ...und hier soll es irgendwo Ostereier geben...!\r\n\r\n{{Eile ist ein schwäbische Hühnerprodukt.}}"
}