{
    "text": "Fred: Ich schreibe gerade an einem Ratgeber...!\r\nKäfer: ?\r\n\r\nFred: \"Wie man aufhört, mit unnützem Unsinn Zeit zu verschwenden\"\r\n\r\nFred: Der erste Band umfasst bereits 1175 Seiten!\r\nKäfer: *seufz*",
    "user": "winnie"
}