{
    "text": "Fred [[mit einem halb vollem Glas, verzieht das Gesicht]]\r\n'herb.'\r\n\r\nFred [[mit einem jetzt leerem Glas, verzieht das Gesicht, streckt die Zunge raus]]\r\n'herber.'\r\n\r\nFred [[hüpft vor Freude, steht vor Bäumen und Laub auf dem Boden]]\r\n'Herbst.'\r\nWurm [[schaut hinter einem Fliegenpilz hervor]]: &lt;3\r\n\r\n{{Herbert.}}",
    "user": "Woodpecker68"
}