{
    "text": "Fred: Stolz ist eine der sieben Todsünden.\r\n\r\nFred: Ich jedoch neige dazu, auf mich oder meine Taten nicht übermässig stolz zu sein...\r\n\r\nFred: und darauf bin ich stolz!",
    "user": "Lorena"
}