{
    "text": "[[Fred und Käfer schauen in die Sterne]]\r\n\r\nKäfer: ?\r\n[[Fred flattert davon]]\r\n\r\nKäfer: ??\r\n[[Fred flattert wieder zu Käfer]]\r\n\r\n[[Fred und Käfer schauen in die mit Geschenkband eingewickelten Sterne und zum mit einer Weihnachtskugel behangen Mond]]",
    "user": "sini"
}