{
    "text": "[[Fred und Käfer, zwischen den Beiden ein Osterei mit Punktmuster.]]\r\nKäfer: Das Osterei hat schöne Punkte!\r\n\r\nFred: Jup! Ich habe es bemalt...!\r\n\r\n[[Neben Fred liegen Eier mit &quot;+&quot;, &quot;-&quot; und &quot;:&quot;-Muster.]]\r\nFred: Ich habe auch welche beplust, beminust und bedurcht...!\r\nKäfer: Seufz\r\n\r\n{{Einige Eier wurden zudem bewurzelt.}}",
    "user": "his"
}