{
    "text": "Käfer: Heute ist internationaler Frauentag...\r\n\r\nKäfer: Fred hat extra Blumen besorgt...\r\n\r\nKäfer: ...leider kennt er keine einzige Frau...\r\n\r\nKäfer: ...und beschenkte sich selbst...!\r\nWurm: ? [[Fred hat Blumenstrauß in der Hand und lange Haare]]",
    "user": "Sanne"
}