{
    "text": "Tropfstein: *tropf*\r\nFred: Tropfsteine wachsen kontinuierlich...\r\n\r\nFred: Je mehr Zeit vergeht, desto länger sind sie... Wie eine natürliche Uhr...!\r\n\r\nFred: Im Augenblick ist es also exakt...\r\nTropfstein: *tropf*\r\n\r\nFred: September 2005!\r\n[[Fred misst mit dem Zollstock]]",
    "user": "sini"
}