{
    "user": "Woodpecker68",
    "text": "Professor-Fred [[sitzt auf dem Filosofiestein]]: Ich bin gesund!\r\n\r\nProfessor-Fred: Ich ernähre mich.\r\n\r\nProfessor-Fred [[sitzt auf dem Filosofiestein und ist einen Keks, auf dem kleinen Stein ein Teller voller Kekse, daneben auf dem Boden ein leerer Teller und eine Torte]]: Also ernähre ich mich gesund!!\r\n\r\n{{Ernährung. Sienährung. Esnährung.}}"
}
