{
    "text": "Fred: Vielleicht wären Linien nicht immre so dünn...\r\n\r\nFred: ...wenn es Liimmern wären...!\r\n\r\n{{Strich. Strdu. Strer. Strsie. Stres. Strwir. Strihr. Strsie.",
    "user": "Woodpecker68"
}