{
    "text": "Fred: Das Gleichgewicht der Natur ist mir äußerst wichtig!\r\n\r\nFred [[mit Schal]]: Nehmen also die Temperaturen ab...\r\n\r\nFred [[isst einen Keks]]: ...nehme ich zu!\r\n\r\n{{Spätergewicht.}}",
    "user": "Woodpecker68"
}