{
    "text": "Fred [[liegt am Stein und hält einen Keks]]: Ich versuche derzeit, zwei...\r\n\r\nFred [[hat ein Stück Keks abgebissen]]\r\n\r\nFred [[ohne Keks, hält sich grinsend den Bauch]]\r\n\r\nFred [[am Stein]]: ...Dinge gleichzeitig zu machen...!\r\n\r\n{{Multitas-King}}",
    "user": "Woodpecker68"
}