{
    "text": "Fred [[läuft unterm Sternenhimmel auf der Wiese]]: Wenn Du rausgehst, wirst du sehen...:\r\n\r\nFred [[im Regen]]: Jedes Wetter ist wundervoll!\r\n\r\nFred [[im Schnee]]: Den jedes Wetter beinhaltet...\r\n\r\nFred: ...Dich! &lt;3\r\n\r\n{{Du bist das schönste Wetter, das es gibt!}}",
    "user": "Woodpecker68"
}