{
  "user": "Woodpecker68",
  "text": "Käfer [[sitzt auf einem Buch und liest vor]]: Manche Planeten haben eine giftige Atmosphäre...\r\nFred [[sitzt vor dem Buch und liest mit]]\r\n\r\nKäferr gar keine!\r\nFred\r\n\r\nFred: Vielleicht sollten wir diese Plsneten besuchen!\r\nKäfer [[dreht sich zu Fred]]: ?\r\n\r\nFred [[hält Käfer im Arm]]: Denn die Atmosphäre zwischen uns ist stets großartig!!\r\nKäfer: <3\r\n\r\n{{Plan A. Plan B. Plan @.}}"
}