{
    "text": "Fred: Das Dach... Das Dach... Das Dach steht in Flammen...!\r\nKäfer: Wir brauchen kein Wasser. Lass den Mutterficker brennen!\r\nFred: Brenn, Mutterficker, brenn!!!\r\nKäfer: Es gibt Lieder, die sollten besser unübersetzt bleiben...",
    "user": "sanne"
}