{
    "text": "Fred: Es gab Beschwerden, dass die Pointen dieses Comics...\r\n\r\nFred:...manchmal sehr flach seien...\r\n\r\n[[Fred steigt auf die Spitze des Filosofiersteins]]\r\nFred: Besser...?\r\nWurm:!",
    "user": "Lorena"
}