{
    "text": "Fred: Manche sagen, das Glas ist halbvoll... [[hat ein Glas auf dem Kopf]]\r\n\r\nFred: ...andere sagen, das Glas ist halbleer...\r\n\r\nFred: ich hingegen sage:\r\n\r\nFred: Waf für ein Glaf...?",
    "user": "Sanne"
}