{
    "user": "Woodpecker68",
    "text": "Fred [[hält einen Teller mit Keksen]]: in Manchen Ländern stellt man Kekse raus...\r\n\r\nFred [[schaut auf den Teller, den er vor sich auf den boden gestellt hat]]: ...um den Weihnachtsmann anzulocken...\r\n\r\nFred: Ich glaube nicht, dass das bei uns...\r\n\r\nFred [[geht kauend nach rechts ab. Auf dem Teller sind noch ein paar Krümel]]: ...pfumpfioniert...!\r\n\r\n{{Die Milch fehlt!}}"
}
