{
    "text": "Fred: Unsicherheit lässt sich übrigens ganz leicht überspielen, ... [[guckt forsch und aufmerksam]]\r\n\r\nFred: ... indem man auf den Boden blickt und leise vor sich hinnuschelt... [[guckt zum Boden und spricht immer leiser]]\r\n\r\n{{alt-text: Wenn ich etwas lustig finde, lenke ich meistens davon ab, indem ich lache.}}",
    "user": "Sanne"
}