{
  "user": "Woodpecker68",
  "text": "Fred [[hält einen Teller mit einem Keks drauf]]: Die leckersten Speisen...\r\n\r\nFrede [[beißt in den Keks]]: ...verwenden nur die erlesesten Zutaten.\r\n\r\nFred [[mit freudig ausgebreiteten Armen]]: Daher flossen nur diebesten aller Pixel...\r\n\r\nFred [[reibt sich den Bauch]]: ...in diesen Comic!\r\n\r\n{{3,1415.._Xel}}"
}