{
    "text": "Batfred: Ich bin ein Superheld! [[rennt]]\r\n\r\nBatfred: Nichtsmann mich aufhalten!\r\n\r\nBatfred: ! [[stoppt]]\r\n\r\nBatfred: Mampf [[futtert Schokokekse]]\r\n\r\n{{alt-text: Hach, mein Held!}}",
    "user": "Sanne"
}