{
    "text": "Fred: Hokus Pokus...\r\n[[Fred mit Zaubererhut und \"Hasen\"-Krawatte, schwingt den Zauberstab]]\r\n\r\nFred: Fidibus!!\r\n\r\nZauberstab: *plop!*\r\n[[Der Zauberstab verschwindet]]\r\n\r\nFred: Mist.",
    "user": null
}