{
    "text": "Käfer: Da Fred ja bald Geburtstag hat...\r\n[[Fred bastelt]]\r\n\r\nKäfer: ...beschlich ihn eine leichte Angst vor dem Älterwerden...\r\n\r\nKäfer: Allerdings stellt er gerade fest, dass es gar nicht so schwer ist...\r\n\r\nKäfer: ...Falten zu mögen...",
    "user": "sini"
}