{
    "text": "Fred: Wünsche können wahr werden...\r\n\r\nFred [[strahlend]]: ...wenn man es nur wirklich will!\r\n\r\nFred [[in angestrengter Konzetration, kleine Blitze um seinen kopf]]\r\nKäfer: Was tust du??\r\n\r\nFred: Ich will, dass das stimmt...\r\nKäfer: Seufz\r\n\r\n{{Glaube kann Berge versetzen. Wenn man nicht genügend glaubt, sind Berge versetzungesgefährdet.}}",
    "user": "Woodpecker68"
}