{
    "text": "Käfer: Nach unten.\r\nFred: *plautz*\r\n[[Schild: Falsch]]\r\n\r\nKäfer: nach oben.\r\n[[Schild: Richtig]]\r\n\r\nFred: Fliegen lernen - Lektion 2:\r\n\r\nFred: Die Wahl der richtigen Flugrichtung ist entscheidend!",
    "user": "sini"
}