{
    "text": "Fred: zzz / Käfer: Aufstehen\r\n\r\nFred: *schnarch* / Käfer *seufz*\r\n\r\nFred: zzz / Spinne: ?\r\n\r\nKäfer: Er schläft gern etwas länger [[Spinne hat an Fred ihr Netz gebaut]]",
    "user": "Sanne"
}