{
    "text": "Käfer: Äh...\r\n\r\nKäfer: Bist du dir wirklich sicher, dass du in dieser Aufmachungzu einer Halloween-Feier gehen willst?!?\r\n\r\nKäfer: Ich meine dein Kostüm...es sieht noch nicht einmal ansatzweise erschreckend oder gruselig aus...\r\nFred: Ich weiss...\r\n\r\nFred: ...doch es war das Beste, das ich so schnell noch fand...",
    "user": "robby"
}