{
    "text": "Professor-Fred [[vor einer Staffelei mit einem Portrait von Bastian und einem gezeichnetem Schalter, der auf &quot;An&quot; steht]]: BastiAN\r\n\r\nProfessor-Fred [[vor einer Staffelei mit einem Portrait vom schlafenden Bastian und einem gezeichnetem Schalter, der auf &quot;Aus&quot; steht]]: BastiAUS\r\n\r\n{{Lass dir Finger von dem Schalt- zZz}}",
    "user": "Woodpecker68"
}