{
  "user": "Woodpecker68",
  "text": "Fred [[liest in einer langen Liste]]: Ich würde gerne Aufgaben abgeben.\r\nKäfer [[schaut auf das auf dem Boden liegenden Ende der Liste]]: Welche zum Beispiel?\r\n\r\nFred [[grinst]]: Das Abgeben von Aufgaben!\r\nKäfer: !\r\n\r\n{{AufgabeLn.}}"
}