{
    "text": "Fred: Mannomann, ich hätte nicht gedacht, dass Lesen so viel Spass macht...\r\n\r\nFred: Ich schmökere bereits seit Stunden in diesem Buch...\r\n\r\nFred: Allerdings hänge ich gerade an diesem einen Wort fest... Kannst du mir bitte da weiterhelfen?\r\n\r\nKäfer: \"Inhaltsverzeichnis\".\r\nFred: Ah!\r\nKäfer: *seufz*",
    "user": null
}