{
    "text": "Fred:  An manchen Tagen ...\r\n\r\nFred: (eigentlich an allen)\r\n\r\nFred:...mag ich es...\r\n\r\nFred:...ein kleines bisschen mehr zu bekommen...!\r\n\r\nFred geht weg: HiHi\r\n\r\n{{Meer ist aber auch nicht schlecht.}}",
    "user": "ksa"
}