{
    "user": "Woodpecker68",
    "text": "Fred [[hält einen Teller mit Keksen]]: Kekse halten sich länger...\r\n\r\nFred [[hält einen Teller mit Keksen]]: ...wenn man sie trocken lagert...\r\n\r\nFred [[steht mit dem Teller auf der Wiese und schaut in den Himmel]]: Leider wird es gleich regnen...!\r\n\r\nFred [[kauend]]\r\n\r\n{{Deswegen muss man im Herbst und im Frühling besonders viele Kekse essen.}}"
}
