{
    "text": "Fred [[glücklich]]: Ich bin ein Handwerker!\r\n\r\nFred [[mit Schraubenzieher]]: Ich werde jetzt nämlich ein paar Schrauben aniehen...!\r\n\r\nFred [[nach rechts gehend]]: Jetzt muss ich  nur noch passende Klamotten finden! [[links im Bild liegen drei Schrauben auf dem Boden, daneben]] / Käfer: !\r\n\r\n{{Ein paar knuffige Schals und Mützen stehen den Schrauben bestimmt.}}",
    "user": "Woodpecker68"
}