{
    "text": "Fred [[freudig, hält ein Buch]]: Ich habe den 5. Band fertig geschrieben!\r\n\r\nKäfer: Deines Romans?\r\nFred [[sitzt auf drei Büchern, eines liegt daneben und eins hat er in der Hand]]: Meines Wunschzettels!\r\n\r\n{{Fred Flatter und der Orden des Fön X.}}",
    "user": "Woodpecker68"
}