{
    "text": "Fred: weiße Haare sind ein Symbol für...\r\n\r\nFred: ...Weisheit.\r\n\r\nFred [[flüstert]]: Dies ist ein schwarz-weiß-Comic...!\r\n\r\nFred [[strahlt]]\r\nWurm: !\r\n\r\n{{Zebras sind übrigens halbweise.}}",
    "user": "Woodpecker68"
}