{
    "text": "Batfred: Schau mich bitte nicht so traurig an...\r\n[[Batfred hält Wurm]]\r\n\r\n[[Wurm guckt traurig]]\r\n\r\nBatfred: Na gut...(seufz)... Ich lasse dich frei!\r\nWurm: !\r\n\r\nBatfred: Schließlich ist dein Kumpel auch viel fetter...!\r\n[[Batfred hält in jeder Hand einen Wurm]]",
    "user": "sini"
}