{
    "text": "Fred: Ich habe mich soeben unsichtbar gezaubert.\r\n\r\nKäfer: Aber ich kann dich doch noch sehen...\r\n\r\nFred: Das liegt daran, dass ich dich ebenfals unsichtbar zauberte...\r\nKäfer: !\r\n\r\nFred: ...und den Rest des Universums auch...!\r\nKäfer: Seufz",
    "user": "Sanne"
}