{
    "text": "Fred: Sicherlich sind Trolle gefährlich...\r\n\r\nFred: Doch noch mehr als vor Trollen sollte man sich...\r\n\r\nFred: ... vor ihren stinkenden Verwandten hüten:...\r\n\r\nFred: ... den Kontrollen!\r\n\r\n{{alt-text: #1783: Gefährlich -- Fähren sind ebenfalls gefährlich. Sonst würden sie nicht so heißen.}",
    "user": "Andi"
}