{
    "text": "Fred [[nachdenklich]]: Käfer meint, ich sei wunderfitzig...\r\n\r\nFred [[strahelnd]]: ...und ich wüsste nur allzu gern, was das ist...!\r\n\r\n{{Ja, ihr dürft gerne nachschauen.}}",
    "user": "Woodpecker68"
}