{
    "text": "Fred: Psst...nicht so laut...!\r\n\r\nFred: Ich befinde mich auf einem Streifzug...\r\n\r\n[[Fred steht auf einem großen gestreiften Zug]]\r\n\r\n{{alt-text: Da kann man nur froh sein, dass dieses ICE-ähnliche Gefährt nicht mit Kreuzen bemalt wurde.}}",
    "user": "Lorena"
}