{
    "text": "Fred: \"Lieber Herr Fon Flatter, Sie haben gewonnen!\"\r\nSpinne: ?\r\n[[Fred liest einen Brief]]\r\n\r\nFred: Wuhuu.\r\nSpinne: !\r\n[[Fred springt vor Freude in die Luft]]\r\n\r\nFred: \"Ihr Hauptgewinn besteht aus diesem Brief.\"\r\n[[Fred liest weiter]]\r\n\r\nFred: Wuhuu!\r\nSpinne: *seufz*\r\n[[Fred springt vor Freude in die Luft]]",
    "user": null
}