{
  "user": "Woodpecker68",
  "text": "Fred [[schaut verärgert auf eine eckige Kekspackung]]: Diese Kekse sind abgelaufen.\r\n\r\nFred [[schaut grinsend auf eine runde Kekspackung]]: Diese Kekse sind noch eine Weile haltbar.\r\n\r\nFred [[nachdenklich mit einer Hand am Mund]]: Mathematisch gesehen ist es also gut...\r\n\r\nFred [[futtert mit zwei Händen am Mund Kekse]]: ...wenn man beide gleichzeitig isst!!\r\n\r\n{{Wenn MaThematik kein Thema ist, ist es nur Matik.}}"
}