{
    "text": "Fred: Der Nikolaus steckt den braven Kindern kleine Geschenke und Süssigkeiten...\r\n\r\nFred: ...und den bösen Kohlen und Kartoffeln in die Schuhe.\r\n\r\nFred: In meinen Schuhen steckt allerdings immer nur Käse...!\r\n\r\nFred: Zumindest reicht und schmeckt alles danach...",
    "user": "Sanne"
}