{
    "user": "Woodpecker68",
    "text": "Fred [[liegt filosfierend am Stein]]: Damit aus einem buch ein gutes Buch wird...\r\n\r\nFred [[schaut zum Leser]]: ...muss es superinteressante Charaktere darin geben!\r\n\r\nFred [[schaut glücklich am Filosofiestein sitzend auf ein aufgeschlagenes Buch vor sich]]: <3\r\nKäfer [[sitzt auf dem Buch und schaut zu Fred]]: ?\r\n\r\n{{Bucht - Substantiv oder Imperativ?}}"
}
