{
    "text": "Fred [[mit Käferpunktekrawatte]]: Der Winter naht.\r\n\r\nFred [[dozierend]]: es wird finster und eisig kalt...!\r\n\r\nFred [[erfreut]]: Aber ich bin vorbereitet!\r\n\r\nFred [[strahlend mit einer Schneemannkrawatte]]\r\n\r\n{{Die Krawatte ist bestimmt gefüttert.}}",
    "user": "Woodpecker68"
}