{
    "user": "Woodpecker68",
    "text": "Fred [[freudig, vor einem oben offenen Karton]]: Uuh! Ein Karton!\r\n\r\nFred [[nachdenklich]]: Was da wohl drin ist...?\r\n\r\nFred: Bestimmt etwas wundervolles!!\r\n\r\nFred [[sitzt grinsend in der Kiste]]: Ich hatte Recht!\r\n\r\n{{Kartoff.}}"
}
