{
    "text": "Fred [[mit einem Bleistift (freut sich)]]: Der Anfang ist meistens einfach...\r\n\r\nFred [[gedrückt]]: Allerdings stösst man in der Mitte eines jeden Projektes...\r\n\r\nFred [[sitzt auf dem Boden, der Bleistift liegt daneben]]: ... immer auf ein oje.\r\n\r\n{{Am Anfang steht übrigens PR.}}",
    "user": "Woodpecker68"
}