{
    "user": "Woodpecker68",
    "text": "Fred [[liegt zufrieden grinsend am Stein]]: Mir geht es gut.\r\n\r\nFred [[liegend, mit einem angebissenen Keks in der Hand]]: Ich wünschte, jemand würde diesen Augenblick verlängern...!\r\n\r\nFred [[liegend am großen Stein, hält den Keks]]: Danke.\r\nKäfer: schläft auf dem kleinen Stein]]: z\r\n\r\n{{Bitte langsmer lesen.}}"
}
