{
    "text": "Fred [[schläft am Filosofiestein vor einem weissen Hintergrund]]: Z\r\n\r\nFred: Wenn man wirklich tief und fest und lange schlafen möchte...\r\n\r\nFred [[mit einem schwarzen Dreieck in der Hand]]: ...braucht man nur zwei schwarze Dreiecke...!\r\n\r\nFred [[schläft wieder am Filosofiestein vor einem weissen Hintergrund, der durch die zwei schwarzen Dreiecke ein großes &quot;Z&quot; darstellt]]\r\n\r\n{{Man kann auch einfach ein schwarzes  Rechteck diagonal durchschneiden.}}",
    "user": "Woodpecker68"
}