{
    "text": "Fred [[sitzt mit Käfer auf dem Filosofiestein]]: Manchmal sitzt man da und fragt sich, wie es wäre...\r\nKäfer: !\r\n\r\nFred: ... wenn man immer alles richtigmachen würde...\r\n\r\nFred [[schaut in den Sternenhimmel]]\r\nKäfer: ?\r\n\r\nFred: ...doch ich werde es euch nicht verraten...!\r\n\r\n{{Das machst Du richtig so!}}",
    "user": "Woodpecker68"
}