{
    "text": "Käfer: Findest du nicht auch, dass es zu viele Fragen und zu wenige Antworten gibt?\r\n[[Fred guckt Käfer an]]\r\n\r\nKäfer: ? [[Fred guckt immer noch]]\r\n\r\nKäfer: ?? [[Fred guckt weiter]]\r\n\r\nKäfer: Seufz [Fred guckt noch immer]]",
    "user": "Sanne"
}