{
    "text": "Fred [[mit einem Bügel in der Hand]]\r\nWurm: !\r\n[[mit Pfeil auf den unteren Bügelteil ]]'Bügel.'\r\n\r\nFred [[mit einem Bügel in der Hand]]\r\n[[mit Pfeil auf den Aufhänger des Bügels]]: 'Bügeleisen.'\r\n\r\n{{Iron Man. Beziehungsweise Iron Bat.}}",
    "user": "Woodpecker68"
}