{
    "text": "Fred [[liegt nachts am Filosofiestein, hält einen Keks hoch]]: Sterne sind die Schokostücke des inversen Nachthimmels!\r\nKäfer [[liegt schlafend auf dem kleinen Stein]]: z\r\nWurm [[liegt auf dem Boden]]: z\r\n\r\n{{Womit bewiesen wäre: Das Universum ist keksrund.}}",
    "user": "Woodpecker68"
}