{
    "user": "Woodpecker68",
    "text": "Professor-Fred: Im Deutschen kennt man viele Fälle...\r\n\r\nFred [[fliegt zwischen den Wolken]]: ...doch einen Fallschirm\r\n\r\nFred [[fliegend]]: ...nutzt man nur im Akkusativ.\r\n\r\n{{Die Präposition 'an' verlangt den Dativ oder den Akkusativ. Sind das etwa Anfälle?}}"
}
