{
    "text": "Fred: 'Abschiednehmen', raunt der Herbst / Nordwind bläst sein rauhes Horn\r\n\r\nFred: Krähen schlachten leere Felder / Faulig fern weilt Sommers Korn.\r\n\r\nFred: Von den Ästen treiben Blätter / Flüstern rascheln Abschieds Wort.\r\n\r\nFred: Selbst den schwarzpunktroten Käfer / Zog es scheinbar von mir fort ... *schnüff*\r\nKäfer: [[von einem Blätterhaufen bedeckt]] ?",
    "user": "bastian"
}