{
    "text": "Fred: Glück besteht ja eigentlich nur aus kurzen Momenten ...\r\n\r\nFred: Dementsprechend wäre es sinnvoll, um dauerhaftes Glück zu verspüren, ...\r\n\r\nFred: ... diese glücklichen Sekunden einfach aneinanderzureihen.\r\n\r\nFred: Und dafür gibt es Sekundenkleber...! [Hält eine Tube vor sich]\r\nKäfer: Seufz",
    "user": "Andi"
}