{
    "text": "Fred [[unter dem Sternenhimmel]]: Das Weltall!\r\n\r\nFred: Obwohl es unzählige Kekse enthält...\r\n\r\nFred: ...gilt es trotzdem als leer...!\r\n\r\nFred [[hält sich seinen Bauch]]: Kommt mir irgendwie bekannt vor...!\r\n\r\n{{Ich frage mich, ob das Weltall manchmal knurrt.}}",
    "user": "Woodpecker68"
}