{
    "text": "Fred: *flap flap* Ich besitze zwei Flügel [[fliegt]]\r\n\r\nFred: ...und benutze sie regelmäßig...!\r\n\r\nFred: Daher bestehe ich nicht...\r\n\r\nFred: ...warum ich so unmusikalisch bin...",
    "user": "Sanne"
}