{
    "user": "Woodpecker68",
    "text": "Fred [[liegt schlatfrunken unter einer Decke am Stein]]\r\n\r\nFred: Ich fühle mich nicht so gut...!\r\n\r\nFred: Bevor ich jemanden anstecke...\r\n\r\nFred [[liegt unter der Decke am Stein, eine Tasse Tee neben sich]]: ...beende ich rasch den heutigen Comic!\r\n\r\n{{Oh, ein viraler Comic.}}"
}
