{
  "user": "Woodpecker68",
  "text": "Käfer: Der Frühling naht...\r\nFred\r\n\r\nFred [[entsetzt]]: WAH!\r\n\r\nFred: Ich habe also nur noch weinige Tage...\r\n\r\nFred: ...um mir Winterspeck zuzulegen...!\r\nKäfer: seufz\r\n\r\n{{Ab Frühling arbeitet er dann am Speck für den nächsten Winter.}}"
}