{
    "text": "Fred: [[mit Hut auf der Waage]] Ich wiege zuviel!\r\nWaage: Ächz\r\n\r\nFred: ich fasse also zum neuen Jahr den Vorsatz...\r\n\r\nFred: ... etwas abzunehmen!\r\n\r\nFred: Zum Beispiel diesen Hut!",
    "user": null
}