{
    "text": "Fred: Heute mache ich nichts.\r\n\r\nFred: Und einen Teil des nichts...\r\n\r\nFred [[zeigt nach rechts]]: ...platziere ich dort...\r\n\r\nFred [[sitzt vor einem Teller mit einem Keks-Turm]]: ...wo jetzt noch Kekse liegen!\r\n\r\n{{Nichts. Nduts. Nerts. Nsiets. Nests. Nwirts. Nihrts. Nsiets.}}",
    "user": "Woodpecker68"
}