{
    "user": "Woodpecker68",
    "text": "Fred [[hält ein beschriebenes Blatt Papier]]: Ich habe einen Kauvertrag erstellt.\r\n\r\nKäfer: Du meinst wohl einen Kaufvertrag...?\r\n\r\nFred [[kauend]]: Nö!\r\nKäfer: !\r\n\r\n{{Erstellt. Zweitellt. Dritellt.}}"
}
