{
    "user": "Woodpecker68",
    "text": "Fred [[fliegt über den Boden]]\r\nKäfer: Treibst Du jetzt etwa Sport?\r\n\r\nFred [[fliegend]]: Nein, hier oben ist die Luft besser!\r\n\r\n[[Vorher: Fred steht auf dem Boden und pubst]]\r\n\r\n{{Ruchlos vs geruchlos.}}"
}
