{
    "text": "Fred: Alle Bilder sind gleich, bis auf eines.\r\n \r\nFred: Alle Bilder sind gleich, bis auf eines.\r\n \r\nFred: Alle Bilder sind gleich, bis auf eines.\r\n \r\nFred: Alle Bilder sind gleich, bis auf eines.\r\n \r\nFred: Alle Bilder sind gleich, bis auf eines.\r\n \r\nFred: Alle Bilder sind gleich, bis auf eines.\r\n\r\nFred: Alle Bilder sind gleich, bis auf eines.\r\n \r\nFred: Alle Bilder sind gleich, bis auf eines.\r\n \r\nFred: Alle Bilder sind gleich, bis auf eines.\r\n \r\nFred: Alle Bilder sind gleich, bis auf eines.\r\n \r\nFred: Alle Bilder sind gleich, bis auf eines.\r\n \r\nFred: Alle Bilder sind gleich, bis auf eines.\r\n \r\nFred: Alle Bilder sind gleich, bis auf eines.\r\n \r\nFred: Ich sage aber nicht, welches.\r\n\r\nFred: Alle Bilder sind gleich, bis auf eines.\r\n \r\nFred: Alle Bilder sind gleich, bis auf eines.",
    "user": "Sanne"
}