{
    "user": "Woodpecker68",
    "text": "Fred [[liegt schlafend am Stein]]\r\nKäfer: Du schläfst ja die ganze Zeit!\r\n\r\nFred [[streckt sich]]: Ich nenne das: effektives Herumliegen!\r\n\r\nFred [[am Stein]]: Denn während ich hier liege...\r\nKäfer: ?\r\n\r\nFred [[am Stein liegend, winkt dem Leser zu]]: ...entsteht ein Comicstrip...!\r\nKäfer [[schaut auch nach vorne]]: !\r\n\r\n{{Naja, weniger ein ComicStrip als vielmehr ein ComicSquare.}}"
}
