{
    "text": "Professor-Fred: Der Mond rotiert auf einer elliptischen Bahn um die Erde...\r\n\r\nProfessor-Fred: Im Durchschnitt befindet sich der Mond als in der Erde...\r\n\r\nProfessor-Fred: dementsprechend sollte es nicht allzu schwer sein...\r\n\r\nProfessor-Fred: ...zum Mond zu gelangen...!\r\n\r\n{{Vielleicht war der Maulwruf ja bereits beim Durchschnittsmond.}}",
    "user": "Woodpecker68"
}