{
    "text": "Fred [[isst ein Keks]]Ef ift eigentlif gar nift fo fwer...\r\n\r\nFred: über sich hinaus zu wachsen [[Fred misst sein Bauchumfang]]\r\nWurm &quot;!&quot;\r\n\r\n{{Dafür geeignet: Keks, Kuchen, Süßigkeiten. Ungeeignet: Wachsmalstifte}}",
    "user": "ksa"
}