{
    "text": "[[Fred grinst mit geschlossenen Flügeln vor der Brust]]\r\nKasten: Zufriedenheit\r\n\r\n[[Fred lacht mit ausgebreiteten Flügeln]]\r\nKasten: Auffriedenheit.\r\n\r\n{{Ich bin auch gerade ein bisschen auffrieden.}}",
    "user": "ksa"
}