{
    "text": "Fred grinst mit geschlossenen Flügeln vor der Brust: Zufriedenheit\r\n\r\nFred lacht mit ausgebreiteten Flügeln: Auffriedenheit.\r\n\r\n{{Ich bin auch gerade ein bisschen auffrieden.}}",
    "user": "ksa"
}