{
  "user": "Woodpecker68",
  "text": "Fred: Heute mache ich alles falsch!\r\n\r\nFred [[nachdenklich]]: ?\r\n\r\nFred [[schaut fragend auf einen Zettel]]: !\r\n\r\nFred [[grinsend]]: Ach nee, ich meine: heute mache ich alles richtig!!\r\n\r\n{{Fehler sind nur verwirrte Helfer.}}"
}