{
    "user": "Woodpecker68",
    "text": "Fred [[steht mit einem Regenschirm im Regen]]: Regenschirme halten den Regen fern...!\r\n\r\nFred [[steht mit einem Sonnen auf der sonnigen Wiese]]: Sonnenschirme halten die Sonne fern...!\r\n\r\nFred [[mit einem Cocktailglas in der Hand]]: Und deswegen benutze ich keine Cocktailschirme!!\r\n\r\n{{Alkoholfreie Hahnenschwänze.}}"
}
