{
    "text": "Fred: Ich habe gerade einen sehr interessanten Artikel gelesen!\r\nKäfer:\r\n\r\nKäfer: Was für einen denn?\r\n\r\nFred: [[hält ein Schild in der Hand]] DEN\r\nKäfer: seufz\r\n\r\n{{Eigentlich sogar: Akkusativ Singular, bestimmt.}}",
    "user": "ksa"
}