{
    "text": "Schild: Kannst du bitte ein Stück nach rechts gehen, lieber Fred?\r\nFred: Okay.\r\n\r\nSchild [[halb aus dem Panel]]: Dank schö\r\nFred [[grinst]]\r\n\r\n{{Dankeschön, wollte ich sagen.}}",
    "user": "Woodpecker68"
}