{
    "text": "Fred: LECKER!\r\n\r\nTeufelchen: LOS, MACH' SCHON! SCHLUCK'S HINTER!\r\n\r\nEngelchen: TU'S NiCHT! WiR SiND DOCH ALLE EiNS. LÖSE DiCH VON DEiNER BLUTIGEN GiER, UND DU WiRST FREi SEiN!\r\nWURM: JA, GENAU!\r\n\r\nFred: ZU SPÄT.\r\nEngelchen: WAH!",
    "user": "robby"
}