{
  "user": "Woodpecker68",
  "text": "[[1. Panel fehlt]]\r\n\r\nFred [[auf der Wiese zu Käfer]]: Und darum lasse ich ihn gerne weg.\r\nKäfer\r\n\r\nFred: Denn jeder weiß:\r\n\r\nFred: Aller anfang ist schwer.\r\nKäfer\r\n\r\n{{Schwer. Schwie. Schwas.}}"
}