{
    "text": "Fred: Mannomann, ist das heiß...! *ächz*\r\n\r\nFred: Ich weiß ja nicht, wie es dir geht,...\r\n\r\nFred: ...aber ich brauche dringend eine Abkühlung...!\r\n\r\nFred: Aaah...\r\n[[Fred sitzt am Lagerfeuer und wärmt sich die Hände]]",
    "user": "sini"
}