{
    "user": "Woodpecker68",
    "text": "Fred [[liegt am Stein]]: Ich soll tenicht länger haul herumliegen...\r\n\r\nFred [[springt auf]]: ...sondern mich um all das kümmern, was ich mir vorgenommen habe...!\r\n\r\nFred [[steht neben dem Stein]]\r\nKäfer [[schaut zu Fred]]: Was hast du dir denn vorgenommen?\r\n\r\nFred [[liegt am Stein]]: häufiger faul herumzuliegen!!\r\nKäfer [[schaut aus dem Panel]]: seufz\r\n\r\n{{Uh, der Herr fon Flatter hat sich was vorgenommen. Wie vornehm!}}"
}
