{
    "text": "Fred: Wenn Laubbäume ihr Grün auch im Winter tragen würden... [[steht unter einem kahlen Baum]]\r\n\r\nFred: ...dann wären sicherlich Birken und Eichen unsere Weihnachtsbäume...\r\n\r\nFred: ...und würden Jahr für Jahr zu hunderttausenden abgeholzt werden...!!\r\n\r\nFred: Ganz schön clever, die Laubbäume...!",
    "user": "Sanne"
}