{
    "text": "Fred: Seinen dicken Bauch loszuwerden...\r\n\r\nFred: ...ist gar nicht so schwer! [[Fred is am Rand des Kästchens, so das man den Bauch nicht mehr sieht]]\r\n\r\n{{Ich trage daher immer einen Satz Panelrahmen mit mir herum.}}",
    "user": "Gamlor"
}