{
    "text": "Fred: Ich habe beschlossen, die Flüssigkeit, die den Wissensdurst still,...\r\n\r\nFred: ...systematisch zu suche...\r\nKäfer: !\r\n\r\nFred: Ich fange also an mit \"A\" wie...\r\nKäfer: Oh-oh!\r\n\r\nFred: Abführmittel!",
    "user": null
}