{
    "text": "Fred: Und würde ich meinen zukünftigen Ich begegnen...\r\nFred: ...so würde ich ihm nur eines mitteilen:...\r\nFred: \"Sei stolz auch Dich...\"\r\nFred: \"...Du warst schon immer toll!!!\"",
    "user": "Woodpecker68"
}