{
    "text": "Fred: Die Sonne ist grell und blendend...\r\n\r\nFred: Das Leuchten des Mondes ist nicht ganz so intensiv...\r\n\r\nFred: Daher kann man auf getönte Gläser verzichten und sich meiner neuesten Erfindung widmen:\r\n\r\nFred: Die Mondbrille...!",
    "user": "Sanne"
}