{
    "text": "Fred [[zu Käfer]]: So! Jetzt habe ich mich perfekt an den kommenden Winter angepaßt!\r\nKäfer: Wieso?\r\n\r\nFred [[zu Käfer]]: Naja, ich finde den Winter wunderschön!\r\nKäfer: Hihi!\r\n\r\n{{Und weich wie eine Schneeflocke ist er auch.}}",
    "user": "Woodpecker68"
}