{
    "user": "Woodpecker68",
    "text": "Fred: Man muss nicht immer der Erste sein...\r\n\r\nFred [[jovial]]: Manchmal kann man auch andere vorlassen...\r\n\r\nSpinne [[hängt ins Panel, hält einen Lappen]]: Wer hilft mir beim Putzen?\r\n\r\nFred [[die Flügel um sich geschlungen, mit geschlossenen Augen, pfeifend]]\r\nSpinne [[hängt traurig an ihrem Spinennseil. den Lappen haltend]]\r\n\r\n{{Erst. Erster. Am erstersten.}}"
}
