{
    "text": "Fred: Ich bin heute ziemlich ungezogen...!\r\n\r\nFred [[sitzt lachend auf einem Schlitten mit Zugseil]]\r\nWurm [[schaut auf das Seil]]: ?\r\n\r\n{{Sind Künstler eigentlich artig?}}",
    "user": "Woodpecker68"
}