{
    "text": "Fred [[mit Streifenkrawatte]]: Ich bin wirklich gut darin...\r\n\r\nFred: ...sätze mit &quot;Ich bin wirklich gut darin&quot; zu beginnen...\r\n\r\nFred: ...und mit &quot;zu beenden&quot;...\r\n\r\nFred: ...zu beenden!\r\n\r\n{{Und ich bin wirklich gut darin, Sätze zu beenden, bevor sie.}}",
    "user": "Woodpecker68"
}