{
    "text": "Fred [[mit Kochmütze, einem Topf und einem Kochrezept]]: Die kochende Masse anschließend mit einem Schneebesen verrühren...\r\n\r\nFred [[entsetzt]]: aber dann schmilzt der doch...!!\r\n\r\n{{Ich wollte eigentlich den Schneebesen zeichnen, aber der Schneemann hatte Kehrwoche und hat ihn gleich mitgenommen.}}",
    "user": "Woodpecker68"
}