{
  "user": "Woodpecker68",
  "text": "Fred [[mit Hexenhut, hält ein Fläschchen in der linken Hand]]: Ich habe einen Liebestrank gebraut...\r\n\r\nFred [[hält einen Teller mit Keksen]]: ...und diese Kekse damit beträufelt.\r\n\r\nFred [[beißt in einen Keks]]\r\n\r\nFred: Ich liebe Kekse!\r\n\r\n{{ }}"
}