{
    "text": "Fred: Ich möchte gerne ein Buch über Käfer schreiben...\r\n\r\nFred: ...aber das ist gar nicht so einfach... *flap flap*\r\nKäfer: ?\r\n[[Fred fliegt über Käfer]]\r\n\r\n{{alt-text: Wenn er nicht aufpasst, schreibt er ÜberFall.}}",
    "user": null
}