{
    "text": "[[Auf der Tafel ist eine Spargel zu sehen]]\r\nFred: Verbrauchertipp Nr. 5: Spargel ist weder sehr preiswert\r\n\r\nFred: noch ein Haar-Stylingprodukt!\r\nWurm: ?\r\n\r\n{{Allerdings könnte ich mir Spargel durchaus als modisches Haar-Accessoire vorstellen.}}",
    "user": "Gamlor"
}