{
    "user": "Woodpecker68",
    "text": "Fred [[sitzt nachdenklich auf dem Stein]]: Vielleicht hätten unsere Buchstaben weniger Schnörkel und Kurven...\r\n\r\nFred [[schaut nach unten auf zwei Metallfedern]]: ...hätte man früher nicht mit Federn geschrieben...!\r\n\r\n{{Sind Pixel eigentlich Dateistaben?}}"
}
