{
    "user": "Woodpecker68",
    "text": "Fred [[auf der Wiese, schaut auf den Boden]]: Es können noch nicht alle Pflanzen wachsen.\r\n\r\nFred: Der Boden ist noch nicht warm genug...!\r\n\r\nFred [[denkt nach]]\r\n\r\nFred [[liegt schlafend auf dem Boden]]: z\r\n\r\n{{Der Ritter schaute auf des Gegners Waffensammlung und spuckte angewidert aus: 'Pf! Lanzen!' Er hieß Sir Pflanzelot.?}}"
}
