{
    "text": "Fred:  Brot wird aus Getreide hergestellt...\r\n\r\nFred: ...und Getreide ist eigentlich dickes Gras.\r\n\r\nFred [[hält ein Brötchen]]: Für Brötchen braucht man dementsprechend...\r\n\r\nFred [[steht auf einer Wiese]]: ...eine Wiese!!\r\n\r\n{{Das X auf dem Brötchen lässt einen versteckten Schatz vermuten.}}",
    "user": "Woodpecker68"
}