{
  "user": "Woodpecker68",
  "text": "Fed [[hält ein eingepacktes Geschenk]]: Bei Geschenken ist mir nur wichtig...\r\nKäfer\r\n\r\nFred: ...dass die Verpackung super ist!\r\n\r\nKäfer: Wann ist denn die Verpackung super?\r\n\r\nFred [[grinst, hält das Geschenk fest]]: Wenn der Inhalt super ist!\r\nKäfer: !\r\n\r\n{{Inhalt. Aushneu.}}"
}