{
    "text": "Professor-Fred [[hält ein dampfendes Reagenzglas]]: Vielleicht sollte ich nicht Forscher werden...\r\n\r\nProfessor-Fred: ...sondern Bedächtiger...!\r\n\r\n{{Doch dafür bräuchte er wohl ein Dach.}}",
    "user": "Woodpecker68"
}