{
  "user": "Woodpecker68",
  "text": "Fred [[unterm Sternenhimmel]]: Ich habe ein neues Sternbild gefunden!\r\n\r\nFred [[steht auf der Wiese und zeigt in den Sternenhimmel]]: \"Der Faule\".\r\nKäfer [[schaut auch in den Himmel]]\r\n\r\nKäfer [[schaut fragend in den Himmel]]: Wo genau ist es denn?\r\n\r\nFred [[liegt schläfrig bäuchlings auf der Wiese]]: Irgednwo da oben!\r\nKäfer: !\r\n\r\n{{SternzEichen bestehen aus Bäumen.}}"
}