{
    "text": "Fred [[reckt beide Hände vor]]\r\n'Verzweiflung.'\r\n\r\nFred [[geht pfeifend nach rechts ab]]\r\n'Vereinsflung.'\r\n\r\n{{Und dazwischen liegt die Veranderthalbflung.}}",
    "user": "Woodpecker68"
}