{
    "text": "[[Fred auf dem Filosofierstein sitzend und ein Buch lesend, Fred trägt eine Brille]]\r\nIm Karbon versanken Planzenteile im Sumpf und wurden somit nicht zersetzt, sondern zu Torf...\r\nWurm. \"?\"\r\n\r\nUnter grossen Druck und hohen Temperaturen wurde das Wasser aus dem Torf gepresst, und es entstand Kohle...\r\n\r\nDemnach reicht es ein Stück Kohle in die Hand zunehmen...\r\n\r\n...wenn man mal wieder Urlaub braucht...!\r\nWurm:\"!\"",
    "user": "ksa"
}