{
    "text": "Erzähler: Zweig.\r\n[[Fred hält einen Zweig hoch, also ein Stück Holz, das sich Y-formig aufgabelt.]]\r\n\r\nErzähler. Dreig.\r\n[[Fred hält einen Zweig hoch, der sich aber nicht zwei-, sondern dreifach aufgabelt.\r\n\r\n{{alt-text: Vielleicht ists aber auch ein Ast.}}",
    "user": "ksa"
}