{
    "user": "Woodpecker68",
    "text": "Fred [[freudig]]: Ich habe etas wundervolles gefunden!!\r\n\r\nFred [[steht auf der Wiese, zu Käfer gewandt]]: Und dann - wie einen Schatz - sofort vergraben!\r\n\r\nKäfer: Was war es denn?\r\n\r\nFred [[auf der Wiese]]: Ein bisschen Erde!\r\nKäfer [[schaut zum Leser]]: seufz\r\n\r\n{{Etwas gefundenes Wundervolles ist etwas Fundervolles.}}"
}
