{
    "text": "Fred [[freidig]]: Ich  möchte gerne eins werden mit der gesamten Welt...!\r\n\r\nFred [[sitzt keksfutternd auf der Wiese vor einem Keksteller und einem Stück Torte]]: Und nehme so viel wie möglich von ihr in mir auf!!\r\n\r\n{{The one and only.}}",
    "user": "Woodpecker68"
}