{
    "user": "Woodpecker68",
    "text": "Fred [[läuft aufgeregt auf Käfer zu]]: Ich meine: wieviel wiegt denn so ein Vitramin...??\r\nKäfer: ?\r\n\r\nFred [[hält sich den Bauch]]: Vielleicht ist es gar nicht so gut für die Figur...\r\n\r\nFred [[sitzt auf dem Boden und hält einen Apfel]]: ...viele Vitamine zu essen...!\r\nKäfer [[schaut hoch zum Apfel]]: !\r\n\r\n{{Vitamin ist kurz für Vitaminute.}}"
}
