{
    "text": "Zauberer-Fred: Ich zaubere uns jetzt in ein Alternativuniversum...\r\n\r\nZauberer-Fred: ...in dem alles genauso ist wie hier...!\r\n\r\nZauberer-Fred [[hochkonzentriert]]\r\n\r\nZauberer-Fred [[sitzt auf dem Boden]]: ...aber meine Füße besser riechen!!.\r\n\r\n{{Nämlich nach leckerem Kääääse. Was gibt es besseres?}}",
    "user": "Woodpecker68"
}