{
    "text": "Fred: Für die Menschen stellen Käfer etwas Besonderes dar...\r\n\r\nFred: Im alten Ägypten wurden Käfer verehrt. Sie waren Symbol für die Auferstehung und für den Kreislauf der Sonne. Und heutzutage gilt unter Menschen ein Marienkäfer als Glücksbringer...\r\n\r\nFred: Was Menschen tun und glauben, war schon immer ziemlich bescheuert...!\r\n\r\nFred: ... aber ich mag dich trotzdem...!",
    "user": "Sanne"
}