{
    "text": "Zauberer-Fred: Ich zaubere uns jetzt in ein alternatives Universum...\r\n\r\nZauberer-Fred: ...in dem alles genau so ist wie hier...\r\n\r\nZauberer-Fred: ...nur das dort niemals jemand exisistiert...\r\n\r\nZauberer-Fred: ...der aus einem alternativen Universum stammt!\r\n\r\n{{Sondenr aus einem iungernativen?}}",
    "user": "Woodpecker68"
}