{
    "text": "Fred [[mit einem Keks zu Käfer]]: Ich werde mir diesen leckeren Keks...\r\nKäfer\r\n\r\nFred: ...gut einteilen!\r\n\r\nFred [[isst den Keks am Stück]]: 'wapps'\r\n\r\nKäfer: Einteilig verschlungen!\r\nFred: Hihi!\r\n\r\n{{Dieser Verschlingel!}}",
    "user": "Woodpecker68"
}