{
    "text": "Zauberer-Fred [[mit Hut und schwarzer Fliege]]: Stellt euch vor, ich wäre nicht hier...\r\n\r\nZauberer-Fred [[schaut]]\r\n\r\nZauberer-Fred: ...und würde euch also auch nicht auffordern...\r\n\r\nZauberer-Fred [[geht aus dem Bild]]: ...euch meine Abwesenheit vorzustellen!\r\n\r\n{{Ich bräuchte dafür erst einmal ein Vorstellungsgespräch.}}",
    "user": "Woodpecker68"
}