{
  "user": "Woodpecker68",
  "text": "Fred [[mit einer Mini-Pudelmütze auf dem Kopf]]: Dieses Jahr beschenke ich nur meine Liebsten.}}\r\n\r\nFred [[nachdenklich]]: Was wünschen sich denn Kekse...?\r\n\r\n{{GeschenkPapiEr und GschenkMamiSie.}}"
}