{
    "text": "Fred: [[an der Decke hängend]] Ich spüre deutlich, dass es wärmer wird ...\r\n\r\nFred: denn derzeit habe ich ständig Durst!\r\n\r\nFred: Besonders schlimm ist es nach dem Aufwachen ... !\r\n\r\nFred: *schnarch* [[sabbert fleißig herum und hinterlässt eine Pfütze am Boden]]\r\nKäfer: ?",
    "user": "bastian"
}