{
    "text": "Panel 1: Fred freut sich: &quot;Der weihnachtsmann fetzt!&quot;\r\nPanel 2: Fred: &quot;Daher lasse ich mir jetzt auch einen Bart wachsen!&quot;\r\nPanel 3: Fred hält einen Nikolausbart vor sich und Spinne läßt von oben Kerzenwachs tropfen.\r\n\r\n{{Weihnachtsmann -- Normalerweise nimmt man dafür aber Wachs-Mal-Stifte.}}",
    "user": "Woodpecker68"
}