{
    "text": "Fred: Elefant!\r\n\r\nFred: Antilope, Brillant, Restaurant, Gigant, Antenne, Antarktis, Diamand, interessant...\r\n\r\nFred: fulminant, ambulant, Anteil, Musikant, antik, konstant, Antipasto, anthrazit, eingeplant, Antlitz, Antibiotikum...\r\n\r\nFred: ...suchtest du nicht nach Ant-worten?\r\n\r\n\r\n\r\n{{alt-text: Antagonist, Antrag, Antrieb, charmant, Demonstrant, exorbitant, galant, imposant, kolant, tolerant}}\r\nKäfer: seufz",
    "user": "Sanne"
}