{
    "text": "Fred [[schaut zum Halbmond hoch]]: Menschen finden es toll, dass sie bereits auf dem mond landeten...\r\n\r\nFred [[drückt den Filosofiestein]]: dabei waren die Steine längst dort...!\r\n\r\n{{Und auf dem Grund der Meere waren sie auch schon.}}",
    "user": "Woodpecker68"
}