{
    "text": "Fred: Und deswegen behaupte ich: Endlosschleifen gibt es nicht...!\r\n\r\nFred: Irgendwann ist ja das Schleifpapier aufgebraucht!\r\n\r\nFred: Und deswegen behaupte ich: Endlosschleifen gibt es nicht...!\r\n\r\n{{alt-text: Irgendwann ist ja das Schleifpapier aufgebraucht!}}",
    "user": "Andi"
}