{
    "text": "Fred [[nießt]]: tschi!\r\n\r\nFred: Ich habe wohl eine leichte Erkältung...!\r\n\r\nFred [[steht auf einer Waage]]: !\r\n\r\nFred: Es ist wohl doch eine schwere Erkältung!\r\n\r\n{{Prequel: Ha!}}",
    "user": "Woodpecker68"
}