{
    "text": "Fred: Würmer kennen sich doch mit dem Graben aus...?\r\nKäfer: ?\r\n\r\nFred: Mit Löchern und Gängen und so...?\r\n\r\nKäfer: Ja.\r\n\r\nFred: ...dann schenken sie mir vielleicht einen Weihnachtsstollen...!\r\nKäfer: *seufz*",
    "user": "Sanne"
}