{
  "user": "Woodpecker68",
  "text": "Fred [[lacht hinter vorgehaltenen Händen]]: Witze mit Pupsen sind immer lustig!\r\n\r\nKäfer [[schaut hoch zu Fred]]: Ich finde sie zu flach!\r\nFred\r\n\r\nFred [[mit erhobenem Kopf]]: Meine nicht!\r\n\r\nKäfer [[schaut]]\r\nFred [[dreht den Kopf nach hinten und schaut hoch zu einer großen Pupswolke]]: <3\r\n\r\n{{9 x zehn = Neunzig. Wit x 10 = Witzig.}}"
}