{
    "text": "Fred: Wenn plötzlich eine Gruppe talentierter Fliegen daher käme...\r\nFliege : *bss...*\r\n\r\nFred: ...und mir eine beeindruckende und faszinierender künstlerische Darbietung zeigten...\r\n\r\nFred: ...bräuchte ich denn nicht (um angemessen applaudieren zu können)...\r\n\r\nFred: ...eine Fliegenklatsche...?",
    "user": "sini"
}