{
    "user": "Woodpecker68",
    "text": "Fred: Ich bin besonders gut darin...\r\n\r\nFred [[auf der Wiese, schaut runter zu Käfer]]: ...Dinge zu schätzen.\r\n\r\nKäfer: Wie gut bist du denn?\r\n\r\nFred [[nachdenklich]]: Etwa 7 Liter!\r\nKäfer: !\r\n\r\n{{Sieben Liter sind immerhin mehr als 4 Stunden!}}"
}
