{
    "text": "Fred: Weil Marienkäfer wohl zum Geburtstag einen zusätzlichen Punkt bekommen...\r\n\r\nFred: ...bekommst Du nun einen, in dem du sogar stehen kannst...!\r\nKäfer: ?\r\n\r\nFred [[mit Punktekrawatte, Spinne, Fisch, Wurm, Schnecke und Maulwurf; hebt Käfer in die Mitte des Bildes]]: ...den Mittelpunkt!\r\n\r\n{{Mittlerweile freue ich mich ja auf Käfers Geburtstag fast mehr als auf meinen eigenen...}}",
    "user": "Woodpecker68"
}