{
    "text": "Fred: Um zu wissen, was in der Welt passiert...\r\nFred: ...lese ich Zeitung.\r\nFred: HEY! Die ist ja von letzter Woche!\r\nSchnecke: ...Tut mir leid... / Fred: ?",
    "user": "Sanne"
}