{
    "text": "Fred: Ich liebe es, hier zu stehen und in den Nachthimmel zu blicken...\r\n\r\nFred: Mit ein bisschen Fantasie kann man in den Wolken Formen und Figuren erkennen.\r\n\r\nFred: Da sind überhaupt keine Wolken...!!\r\n\r\nFred: Und mit viel Fantasie sieht man auch die Wolken, in denen man mit ein bisschen Fantasie...\r\nKäfer: *seufz*",
    "user": "sini"
}