{
    "text": "Fred: Ich habe eine Zeitmaschine gebaut...\r\n\r\nZeitmaschine: *zipp!*\r\n\r\nFred 2: Sie funktioniert nicht!\r\n[[Ein zweiter Fred ist auf der Zeitmaschine aufgetaucht]]\r\n\r\nZeitmaschine: *zapp!*\r\n[[Der zweite Fred ist wieder verschwunden]]\r\n\r\nFred: Äh...\r\n\r\nFred: Schade...!",
    "user": null
}