{
    "text": "Schnecke [[in Freds Höhle]]: Das gute an einem Wohnmobil ist ja, dass man...\r\nFred [[hängt schlafend von der Decke]]: z\r\n\r\nSchnecke [[kriecht über den kleinen Stein]]: ...jederzeit...\r\nFred [[liegt schlafend am großen Filosofiestein]]: z\r\n\r\nSchnecke [[kriecht Fred über den Rücken]]: ...egal, wo man sich befindet...\r\nFred [[liegt schalfend auf dem Bauch: z\r\n\r\nSchnecke: ...einfach schlafen gehen kann...!\r\nFred [[steht schlafend da]]: z\r\n\r\n{{zZz}}",
    "user": "Woodpecker68"
}