{
  "user": "Woodpecker68",
  "text": "Käfer [[sitzt mit Fred auf der Wiese vor einen Keksverpackung]]: Die Kekse sind abgelaufen.\r\nFred\r\n\r\nKäfer: Vermutlich sind sie nicht mehr gut.\r\n\r\nFred [[hebt nachdenklich eine Hand an den Mund]]: Das sind Kekse. Wenn sie nicht gut sind...\r\n\r\nFred [[hat die Packung aufgerissen und futtert einen Keks]]: ...dann sind sie perfekt!\r\nKäfer [[überrascht]]\r\n\r\n{{Je lecker, desto weg-er.}"
}