{
  "user": "Woodpecker68",
  "text": "Fred [[hält eine runde Wanduhr]]: Ich habe meine Uhr nicht nur eine Stunde zurückgestellt, sondern zwei!\r\n\r\nFred [[schaut aus dem Panel]]: Ihr lebt also jetzt in der Zukunft...\r\n\r\nFred: ...und könnt mir rechtzeitig bescheid sagen\r\n\r\nFred [[liegt schlafend am Filosofiestein]]: ...wenn etwas Schönes passiert! \r\n\r\n{{Sowohl SommErzeit als auch WintErzeit beinhalten Erze.}}"
}