{
    "text": "Fred: Was auf diesem Notizzetteln steht, soll man nicht vergessen...\r\n\r\n[[Fred steht auf den Notizzetteln, zusammen mit Käfer]]\r\n\r\n{{Bis heute mag ich die Uli-Stein-Idee, das Wort 'Zettel' einfach 'ZL' zu schreiben.}}",
    "user": "Gamlor"
}