{
    "text": "Fred: Das neue Jahr hat begonnen ...\r\n\r\nFred: Die ganze Welt fühlt sich so unberührt, so rein an...\r\n\r\nFred: Alles wirkt so ... neu!\r\n\r\nFred: Selbst die vergammelte Möhre sieht wieder frisch aus...!\r\nKäfer: Naja...",
    "user": "sini"
}