{
    "text": "Fred: In der Weihnachtszeit nasche ich gerne eine besondes delikate Leckerei...\r\n\r\nFred: Meeressäugergenitalien!!!\r\n\r\n[[Käfer sehr bestürzt]]\r\nKäfer: Waas!?!\r\n\r\nFred: Magst du etwa keine Walnüsse...?",
    "user": "Lorena"
}