{
    "text": "Fred: Käme jetzt ein böser Zauberer vorbei und würde mich mit einem gemeinen Zauberspruch versteinern ... *grübel*\r\n\r\nFred: ... so wüsste ich nicht, was ich lieber wäre ...\r\n\r\nFred: [[stehend]] Stalagmit ...\r\n\r\nFred: [[von der Decke hängend]] ... oder Stalaktit.",
    "user": "bastian"
}