{
    "text": "Fred [[Fred kommt angerannt]]: Pfützen, Flüsse und Seen vereisen übrigens...\r\n\r\nFred [[Fred schlittert auf dem Eis]]:...weil auch das Wasser in Festlicher Stimmung ist...!\r\n\r\n{{Wer nicht verreist, vereist.}}",
    "user": "ksa"
}