{
  "user": "Woodpecker",
  "text": "Fred: Die Erde bewegegt sich mit 30 Kilometern pro Sekunde um die Sonne\r\n\r\nFred: ...und nimmt alle ihre Bewohner mit!\r\n\r\nFred [[geht nach recht ab]]: Also braucht niemand mehr zu behaupten...\r\n\r\nFred [[liegt bäuchlings auf dem Stein]]: ...dass ich mich zu wenig bewege...!\r\n\r\n{{Mein Lieblingstruam ist der WelTraum.}}"
}