{
    "user": "Woodpecker68",
    "text": "Käfer [[auf der Wiese, schaut auf ein Osterei]]: Das wichtigste am Ostereierverstecken ist ja, dass man das Ei...\r\nFred [[hört zu]]\r\n\r\nKäfer: ...halb sieht und halb nicht sieht!\r\n\r\nKäfer [[auf der Wiese, schaut wieder auf ein Osterei]]: Dein Osterei sieht man aber vollständig!\r\nFred\r\n\r\nFred: Nein, nur die äußere Hälfte!\r\n\r\n{{Ich mag die Idee, Eierschalen in eigenen Gefäßen aufzubewahren, die ebenfalls Eierschalen heißen.}}"
}
