{
    "text": "Fred: &quot;Harte Schale, weicher Kern.&quot;, heißt es.\r\n\r\nFred [[kratzt sich]]: seit wann sind Kerne weich...?\r\n\r\nFred [[verdutzt]]\r\nStimmen aus dem 'Off': Äpfel, Brinen, Mangos, Kiwis, Orangen, weintrauben, Mandarinen, Tomaten, Pfirsiche, Pflaumen, Aprikosen, Kirschen, Pflaumen, Mirabellen, Hagebutten, Johanisbeeren, Paprika, Melone, Kürbissem Avocados. Datteln, Litschis, Heidelbeeren, Pampelmusen, Zitronen, Quitten, Himbeeren, Brombeeren, Feigen, Atome, Sonnenblumen, Pudel...\r\n\r\n{{Obstschalen sind ja oft aus Holz oder Glas, also schon recht hart.}}",
    "user": "Woodpecker68"
}