{
    "text": "Käfer: Fred mag die Hitze nicht besonders...\r\nKäfer: ...daher besrogte er sich einen Ventilator.\r\nKäfer: Leider hat er keinen Strom...!\r\nKäfer: ich zweifle an der Effizienz dieser Erfrischungsmethode...! [[Fred schwitzend auf Trimmrad mit Ventilator]]",
    "user": "Woodpecker68"
}