{
    "text": "Fred: Fische sind ja eigentlich etwas Besonderes...\r\n\r\nFred: Schließlich können sie im Wasser atmen...\r\n\r\nFred: Das kann ich aber auch...!\r\nFisch: ?\r\n\r\nFred: Zumindest aus...!",
    "user": null
}