{
  "user": "Woodpecker68",
  "text": "Fred [[mit Pudelmütze]]: Das Schönste an der Weihnachtszeit ist das...\r\n\r\nFred [[liegt bäuchlings schlafend im Schnee auf dem Stein]]: Z\r\n\r\n{{Brownies sind Klebkuchen.}}"
}