{
    "user": "Woodpecker68",
    "text": "Fred: Es gibt noch Phasen...\r\n\r\nFred [[bedrückt]]: ...in denen ich auf Kekse verzichte.\r\n\r\nKäfer: Wenn dein Mund bereits zu voll ist...?\r\n\r\nFred [[sitzt auf der Wiese, mampft mit vollem Mund Kekse]]: Mpfm!\r\nKäfer: <3\r\n\r\n{{Ich esse vor allem in der Vergangenheit weniger Kekse.}}"
}
