{
    "text": "Fred: Ich dekoriere gerade...\r\n\r\nFred: ...denn Ende Dezember gibt es ein frohes Fest...:\r\n\r\nFred [[freudig]]: Steinachten!\r\nFilosofiestein: &lt;3\r\n\r\n{{An Steinachten werden die ganzen harten Plätzchen gefuttert.}}",
    "user": "Woodpecker68"
}