{
    "user": "Woodpecker68",
    "text": "Fred [[liegt am Stein, liest eine Zeitschrift]]: Es gibt immer weniger Insekten...!\r\n\r\nFred [[am Stein liegend]]: Dagegen muss man etwas tun!\r\n\r\n[[Ein Teller mit Keksen steht nebden dem Stein - niemand zu sehen]]\r\n\r\nKäfer [[kommt von rechts ins Panel, sieht die Kekse]]: ?\r\n\r\n{{Die besten Lockmittel sind übrigens Wickler.}}"
}
