{
    "text": "Fred: ich wusste gar nicht, dass ich so stark bin... [[Denkblase, fliegt]]\r\nFred: ich frage mich wieviele Meter ich den Wurm wohl nach oben geworfen habe... [[Denkblase]]\r\nFred: ... dass er so lange braucht, um wieder runter direkt in meinen Mund zu fallen... [[Denkblase]]\r\nVogel mit Wurm: Fledermäuse sind ziemlich doof! [[Denkblase]]",
    "user": "Woodpecker68"
}