{
    "text": "Käfer: Aahhh... Der Frühling naht unaufhaltsam...\r\n\r\nFred: Schnee! Schnee! Schnee und Kälte!\r\nKäfer: ?\r\n\r\nFred: Bitte, bitte! Schnee und Eis...!\r\nKäfer: !\r\n\r\nKäfer: ...und mit ihm der Frühjahrsputz...!!\r\nFred: (enttäuscht) Seufz",
    "user": "Sanne"
}