{
    "text": "Fred: Weil heute der erste Advent ist, habe ich extra zwei Weihnachtsmützen besorgt...\r\n\r\nFred: ...Eine für mich...\r\n\r\nFred: ...und eine für dich!\r\n\r\nKäfer: ...Danke...\r\n\r\n\r\n{{alt-text: 1. Advent}}",
    "user": null
}