{
  "user": "Woodpecker68",
  "text": "Fred [[zu Käfer gebeugt]]: Manchmnal schlafe ich einfach...\r\nKäfer\r\n\r\nFred: ...um unangenehmen Situationen zu entfliehen.\r\n\r\nKäfer: Was für unangenehme Situationen?\r\n\r\nFred [[sitzt schlafend auf dem Boden]]: Z\r\nKäfer: !\r\n\r\n{{Angenehm. Ausgegeb.}}"
}