{
    "text": "Fred [[geht nach rracht sua dem Panel]]: Ich keinne übrigens...\r\n\r\n[[leeres Panel]]\r\n\r\n[[leeres Panel]]\r\n\r\nFred [[kommt von links in das  Panel]]: ...eine Abkürzung!\r\n\r\n{{}}",
    "user": "Woodpecker68"
}