{
    "text": "Fred: Schnee ist toll [[fliegt]]\r\n\r\nFred: Besonders Schneemannbauen fetzt! [[Schneehaufen]]\r\n\r\nKäfer: Findest du nicht, dass du ein bisschen übertreibst...?\r\n\r\nFred: Wieso?? [[Riesen-Schneefledermaus]]\r\nKäfer",
    "user": "Woodpecker68"
}