{
    "text": "Fred: Schnee ist toll [[fliegt]]\r\nFred: Besonders Schneemannbauen fetzt! [[Schneehaufen]]\r\nKäfer: Findest du nicht, dass du ein bisschen übertreibst...?\r\nFred: Wieso?? [[Riesen-Schneefledermaus]] /käfer",
    "user": "Woodpecker68"
}