{
    "text": "[[Fred flattert]]\r\n\r\nFred: Vielleicht ist Fliegen deswegen so schön:\r\n[[Fred landet]]\r\n\r\n[[Fred steht]]\r\n\r\nFred: Weil es ohne Grund passiert...\r\n[[Fred berührt den Boden]]\r\n\r\n{{alt-text: Aber nicht ohne Rund. Hihi.}}",
    "user": "bastian"
}