{
    "text": "Fred: Das neue Jahr währt noch keine drei Tage und fühlt sich bereits an, als wäre es längst ausgelaugt und alt.\r\nFred: Vorgestern war alles noch so rein, jungfräulich, unverbraucht. Doch nun...\r\nFred: ich glaub', ich bleibe hier sitzen und warte auf den Mai...\r\nFred: ... der macht schliesslich alles wieder neu...!",
    "user": "Drachin"
}