{
    "text": "Fred [[mit Partykrawatte und Partyhütchen]]: Fastnacht ist ja eigentlich...\r\n\r\nFred [[unter Sternenhimmel]]: ...Abend!\r\nKäfer: ...und daher bereits vorbei.\r\n\r\n{{Liebe Grüße an alle Regionen, die lieber 'Karneval' oder 'Fasching' oder 'Krumpelblorrk' sagen.}}",
    "user": "Woodpecker68"
}