{
    "text": "Fred: Vielleicht bekomme ich ja einen kleinen Kuchen geschenkt ...\r\n\r\nFred: Mit leckerer Füllung ...\r\n\r\nFred: Langsam, in aller Ruhe gebacken ...\r\n\r\nFred: Erdbraun und schokoladig ...\r\n\r\nFred: Mit ein bisschen Spinat ...\r\nFred: Nicht zu trocken ... \r\n\r\nFred: Und mit lustigen Punkten drauf ... \r\n\r\nFred: Glaub ich aber nicht ...\r\n[[Schild: Alles Gute, lieber Fred]]\r\n\r\n{{alt-text: Fünf ist vermutlich auch die Zahl an Stunden, die ich an diesem Comic saß. Min-des-tens. Uff.}}",
    "user": "bastian"
}