{
    "text": "Fred [[unglücklich, Gedankenblase]]: Ich glaube, ich denke zuviel...\r\n\r\nFred [[Gedankenblase ist stehengeblieben, Fred nach rechts ab]]: ...nach.\r\n\r\n{{Oder doch nicht? Mmh, keine Ahnung. Villeicht schon...}}",
    "user": "Woodpecker68"
}