{
    "user": "Woodpecker68",
    "text": "Fred: iIm abendlichen Dunkel...\r\n\r\nFred: ...kommen Fremde Leute zu mir...\r\n\r\nFred : ...und wollen meine Sp\r\nüßigkeiten...!\r\n\r\nFred [[sitzt auf der Wiese mit Käfer]]: ...und deswegen ist Halloween so gruselig...!\r\nKäfer [[als Kürbis verkleidet]]\r\n\r\n{{Helloween. Helhighween.}}"
}
