{
    "text": "Panel 1: Fred: &quot;wenn man es genau betrachtet...&quot;\r\nPanel 2: Fred schaut sich um: &quot;...ist meine Vergangenheit...&quot;\r\nPanel 3: Fred liegt am Filosfie-Stein: &quot;...eher eine Verlegenheit.&quot; Wurm: &quot;zzz&quot;\r\n\r\n{{Genau -- Schüchternheit fetzt - sozusagen.}}",
    "user": "Woodpecker68"
}