{
    "user": "Woodpecker68",
    "text": "Fred: Ich möchte mich mehr für das Gute einsetzen!\r\n\r\nFred: Dadurch bin ich einer von den Guten.\r\n\r\nFred: Ich möchte mich mehr für mich selbst einsetzen!\r\n\r\n{{Kekse sind auch gut!}}"
}
