{
    "text": "[[Fred läuft im Kreis]]\r\nFred: Jetzt habe ich schon zwei Stunden lang...\r\n\r\nFred: ...darüber reflektiert und spekuliert...\r\n\r\nFred: ...doch ich habe noch immer keine Ahnung...\r\n\r\nFred: ...was die beiden Wörter bedeuten...!\r\n\r\n{{alt-text: Irgendwas mit Elefanten, schätze ich.}}",
    "user": "Zwei Stunden lang"
}