{
    "text": "Fred [[liegt am Stein und schläft]]: Z\r\n'Tiefschlafphase.'\r\n\r\nFred [[hängt schlafend an der Decke]]: Z\r\n'Hochschlafphase.'\r\nHase: 'Stophase'\r\n\r\n{{Auf Tiefschlaf gestellte Star-Trek-Waffe: Tiefschlafphaser.}}",
    "user": "Woodpecker68"
}