{
    "text": "Fred: Wenn ich nichts zu tun habe...\r\n\r\nFred: ...beginne ihc gerne damit...\r\n\r\nFred: ...möglichst fleissig, eifrig und intensiv...\r\n\r\nFred: ...zu warten...\r\n\r\n{{alt-text: Wenn ich nichts zu tun habe, zeichne ich Comics über das Nichtszutunhaben.}}",
    "user": "Sanne"
}