{
    "text": "Fred: Weisheit. [liest auf einem Stein unter dem Sternenhimmel]\r\n\r\nFred: Wiesheit. [liegt auf der Wiese unter dem Sternenhimmel]\r\n\r\n{{alt-text: Lasst uns wiese sein!}}",
    "user": "Andi"
}