{
    "text": "Fred [[mit Punktekrawatte]]: Alle ausgedachten Geschichten sind eigentlich Lügen!\r\n\r\nFred: Also ist auch dieser Comic eine Lüge!\r\n\r\nFred: Und somit auch das , was ich im ersten Panel sagte...!\r\n\r\nFred [[nach rechts ab]]: Puh - Glück gehabt!\r\n\r\n{{Comiczeichner sind Lügenerfinder. Aber das stimmt nicht!}}",
    "user": "Woodpecker68"
}