{
    "text": "Fred [[kommt mit einem Bleistift]]\r\n\r\nFred [[grinst und zeigt das Radiergummiende des Stiftes]]\r\n\r\nFred [[radiert Punkte aus dem schwarzen Hintergrund]]\r\n\r\nFred: Schnee!\r\n\r\n[[Auf ähnliche Weise entsteht übrigens auch Regen: Man saugt an bestimmten Stellen in der Luft einfach die Trockenheit ab.}}",
    "user": "Woodpecker68"
}