{
  "user": "Woodpecker68",
  "text": "Fred [[nur ab dem Oberkörper zu sehen; mit Schal und Pudelmütze]]: Hui, es hat geschneit!\r\n\r\nFred [[nur ab dem Oberkörper zu sehen; schaut runter Richtung Boden]]: Wieviel hat es denn geschneit?\r\n\r\nFred [[nur ab dem Oberkörper zu sehen]]\r\nKäfer [[nicht zu sehen]]: Hmpf!\r\n\r\nFred [[breit grinsend]]: Mindestens 1 Käfer hoch.\r\n\r\n{{SchNee. SchJaa!}}"
}