{
  "user": "Woodpecker68",
  "text": "Fred [[läuft mit Käfer über die Wiese]]: Ich habe gelesen, man solle die Gegenwart mit mehr Achtsamkeit wahrnehmen.\r\nKäfer\r\n\r\nFred: Auf diese Weise schafft man mehr Erinnerungen.\r\n\r\nKäfer: Wo hast Du das gelesen?\r\n\r\nFred: Hab ich vergessen...!\r\nKäfer: !\r\n\r\n{{Gegenwart. Fürhandel.}}"
}