{
    "text": "Fred: Glück! [[Fred hopps durch Bild]]\r\n\r\nKäfer: Glückspringer.\r\nFred: Glück!\r\n[[Fred hoppelt weiter durchs Bild]]\r\n\r\n{{Übrigens bringt Pech haben Glück. Glaube ich.}}",
    "user": "Gamlor"
}