{
    "text": "Fred [[hält eine Liste]]: Ich präsentiere hiermit die heutigen Einsendungen:\r\n\r\nListe: t, tecken, tieg, tellung, timmig, tudieren, turz, endung\r\n\r\n{{Weil der heutige Comic nicht so einfach zu durchschauen ist, gebe ich einen freundlichen Hinweis: Eins.}}",
    "user": "Woodpecker68"
}