{
    "text": "Fred: Dieses Bild heisst \"Kein Bock\"... [[Fred steht vor einem weißen Bild]]\r\n\r\nFred: \"Rahmen im Rahmen im Rahmen im Rahmen\" [[Bild mit vier Rahmen ineinander]]\r\n\r\nBild: Das ist doch keine Kunst! Das kann doch keder!\r\n\r\nFred: [[Im Bild]] Diese Ausstellung ist mir irgendwoe unheimlich...!",
    "user": "Sanne"
}