{
    "text": "Fred: Vielleicht bin ich ja tatsächlich...\r\n\r\nFred: ...ein kleines bisschen zu dick... [[der Boden und untere Comicrand wölbt sich nach unten]]\r\n\r\n{{alt-text: Vielleicht kann der Fredfater aber auch einfach nur keine geraden Linien zeichnen.}}",
    "user": "Sanne"
}