{
    "text": "Käfer [[mit Pudelmütze im Schnee]]: Fred, bei dem Wetter brauchst du unbedingt eine Mütze!\r\nFred [[freut sich über einen Schneehaufen auf den Händen]]\r\n\r\nFred [[hält eine Pudelmütze mit Schneehaufen drin]]: Gute Idee!\r\nKäfer: Seufz\r\n\r\n{{ }}",
    "user": "Woodpecker68"
}