{
    "text": "Fred [[schaut nach oben, res regnet]]\r\nKäfer: Was machst Du da?\r\n\r\nFred: Ich zähle die Häufigkeit der Regentropfen...!\r\nKäfer: ?\r\n\r\nFred [[zeigt auf zwei Pfützen auf dem Boden]]: bis jetzt sind es null Haufen!\r\nKäfer: !\r\n\r\n{{Ein Boxer ist übrigens ein Hau-Fan.}}",
    "user": "Woodpecker68"
}