{
    "user": "Woodpecker68",
    "text": "Fred: Letzlich sind wir doch alle eins!\r\n\r\nFred [[steht auf dem Maulwurfshügel]]\r\nMaulwurf\r\nKäfer [[sitzt auf Freds Kopf]]: Hihi!\r\nWurm [[sitzt auf Käfres Kopf]]\r\nSpinne [[hängt von oben neben Käfer und hält das Fischglas]]\r\nFisch\r\nSchnecke [[kriecht auf dem Fischglas]]\r\n\r\n{{Sieben auf einen Streich.}}"
}
