{
    "text": "[[Fred liest einen Brief.]]\r\nBrief: Sehr geehrter Herr fon Flatter\r\n\r\nBrief: Falls Sie diesen Brief nicht erhalten haben sollen\r\nFred: ?\r\nSpinne: ?\r\n\r\nBrief: Schicken Sie ihn bitte ungelesen zurück.\r\nFred: ?!\r\nSpinne: ?!\r\n\r\n{{alt-text: Briefträgerspinne! Wuhuu!}}",
    "user": "ksa"
}