{
    "text": "Fred: Der Held meines Romans soll stark, tapfer, wagemutig und intelligent sein,\r\n\r\nFred: ...aber auch gewitzt, gutaussehend, elegant, liebenswürdig und gütig...\r\n\r\n[[Fred hält inne]]\r\n\r\nFred: Also wird es wohl eine Autobiographie...\r\nKäfer: !!",
    "user": null
}