{
    "text": "Fred: Um schlechte Laune abzureagieren, kann man auf einen Boxsack einschlagen...\r\n\r\nFred: Damit auch das letzt Quentchen Unmut herausgekitzelt wird, könnte der Boxsack provozierend wirken.\r\n\r\nFred: ...beispielsweise in dem er aussieht als wäre er gefährlich und wütend und bedürfe einiger kräftiger Hiebe...\r\n\r\nFred: ich präsentiere also meine neueste Erfindung: ein HAUSTIER!",
    "user": "robby"
}