{
    "text": "Fred: Menschen sind widerlich!\r\nKäfer: ?\r\n\r\nFred: Ich laufe so herum, wie ich geschaffen wurde\r\n\r\nFred: Menschen hingegen hüllen sich in lauter Kleidung\r\n\r\nFred: und Kleidung besteht zur Hälfte aus Dung!\r\nKäfer: *seufz*",
    "user": "winnie"
}