{
    "text": "Fred: es ist erstaunlich, wieviele Bücher es auf der Welt gibt...\r\nFred: doch da dieTexte in den Büchern nur aus (mehr oder weniger) zufälligen Aneinanderreihungen von Buchstaben und Zeichen sind...\r\nFred: ...kennt man eigenlich die Inhalte sämtlicher Bücher, wenn man das Alphabet beherrscht...\r\nFred: demnach kenne ich fast die Hälfte aller Bücher...!",
    "user": "Woodpecker68"
}