{
    "text": "[[Fred sehr fragend schauend]]\r\nFred: es ist erstaunlich, wieviele Bücher es auf der Welt gibt...\r\n\r\n[[Fred lesend]]\r\nFred: Doch da die Texte in den Büchern nur aus (mehr oder weniger) zufälligen Aneinanderreihungen von Buchstaben und Zeichen sind...\r\n\r\nFred: ...kennt man eigenlich die Inhalte sämtlicher Bücher, wenn man das Alphabet beherrscht...\r\n\r\n[[Fred grinsend dreinschauend]]\r\nFred: demnach kenne ich fast die Hälfte aller Bücher...!",
    "user": "ksa"
}