{
    "text": "Fred: Mein Vorsatz für das neue Jahr lautet: Ich werde Alles besser machen!\r\nFred: ich will nicht länger sinnlos herumhängen und faulenzen! Ich will fleissig lernen, hart arbeiten, will Anderen helfen, mich selbst weiterentwikeln...\r\n[[Fred guckt traurig zu boden]]\r\nFred: ... ganz schön schwierig die Finger zu kreuzen, wenn man keine hat...!",
    "user": "Drachin"
}