{
  "user": "Woodpecker68",
  "text": "Fred [[liegt am Filosofiestein]]\r\nKäfer [[schaut auf Fred]]: Steter Tropfen höhlt den Stein.\r\n\r\nFred [[steht auf, am Filosofiestein fehlt ein Stück in der Kontur wo Fred gelegen ist ]]: WEas soll das heißen ?!?\r\nKäfer\r\n\r\n{{StEin. StAus.}}"
}