{
    "text": "[[Fred und Käfer stehen im Schnee, es schneit]]\r\n\r\nKäfer: Das ist vielleicht der letzte Schnee dieses Winters!\r\n\r\nKäfer: ...wir sollten ihn geniessen...!\r\n\r\nFred: ...fmeckt komif...! *mampf*",
    "user": "Sanne"
}