{
    "text": "Fred: ...der Sprechblasen...\r\n\r\nFred: ...nach den Anfangsbuchstaben...\r\n\r\nFred: ...sortiert!\r\n\r\nFred: Übrigens wurde der heutige Comic...\r\nKäfer [[schaut Fred an]]\r\n\r\n{{Das diesen für gilt Gleiche Text.}}",
    "user": "Woodpecker68"
}