{
    "user": "Woodpecker68",
    "text": "Fred [[auf der Wiese]]: Würdest Du sagen, dass mein guten Eigenschaften überwiegen?\r\nKäfer: Na klar!\r\n\r\nFred: Dann sollte ich lieber nicht abnehmen!\r\n\r\n{{Freds beste Seite: www.fonflatter.de}}"
}
