{
    "text": "Fred [[im Regen]]: Regen fetzt!\r\nKäfer\r\n\r\nKäfer: Nicht zuletzt, weil man davon sauber wird...\r\n\r\nFred [[mit Regenschirm]]\r\nKäfer: seufz\r\n\r\n{{Saub. Sauber. Am saubsten.}}",
    "user": "Woodpecker68"
}