{
    "user": "Woodpecker68",
    "text": "Fred [[es schneit]]: Ich war schon immer meiner Zeit voraus...\r\n\r\nFred [[schaut hoch zu den Schneeflocken]]: ...ein progressiver Denker...!\r\n\r\nFred [[schaut den Leser an]]: Deswegen bin ich schon jetzt ...\r\n\r\nFred [[im Schnee mit Sonnenbrille, einem Schwimmricht um und eine Limonade in der Hand]]: ...bereit für den Sommer!\r\n\r\n{{Vielleicht ist er aber auch im letzten Sommer hängengeblieben.}}"
}
