{
    "text": "[[Fred sieht ein Brief auf dem Boden]]\r\n\r\nFred: !\r\n\r\nFred: [[liest den Brief]] Auf diese.\r\n\r\nFred: Ich habe eindlich die Antwork gefunden, die ich suchte!\r\n\r\nKäfer: Auf welche Frage denn!\r\n\r\n{{Ach, DORT habe ich meinen Zettel hingelegt...!}}",
    "user": "Gamlor"
}