{
    "user": "Woodpecker68",
    "text": "Fred: Wenn ich König wäre, würde ich darauf verzichten...\r\n\r\nFred [[auf der Wiese]]: ...eine lächerliche Krone zu tragen...\r\n\r\nFred [[steht grinsend auf der Wiese]]: ...und stattdessen...\r\n\r\nFred: ...jemandem befehlen, das für mich zu tun!\r\n\r\n{{Krone. Krtwo. Krthree.}}"
}
