{
  "user": "Woodepecker68",
  "text": "Fred [[liegt flach auf dem Boden]]: Stell dir vor: eines Tages wächst hier ein prächtiger Baum!\r\nKäfer [[sitzt neben Fred und schaut auch auf den Boden]]\r\n\r\nFred [[nun sitzend]]: Ich muss als nur lange genug hier sitzen und warten...\r\nKäfer\r\n\r\nFred [[grinst]]\r\nKäfer [[seufzt]]\r\n\r\nFred [[sitzend, mit ausgebreiteten Armen]]: ...bis jemand einen Samen sät...!!\r\nKäfer [[schaut zum Leser]]: seufz\r\n\r\n{{SitZen ist auch eine Form von Zen.}}"
}