{
    "text": "Fred: Schachteleulen!\r\nFred: Hihi!\r\n\r\nFred: Schachteleulen! [[lacht]]\r\n\r\nFred: Schlechte Laune kann gar nicht so schlimm sein...\r\n\r\nFred: ...wenn man Schachteleulen daraus basteln kann...!",
    "user": "Sanne"
}