{
    "text": "Fred: Jetzt weiss ich's!\r\n\r\nFred: Wunderkerzen heissen wunderkerzen...\r\n\r\nFred: ... weil ich mich an jedem Silvesterabend wundere...\r\n\r\nFred: ...warum sie Wunderkerzen heissen...!",
    "user": "leseratte12"
}