{
    "text": "Fred: *dumdidum*\r\nWurm: ?\r\n[[Fred macht mit einem Rechen Streifen auf den Boden]]\r\n\r\n[[Fred macht noch mehr Streifen]]\r\n\r\nFred: Ich will ja nicht angeben, aber...\r\n\r\nFred: Ich bin schon ein großer Rechenkünstler!",
    "user": null
}