{
    "text": "Fred: Käfer, Käfer! Komm schnell!!\r\n\r\nFred: Ihr Leben hängt am seidenen Faden!!!\r\n\r\n[[Fred und Käfer schauen Spinna an, die am Faden hängt]]\r\nKäfer: Seufz\r\nSpinne: ?\r\n{{Außerdem spinnt sie total!}}",
    "user": "Gamlor"
}