{
    "user": "Woodpecker68",
    "text": "Professor-Fred [[liest in einem Buch]]: Manche Fledermäuse reden in unhörbarem Ultraschall...\r\n\r\nProfessor-Fred: Andere reden in ganz besonderer Art...\r\n\r\nProfessor-Fred [[schaut nach oben]]: ...die nur besonders schlaue und tolle Wesen verstehen können!\r\n\r\nProfessor-Fred [[winkt dem Leser zu]]\r\n\r\n{{Fred, der Menschenflüsterer.}}"
}
