{
    "text": "Käfer: Es heisst: Mit dem Alter kommt die Weisheit.\r\n[[Fred grinst.]]\r\n\r\n[[Fred schaut nachdenklich.]]\r\n\r\n[[Fred freut sich.]]\r\nFred: Ich werden ewig jung blieben!\r\nKäfer: Hihi!\r\n\r\n{{Der Logik fehlt es eindeutig an Weisheit - was die Theorie wiederum unterstützt.}}",
    "user": null
}