{
    "user": "Woodpecker68",
    "text": "Fred [[steht vor einem hängenden Fred-Kalender]]: Kalender hängen herum...\r\n\r\nFred [[steht vor einem hängenden Fred-Kalender]]:  ...sehen hübsch aus...\r\n\r\nFred [[hält den Fred-Kalender in den Händen]]:  ...und geben Datumsinformationen...!\r\n\r\nFred [[hängt kopfüber von der Höhlendecke]]: Dieser Monat beinhaltet diverse Dienstage.\r\n\r\n{{Warum haben Monate und Tage Namen, Wochen aber nicht?}}"
}
