{
    "text": "Fred: [[singt]] Lonely, I'm so lonely... *schrammel*\r\nKäfer: Es ist schrecklich...\r\n\r\nKäfer: Immer, wenn er sich einsam und verlassen fühlt, fängt er an, primitive Liebeslieder zu singen. \r\nFred: [[singt weiter]] ... I have nobody ... *klampf*\r\n\r\nKäfer: Allerdings will dann erst recht niemand mehr etwas mit ihm zu tun haben ...\r\nFred: [[singt außerhalb des Bildes]] ... for my own ...\r\n\r\nKäfer: ... Ein Teufelskreis! *seufz*\r\nFred: ?",
    "user": "bastian"
}