{
    "text": "[[Fred im Laubwald]]\r\nIhr Perverslinge°!\r\n\r\nEigentlich mag ich den Herbst...\r\n\r\n...doch ich finde es total widerlich, das sich jedes Jahr ...\r\n\r\n[[Fred schimpfend]]\r\n...die Laubbäume vollkommen entblättern!\r\nIn aller Öffentlichkeit!!",
    "user": "ksa"
}