{
    "text": "Fred: Gestern musste ich mir die Uhr zurückstellen...\r\nUhr: ticktack\r\n\r\nFred:...Ende März hingegen wieder vorstellen\r\nUhr: ticktack\r\n\r\nFred: Das kann ich!!\r\n\r\n[[Fred am vorstellen]]",
    "user": "Lorena"
}