{
    "text": "Kästchen: Bestimmter Artikel: Melodie.\r\n[[Fred singt und Wurm flieht so schnell wie möglich]]\r\n\r\nKästchen: Unbestimmter Artikel: Melo'ne.\r\nWurm: !\r\n\r\n{{Wenn Fred zufälligerweise mal Töne trifft, grüßt er sie immer freundlich.}}",
    "user": "Gamlor"
}