{
    "text": "Fred: Mit dem Alter wird man reif, heißt es ...\r\n\r\nFred: Also habe ich jetzt noch mehr Grund, ...\r\n\r\nFred: ... mich - wie Reif - nachts auf das Gras zu legen.\r\nWurm: !\r\n\r\n{{alt-text: Und tagsüber schläft Fred ja ohnehin.}}",
    "user": "bastian"
}