{
    "text": "Fred: In wenigen Tagen ist Valentinstag...\r\n\r\nFred: ... und ich habe niemanden, dem ich dieses Pralinenherz schenken könnte. [[trägt das Präsent vor sich her und ist traurig]]\r\n\r\n[[Fred hat eine Eingebung und schaut auf]]\r\n\r\nFred: Klasse!\r\n[[Fred futtert die Pralinen selbst und freut sich]]",
    "user": "Björn"
}