{
    "user": "Woodpecker68",
    "text": "Fred [[liegt am Stein, hält einen Keks hoch]]: Von jedem Essen gebe ich Käfer stets...\r\n\r\nFred [[liegt am Stein, der Keks ist halb gegessen]]: ...das Beste!\r\n\r\nFred [[am Stein liegend, einen leeren Teller mit ein paar Kekskrümmeln vor sich]]\r\nKäfer [[schaut auf den Teller]]: ?\r\n\r\nFred: Die angenehme Gesellschaft!\r\n\r\n{{Meisterschaf und Gesellschaf.}}"
}
