{
    "text": "Fred [[sitzt auf einem Fußball]]: Wenn Torschüsse unhaltbar sind...\r\nWurm: ?\r\n\r\nFred [[streckt angeeckelt die Zunge raus]]: ...ist dann das Mindeshaltbarkeitsdatum überschritten...?\r\n\r\n{{ }}",
    "user": "Woodpecker68"
}