{
    "text": "Fred: Ich habe das Gefühl, das heute alles Aussichtslos ist...\r\n\r\nFred: Ahh...besser!\r\n[[Fred ist auf den Philosophen-Stein gekraxelt und hält auschau]]\r\n\r\n{{Vermutlich war Fred an der Aussichtslosbude.}}",
    "user": "Gamlor"
}