{
    "user": "Woodpecker68",
    "text": "Fred [[hält einen Ball]]: Es gibt einen Grund, warum runde Dinge...\r\n\r\nFred [[liegt in einer Hängematte zwischen zwei Bäumen, hält den Ball fest]]: ...Netze mögen!\r\n\r\n{{Deswegen besteht eine Meisterschaft auch aus vielen Runden.}}"
}
