{
    "text": "Fred: Bin ich zu dick? \r\n\r\nFred: Vielleicht sollte ich mich tatsächlich ein wenig in Form bringen...\r\nKäfer: !\r\n\r\nFred: ...und ich habe auch schon eine geeignete Form ausgesucht...! [[hält einen Reifen hoch]]\r\nKäfer: Seufz",
    "user": "Sanne"
}