{
    "text": "Fred: Schenkt man nun Socken oder Krawatten zu Weihnachten? [[linker Flügel Krawatte, rechter Flügel Socke]]\r\n\r\nFred mit Strumpf als Krawatte (gepunktet)\r\n\r\n{{Krawocke?}}",
    "user": "ksa"
}