{
    "text": "Fred [[zeigt nach rechts]]: Eigentlich wollte ich da hinten schlafen...\r\n\r\nFred: ...aber dann fiel mir ein: ...\r\n\r\nFred [[liegt auf dem Weg]]: Der Weg ist das Ziel!\r\n\r\n{{On the road, again.}}",
    "user": "Woodpecker68"
}