{
    "text": "Fred: 23 + 5 = ?\r\nKäfer: ?\r\n\r\nFred: An dieser Stelle fehlt die Summe ...\r\nKäfer: ??\r\n\r\nFred: *kerz*\r\n\r\nFred: *SUMM SUMM SUMM* ...\r\nKäfer: *seufz*\r\n\r\n{{alt-test: Honiggläser = Taschenrechner?}}",
    "user": "winnie"
}