{
    "text": "Fred: Wenn ich einen Wunsch frei hätte...\r\n\r\nFred: ...wäre ich gerne ein ICE!\r\n\r\nFred: Dann wäre ich nämlich jederzeit...\r\nKäfer: ?\r\n\r\nFred: ...großzügig!\r\nKäfer: Seufz\r\n\r\n{{Zu spät kommt er auf jeden Fall bereits jetzt!}}",
    "user": "Woodpecker68"
}