{
  "user": "Woodpecker68",
  "text": "Fred [[spricht traurig zu Käfer]]: Ich habe beschlossen, nicht mehr für dich da zu sein...\r\nKäfer: ?\r\n\r\nFred [[hält Käfer im Arm]]: ...sondern hier! <3\r\nKäfer: <3\r\n\r\n{{Dasein. Dasaus.}}"
}