{
    "text": "Fred: älter zu werden, fetzt! /Käfer: ? [[Fred liegt am Filosfie-Stein]]\r\nFred: mit jedem neuen Geburtstag befiudnet sich eine zusätzliche Kerze auf dem Geburtstagskuchen... /Käfer\r\n[[Fred und Käfer schauen in die Sterne]]\r\nFred: mmmmh, lecker: Kerzen...! /Käfer: seufz",
    "user": "Woodpecker68"
}