{
    "text": "Fred: [[hängt an der Decke]] Ich hab Kopfschmerzen.\r\n\r\nFred: Aber ich habe eine Idee...\r\n\r\n*Flap flap* [[Fred fliegt]]\r\n\r\nFred: [[Steht auf dem Boden]] Jetzt habe ich FUSSschmerzen...",
    "user": "Sanne"
}