{
    "user": "Woodpecker68",
    "text": "Fred: Wenn ich alle meine Kräfte sammle...\r\n\r\nFred [[streckt angestrengt beide Arme in die Höhe]]: ...all meine Energien bündele...\r\n\r\nFred [[nur der Kopf im Panel zu sehen]]: ...werde ich etwas übertolles, phänomenales!\r\n\r\nFred [[grinst]]\r\n\r\nFred [[steht grinsend auf der Wiese]]: Ich.\r\n\r\n{{Meine Stärke sieht aus wie Kartoffelbrei.}}"
}
