{
    "text": "Fred: Mit dem Alter kommt die Weisheit...\r\n\r\nFred: Ich merke deutlich, dass ich weiser werde...\r\n\r\nFred: Denn seit meinem Geburtstag...\r\n\r\nFred: [[auf Waage stehend]] ... habe ich einiges an Gehirnmasse zugelegt ...",
    "user": null
}