{
    "text": "Fred: Es hat seit Tagen nicht geregnet...\r\n\r\nFred: ?\r\n[[Ein Tropfen fällt]]\r\n\r\nFred: Juchhu!!\r\nTropfen: *platsch*\r\n\r\nFred: Ich liebe Tropfsteinhöhlen!",
    "user": "sini"
}