{
  "user": "Woodpecker68",
  "text": "Professor-Fred: In diesem Leben gibt es nichts umsonst!\r\n\r\nProfessor-Fred: Alles kostet etwas!\r\n\r\nProfessor-Fred: Aber wie heitß es so schön:\r\n\r\nProfessor-Fred [[liegt am Stein]]: Ohne Fleiß kein Preis!\r\n\r\n{{Wild-, Basmati-, Kleb-, Milch-, P-, K-, ...}}"
}