{
    "text": "Fred: Ich glaube, dass Motten...\r\n\r\nFred: ...solange an Klamotten herumfressen...\r\n\r\nFred: ...bis sie das \"Kla\" herausgeknabbert haben!\r\n\r\nFred: So vermehren sie sich...!\r\nKäfer: *seufz*",
    "user": "sini"
}