{
    "text": "Fred: Ich habe ein Fremdwörterlexikon geschenkt bekommen...\r\n\r\nFred: Leider weiß ich überhaupt nicht, ...\r\n\r\nFred: ... was ein Lexikon ist ...\r\n\r\nFred: ... oder wie man das herausfinden könnte ...",
    "user": null
}