{
    "text": "Fred [[freut sich]]: Hier herrscht grenzenlose kreative Freiheit...!\r\n\r\nFred: Ich kann alles machen, was ich will!\r\n\r\nKäfer: Streichst Du etwa den Hintergrund weiß an...?\r\n\r\nFred [[mit Pinsel und Farbe]]: Jup.\r\n\r\n{{Hoffentlich übermalt er nicht auch den M}}",
    "user": "Woodpecker68"
}