{
    "text": "Fred: Die Kälte teilt die Wesen der Erde in zwei verschieden Typen...\r\n\r\nFred:...die einander dennoch gleichen:\r\n\r\n[[Fred mit Koffer]]\r\nFred: Da gibt es jene die verreisen...\r\n\r\n[[Fred am frieren]]\r\nFred:...und jene, die vereisen...! bibber",
    "user": "Lorena"
}