{
    "user": "Woodpecker68",
    "text": "Fred [[sitzt auf dem Filosofiestein und schaut durch ein Fernrohr]]: Die zugspitze ist ständig von Schwaden und Wolken umgeben!\r\n\r\nFred [[grinst]]: Also ist sie eine Dampflokomitove!!\r\n\r\n{{Zugrunde statt Zugspitze!}}"
}
