{
    "text": "Fred: Heute fühle ich mich unglaublich Schlau!\r\n\r\nFred: Ich könnte alle Fragen der Welt beantworten...!\r\nKäfer: ?\r\n\r\nKäfer: Was für eine Frage zum Beispiel...?\r\n\r\nFred: Ähhh...\r\nKäfer: Seufz",
    "user": "Sanne"
}