{
    "text": "Fred: Schau, ich habe diesen Stein gefunden...\r\n\r\nFred: Er ist genauso geformt wie...\r\nKäfer: ...ein Herz?\r\n\r\nFred: ...eine von diesen herzförmigen Nougatpralinen...\r\nKäfer: ?\r\n\r\nFred: Happ!\r\nKäfer: Seufz",
    "user": "Sanne"
}