{
    "text": "[[Käfer im Schneetreiben]]\r\nKäfer: Bei Kälte schrumpft alles zusammen.\r\n\r\nKäfer: Da kann ich nur hoffen...\r\n\r\nKäfer: ...dass das nicht für den heutigen Comic gilt...!\r\n\r\n[[Das letzte Panel zeigt die bekannte Drudelzeichnung eines Schimmels im Schnee.]]\r\n\r\n{{Sgr dr Msvrtxt schrmpft zsmmn!}}",
    "user": "his"
}