{
    "text": "Fred: Ich möchte die Welt umarmen!\r\n\r\nFred: Ich weiß, dass ich es kann, dass in mir die Fähigkeit schlummert, dem Stillstand entgegenzuwirken, Zeichen zu setzen, Dinge zu verändern...!\r\n\r\n[[Fred pflückt Blume - rupf!]]\r\nFred: Das war aber einfach! [[Denkblase]",
    "user": "Woodpecker68"
}