{
    "user": "Woodpecker68",
    "text": "Fred [[Kopf groß im Panel]]: Es ist bestimmt super, ein Hausbott zu haben...\r\n\r\nFred [[steht im Wasser]]: <3\r\nSchnecke [[schwimmt neben ihm auf dem Wasser]]: Ja, ist es!\r\n\r\n{{Bootshausboot}}"
}
