{
    "text": "Fred: Ich hab den zweiten Platz in einem Preisausschreiben gewonnen!\r\nFred: ... einen nagelneuen, superschnellen, überteuren, hochbegehrten, fetzigen orignal-WM2006-Fussball!\r\nKäfer: Was hat eigentlich der erste Platz gewonnen? / Fred: Auch einen Fußball...\r\nFred: ... nur eben einen fertigen... / Käfer: ?",
    "user": "Sanne"
}