{
    "text": "Fred: Wenn du dich so durch die unterirdischen Gänge gräbst...\r\n\r\nFred: ...findest du da auch irgendwelche Schätze?\r\n\r\nMaulwurf: Rülps \r\nFred: !\r\n\r\nFred: *sniff sniff* Würmer! [[die Luft riecht nach Würmern]]",
    "user": "Sanne"
}