{
    "text": "Fred: 2008, du warst super!\r\n\r\nFred: Da muss sich 2009 aber wirklich anstrengen um das zu überbieten...\r\n\r\n[[guckt]]\r\n\r\nFred: mit Hilfe dieser ausgefeilten Motivationstechnik kann 2009 eigentlich nur super werden...",
    "user": "Sanne"
}