{
    "text": "Fred: Ich sollte nicht alles, was ich irgendwo lese...\r\nKäfer: ?\r\n\r\nFred: ...lauthals verkünden...!\r\nKäfer: ??\r\n\r\nKäfer: ???\r\n\r\nFred: Das steht zumindest auf diesem Zettel...\r\nKäfer: Seufz",
    "user": "Sanne"
}