{
    "text": "Käfer: Kann ich nicht!\r\nFred: !\r\n\r\nFred: Manchmanl habe ich das Gefühl...\r\n\r\nFred: ...Käfer kann in die Zukunft sehen...!\r\n\r\n{{Ich wusste breits gestern, dass dieser Comic heute erscheinen würde.}}",
    "user": "Gamlor"
}