{
    "text": "Fred: Das Blöde an Träumen ist, das man nicht genau weiß, wann man wach ist...\r\n\r\n[[Fred träumt, dass er sagt: Das Blöde an Träumen ist, das man nicht genau weiß, wann man wach ist...]]\r\n\r\n[[Fred träumt, dass er träumt, dass er sagt: Das Blöde an Träumen ist, das man nicht genau weiß, wann man wach ist...]]\r\n\r\nKäfer: *seufz*\r\n[[Käfer träumt, dass Fred träumt, dass Fred träumt, dass er sagt: Das Blöde an Träumen ist, das man nicht genau weiß, wann man wach ist...]]",
    "user": "sini"
}