{
    "text": "Panel 1: Käfer: &quot;Oh ,Fred singt wieder schief...&quot;\r\nPanel 2: Käfer schaut zu Fred, Fred steht schief vorübergebeugt und singt...\r\n\r\n{{Wieder -- ein eigentlich wunderfetziges Lied.}}",
    "user": "Woodpecker68"
}