{
  "user": "Woodpecker68",
  "text": "Fred: Sobald irgendwer diesen Comic anschaut...\r\n\r\nFred [[verzweifelt]]: ... muss ich performen!\r\n\r\nFred [[mit weit ausgebreiteten Armen]]: Was für Arbeotszeiten!\r\n\r\nFred [[steht mit hängendem Kopf erschöpft auf der Wiese]]: Beliebt sein ist hart...!\r\n\r\n{{PerForMen. PerForWomen.}}"
}