{
    "text": "Fred: Wenn man friert, zittert man...\r\n\r\nFred: Wenn man ängstlich ist, zittert man...\r\n\r\nFred: Wenn sich Kälte und Angst also gleichen...\r\n\r\nFred: ...dann ist dies fortan mein Anti-Angst-Schal...!",
    "user": "sini"
}