{
    "user": "Woodpecker68",
    "text": "Fred [[auf der Wiese, beugt sich zu Käfer]]: Der heutige Comic ist übrigens verschlüsselt!\r\nKäfer: ?\r\n\r\nFred [[winkt dem Leser zu]]: Nur besonders superfetzige Leute können ihn sehen...!\r\nKäfer [[schaut zum Leser]]: <3\r\n\r\n{{Djhq7787q_$235xbM}}"
}
