{
    "text": "Fred: Ärzte empfehlen...\r\n\r\nFred: ...vor allem bei Hitze...\r\n\r\nFred: ...viel zu trinken!\r\n\r\n[[Werbeplakat: Fred hält eine Flasche \"Viel\", Werbetext: VIEL [fetzt]\r\ndas neue Erfrischungsgetränk\r\nvon Ärzten empfohlen.",
    "user": "Sanne"
}