{
    "text": "Fred [[wütend]]: Was ist das für ein Sommer?!?\r\n\r\nFred: Das Wetterist katastrophal!\r\n\r\nFred [[sitzt in einem Planschbecken]]: Es gab noch nicht einmal...\r\n\r\nFred: ...genung Regen, um den Pool zu füllen!!\r\n\r\n{{Und manchmal ist es sogar so warm, das Schokoeis ein bisschen schmilzt.}}",
    "user": "Woodpecker68"
}