{
  "user": "Woodpecker68",
  "text": "Fred [[schaut nach oben]]: Das Gegenteil von neu ist voll.\r\n\r\nFred [[auf der Wiese, der Vollmond scheint]]: Zumindest beim Mond.\r\n\r\nFred: Warum nenne wir es nicht Leermond...\r\n\r\nFred [[auf der Wiese zeigt zum Vollmond]]: ...und Altmond?\r\n\r\n{{In der Mitte des Gegenteils sitzt eine Ente.}}"
}