{
    "text": "[[Fred hängt an der Decke]]\r\n\r\nFred: Nanu!?!\r\n\r\nFred: soeben wurde mir bewusst, dass ich zu Weihnachten diesmal gar keine Socken geschenkt \r\nbekam...\r\n\r\nKäfer: ich schon!",
    "user": "Drachin"
}