{
    "text": "[[Fred hängt an der Decke, Käfer steht unten am Boden]]\r\nKäfer: Aufstehen!\r\n\r\nKäfer: ... Du hast schon wieder verschlafen!\r\n\r\n[[Fred hängt immer noch kopfunter an der Decke]]\r\nFred: Das kann nicht sein! Ich hatte doch extra... \r\n\r\nFred: ... den Wecker neben das Bett gestellt...!\r\n[[Käfer steht neben den Überresten des Weckers am Boden]]",
    "user": "Björn"
}