{
    "text": "Fred [[ruft laut]]: Zugabe!\r\n\r\nFred [[ruft lauter]]: Zugabe!\r\n\r\nFred [[ruft noch laut]]: Zugabe!\r\n\r\nFred [[in einem viertel abgesetzten Panel]]: Danke.\r\n\r\n{{Flug! Ha! Fen!}}",
    "user": "Woodpecker68"
}