{
    "text": "Fred: Oh schau! (zeig) Das allerbeste Schneeglöckchen!\r\n\r\nFred: Es sich mühsam durch den gefrorenen Boden gekämpft, tapfer dem eisigen Frost, der klirrenden Kälte getrotzt, nur um uns mit seiner schlichter Pracht zuerfreuen...\r\n\r\n(ratsch) [[Fred rupft das Schneeglöckchen ab]]\r\nFred: Es ist wunderschön!!\r\n\r\nKäfer: seufz",
    "user": "feffi"
}