{
    "user": "Woodpecker68",
    "text": "Fred [[schaut aus den nebligen Panel]]: Euer Orientierungsvermögen ist wirklich unglaublich!!\r\n\r\nFred [[im Nebel]]: Selbst im dichtesten Nebel findet ihr...\r\n\r\nFred [[im Nebel]]: ...den Weg zu mir!\r\n\r\nFred [[im Nebel, isst einen Keks]]: Mampf\r\n\r\n{{Nebel ist ürbrigens nur eine Comiczeichnerausrede, um weniger Details zeichnen zu müssen.}}"
}
