{
    "text": "Fred[[mit Staubwedel]] Ich wollte hier eigentlich sauber machen...\r\n\r\n...aber die Staubkörnchen meinten, sie hätten sich gar nicht schmutzig gemacht!\r\n\r\n{{Einige der Staubflusen wollten sich sogar die Hände waschen, stellten aber fest, dass sie keine hatten.}}",
    "user": "ksa"
}