{
    "text": "Fred: Immerhin ist es hier im Regenwurminneren schön warm...\r\n\r\nFred: Tatsächlich herrscht hier ein angenehmes frühlingshaftes Klima.\r\n\r\nFred: Genau richtig, um den Pflanzen beim Wachsen zuzuschauen...\r\n\r\n[[Fred sieht Pflanze beim aus der Erde kommen zu]]",
    "user": "sini"
}