{
    "text": "Fred [[mit Fliege]]: Anscheinend ist es gar nicht so üblich...\r\n\r\nFred: ...nach Perfektion zu suchen...!\r\n\r\nFred [[liegt am Filosofiestein]]: Sonst hätte ich viel mehr Besuch...!\r\nWurm: !\r\n\r\n{{Ich habe einst festgestellt, dass die nicht abgeschlossene Vergangenheit Perfekt ist.}}",
    "user": "Woodpecker68"
}