{
    "text": "[[Frühling-Freds Lieblingsjahreszeit.]]\r\nFred: Wuhuu!\r\n\r\n[[Sommer-Freds Lieblingsjahreszeit.]]\r\nFred: Wuhuu! Hihi!\r\n\r\n[[Herbst-Freds Lieblingsjahreszeit]]\r\nFred: Wuhuu!\r\nKäfer:!\r\n\r\n[[Winter- Freds Lieblingsjahreszeit.]]\r\nFred: Wuhuu!\r\nKäfer: Ich hab' ein déjà-vu.",
    "user": "Lorena"
}