{
    "user": "Woodpecker68",
    "text": "Fred [[hält einen Keks]]: Am liebsten verkleide ich mich als Keks...\r\nKäfer [[schaut hoch zu Fred]]: ?\r\n\r\nFred [[hält sich den Bauch]]: ...im dicken Fledermausmantel!\r\nKäfer: <3\r\n\r\n{{Die besten Verkleidungen haben ja Wände.}}"
}
