{
    "text": "Fred: Nach einer Weile gewöhnt man sich an alles!\r\n\r\nFred: Daran werde ich mich nie gewöhnen...!\r\nKäfer: Seufz\r\n\r\n{{Ich bin übrigens verwöhnungsbedürftig.}}",
    "user": "Woodpecker68"
}