{
    "text": "Professor-Fred: Die dinosaurier sind ausgestorben...\r\n\r\nProfessor-Fred [{hält einen Keks]]: ...weil sie nicht genug Kekse aßen...!\r\n\r\nKäfer: Aber damals gab es gar keine Kekse!\r\nProfessor-Fred [[kauend]]\r\n\r\nProfessor-Fred: Q.E.D.\r\nKäfer: seufz\r\n\r\n{{Wer kennt ihn nicht, den Ausges-Torben?}}",
    "user": "Woodpecker68"
}