{
    "user": "Woodpecker68",
    "text": "Fred: Hühnereier stammen...\r\n\r\nFred [[sitzt auf der Wiese]]: ...von Hühner.\r\n\r\nFred [[grinst, hält ein bemaltes Ei]]: Und Ostereier...\r\n\r\nFred [[freudig]]: von wunderschönen Ostern...! <3\r\n\r\n{{Frohe Ostern!}}"
}
