{
    "text": "Käfer: Kälte ist nur die Abwesenheit von Wärme.\r\nFred: *bibber*\r\n\r\nKäfer: Kälte hat noch nicht einmal ein eigenes Formelzeichen!\r\n\r\nKäfer: In der Physik existiert also gar keine Kälte!!\r\nFred: ?\r\n\r\nFred: Oh wie gerne wäre ich jetzt dort - in der Physik!\r\nKäfer: *seufz*",
    "user": "winnie"
}