{
    "text": "Fred[[grinst]]: Man sollte nicht so schnell kaputilieren...\r\n\r\nFred[[ratlos]]: Kapitellieren...?\r\n\r\nFred[[hilflos]]: Katapulieren...?\r\n\r\nFred[[geht weg]]: Ach, egal...\r\n\r\n{{alt-text: Langsam kapitulieren?}}",
    "user": "ksa"
}