{
    "text": "Käfer [[mit Fredgesicht]]: ?\r\nFred [[mit Käfergesicht]]: ?\r\n'Mask'\r\n\r\nKäfer: !\r\nFred [[mit den zwei Masken in der Hand]]: !\r\n'Manswer'\r\n\r\n{{Ich hoffe, ihr sehr das mit der heutigen Fremdpsrachlichkeit nich allzu eng. Lisch.}}",
    "user": "Woodpecker68"
}