{
    "user": "Woodpecker68",
    "text": "Fred [[hält eine Eistüte mit drei Kugeln Eis]]: Sobald das Eis in meinem Körper gelangt...\r\n\r\nFred [[leckt sich die Lippen, hält die Eistüte mit jetzt zwei Kugeln Eis]]: ...verwandelt es sich in eine leckere Flüssigkeit.\r\n\r\nFred [[hält die Eistüte, nur noch eine Kugel Eis drin]]: Womit bewiesen wäre:\r\n\r\nFred [[steht auf der Wiese]]: Man kann nicht zuviel Eis essen!\r\n\r\n{{BewEis}}"
}
