{
    "user": "Woodpecker68",
    "text": "Fred [[liegt am Filosofiestein, einen Teller voller Kekse vor sich]]\r\nKäfer: Vielleicht solltest du dir ein bisschen was für die zukunft aufheben!\r\n\r\nFred: Gute Idee!\r\n\r\nFred [[liegt kauend am Stein, den leeren Teller vor sich]]: So einen Teller kann man ja immer wieder verwenden...!\r\nKäfer: seufz\r\n\r\n{{Das Jetzt fetzt!}}"
}
