{
    "text": "[[Fred geht ein Licht auf]]\r\n\r\nFred: Ich hatt gerade eine supere Idee...\r\n\r\nFred: aber vielleicht sollte ich doch einmal darüber schlafen [[Fred kratzt sich am Kopf]]\r\n\r\nFred: zZZ [[Fred hänge an der Decke und schläft. Eine Kerze ist auf den Boden]]",
    "user": "Gamlor"
}