{
    "text": "Fred [[in seiner Höhle, in GEdanken versunken]]: Heute werde ich ein bischen tiefer nachdenken...\r\n\r\nFred [[hängt an der Höhlendecke]]: Geht doch!\r\n\r\n{{Es hilft allerdings auch, seine Gedanken eine Oktave nach unten zu transponieren.}}",
    "user": "Woodpecker68"
}