{
    "text": "Fred [[mit einer sehr langen Liste]]: Die to-Do-Lidte für heute...\r\n\r\nFred [[hat sich auf den Stapel Papier gelegt]]: ...ist sehr weich!\r\n\r\n{{Und bestimmt auch aus Esspapier.}}",
    "user": "Woodpecker68"
}