{
    "text": "Fred: Wenn das Gegenteil von \"warm\"...\r\n\r\nFred:...\"kalt\" ist...\r\n\r\nFred:...ist wohl \"arm\" das Gegenteil von \"alt\"...\r\n\r\nFred:...und \"W\" das Gegenteil von \"K\"... \"kratz\"\r\nWurm:?",
    "user": "Lorena"
}