{
    "text": "Fred[[mit Brille aufgesetzt]]: Bei Kälte ziehen sich die Dinge zusammen, verringern also ihr Volumen...\r\n\r\nFred[[zeigt auf die Formel auf der Tafel]]: Da die Dichte der Masse pro Volume entspricht...\r\n\r\nFred: ...kann man nur eines Schlussfolgern:\r\n\r\nFred: Im Winter werde ich Dichter!\r\n\r\n{{Würden sich Dinge bei Wärme zusammenziehen, wäre dieser Comic gereimt gewesen.}}",
    "user": "Gamlor"
}