{
    "user": "Woodpecker68",
    "text": "Fred [[sitzt auf einem Ast im Baum]]: Von erhöhter Position...\r\n\r\nFred [[sitzt auf dem Baumgipfel]]: ...hat man einen besseren Überblick\r\n\r\nFred [[balanciert auf einem Bein auf dem Baumgipfel]]: Zum Beispiel über Keksvorräte.\r\n\r\nFred [[reibt sich den Bauch]]: Deswegen sind die Augen auch über dem Bauch...!\r\n\r\n{{Ähnlich wie beim Überbiss die Zähne, ragen beim Überblick die Augen zu weit raus.}}"
}
