{
    "text": "Brief: Lieber Fred, bitte verzichte ausnahmsweise mal darauf, das zweite Blatt dieses schönen Briefes zu\r\n\r\nFred: Mampf [[isst den Brief]]\r\nSpinne: !?\r\n\r\n{{Der Briefumschlag ist auch auf mysteriöse Weise verschwunden...}}",
    "user": "Gamler"
}