{
    "text": "Fred: Ich verwehre mich gegen die fortwährende Amerikanisierung unserer Kultur!\r\n\r\nFred: Die Filme in unseren Kinos sind amerikanisch. Die Musik in den Hitparaden: Amerikanisch. Fast Food: Amerikanisch... Nachdem wir uns schon dieses albernen Halloween-Konsum-Festes bedienten, übernehmen wir jetzt auch noch den kitschigen Valentinstag!\r\n\r\nKäfer: ?\r\n\r\nKäfer: Lass mich raten: Du hast wieder keinen einzigen Valentinstagsgruss bekommen...?\r\nFred: *seufz*",
    "user": null
}