{
  "user": "Woodpecker68",
  "text": "Fred [[sitzt auf der Wiese vor einer brennende Kerze]]: Jetzt hab ich's geschafft:\r\n\r\nFred [[sitzt auf der Wiese und schaut in die Kerzenflamme]]: in allen 4 Panels erstrahlt eine Kerze.\r\n\r\nFred [[sitzt auf der Wiese vor einer brennende Kerze]]\r\n\r\nFred [[man erkennt, dass die Kerze ein Holzaufsteller ist]]: Zumindest so ungefähr.\r\n\r\n{{Adventilator.}}"
}