{
    "text": "Fred. Wenn man etwas isst... (Das habe ich jedenfalls gehört)\r\n\r\nFred: ... gehen die Eigenschaften des Verspeisten teilweise auf den Verspeisenden über ...\r\n\r\n[[Fred kratzt sich nachdenklich am Kopf.]]\r\nFred: *kratz*\r\n\r\nFred: Was für ein wunderschöner Apfel...!!!",
    "user": null
}