{
    "text": "Fred: In Anbetracht der Situation auf dem Arbeitsmarkt...\r\n\r\nFred: ... freut es mich besonders, wenn irgendwo ...\r\n\r\nFred: ... das Feuer eingestellt wird ... !\r\nKäfer: *seufz*\r\n\r\n {{alt-text: Huiuiui. Ein politisches Statement. Oder so etwas in der Art.}}",
    "user": "winnie"
}