{
    "text": "Fred: Es ist wirklich einfach:\r\nKäfer: ?\r\n\r\nFred: In dem Augenblick, wo ich mich darüber wundere, ...\r\nKäfer: ??\r\n\r\nFred: ...ob dies ein wundervoller Tag wird...\r\nKäfer: ???\r\n\r\nFred: ...ist es einer geworden...!\r\nKäfer: !",
    "user": "Sanne"
}