{
    "text": "Fred: Ich habe mir jetzt so eine Tasche besorgt, die man sich um den Bauch gurtet...\r\n\r\nFred: ...und da packe ich viel Essen hinein, das ich dann jederzeit futtern kann.\r\nKäfer: ?\r\n\r\nFred: Je mehr ich aber esse, desto dicker wird mein Bauch, desto grösser kann demnach die Bauchtasche sein...!\r\n\r\nFred: Je grösser die Tasche ist, desto mehr Nahrung passt hinein, was wiederum dazu führt, ...\r\nKäfer: *seufz*",
    "user": null
}