{
    "text": "Fred [[mit Regenschirm]]: Der Schirm schützt mich vor der Sonne.\r\n\r\nKäfer: Aber es ist Nacht, und die Sonne scheint gar nicht!\r\n\r\nFred [[freudig]]: Siehst Du? Es funktioniert!\r\nKäfer: seufz\r\n\r\n{{Uiuiui, ein Schirmherr.}}",
    "user": "Woodpecker68"
}