{
    "user": "Woodpecker68",
    "text": "Fred: Ich versuche, in jedem Tag etwas positives zu finden.\r\n\r\nFred [[schaut runter zu Käfer]]\r\nKäfer: Was für ein Tag denn...?\r\n\r\nKäfer: Du bist doch gerade erst aufgestanden!\r\n\r\nFred: Gefunden!\r\nKäfer: <3\r\n\r\n{{Für Raumfahrer ist jeden Tag Alltag.}}"
}
