{
    "text": "Fred: Ich werde ein Buch schreiben!\r\nKäfer: ?\r\n\r\nFred: \"Wie Sie aufhören, Dinge zu verlieren\"\r\nKäfer: !\r\n\r\nFred: Ich muss nur noch meine Notizen wiederfinden...\r\nKäfer: Seufz",
    "user": "Sanne"
}