{
    "user": "Woodpecker68",
    "text": "Fred [[vor einem Teller mit einem Keks]]: Diesen Keks hebe ich mir auf...\r\n\r\nFred: ...für einen Moment, in dem ich mich belohnen möchte.\r\n\r\nFred: Ich bin ein bisschen stolz auf meine Zurückhaltung.\r\n\r\nFred [[kauend vor dem leeren Teller]]: Das habe ich gut gemacht!\r\n\r\n{{Das hat er gut gemampft!}}"
}
