{
    "text": "Schnecke [[im Regen]]: Mein neuer Regenschirm ist zwar recht langsam...\r\n\r\nSchnecke [[unter einem Fliegenpilz]]: ...aber ich mag ihn!\r\n\r\n{{Hoffentlich hat Schnecke zuhause einen passenden Schirmständer.}}",
    "user": "Woodpecker68"
}