{
    "text": "Fred: Wenn ich eine To-Do -Liste erstelle\r\n\r\nFred: bin ich dann listig?\r\n\r\n{{alt-text: So sollten To-Do -Listen immer aussehen: Hinter den einzelnen Punkten folgen undefinierbare Krakel.}}",
    "user": "Daniel Bohrer"
}