{
    "text": "Fred: Eigentlich solle mein nächstes Buch ja heissen:\r\n\r\nFred: \"Die ganzen guten Buchtitel waren bereits vergeben\r\n\r\nFred: (und die guten Inhalte auch)\"\r\nKäfer: ?\r\n\r\nFred: ...doch das gab es wohl bereits...!",
    "user": "Sanne"
}