{
    "text": "Fred [[hält eine Uhr]]:  Uhren sind Zeitmesser.\r\nUhr: Tik Tak\r\n\r\nFred: Mit ihnen kann man also die Zeit...\r\nUhr: Tik Tak\r\n\r\nFred: ...in Scheiben schneiden...!!\r\n\r\nFred [[nach rechts ab]]: und so entstehen Ziffernblätter!\r\nUhr: Tik Tak\r\n\r\n{{So vermehren sich Uhren. [Wobei das bei Uhren vermutlich 'vermuhren' heißt. ]}}",
    "user": "Woodpecker68"
}