{
    "text": "Fred [[mit Schal und einer dampfenden Tasse]]: Vielleicht sollte ich mir vom Weihnachtsmann etwas kleidung wünschen.\r\n\r\nFred [[trinkt]]: Nichts kompliziertes.\r\n\r\nFred: Ein Sack würde schon reichen.\r\n\r\nFred [[hat die Tasse fallen gelassen und geht nach rechts ab]]: Aber ich glaube nicht, dass er so etwas dabei hat...!\r\n\r\n{{KleiDung stinkt.}}",
    "user": "Woodpecker68"
}