{
    "user": "Woodpecker68",
    "text": "Professor-Fred [sitzt mit einem Buch auf dem Filosofiestein und schaut zum Mond]]: Gedichte sind ja meistens Vers Ehen...!\r\nWurm [[schläft auf dem kleinen Stein]]: z\r\n\r\n{{DrEhen - Lebensgemeinschaften zwischen Ärzten.}}"
}
