{
    "user": "Woodpecker68",
    "text": "Fred [[nachdenklich]]: Sollte unsere Firma an die Börsre gehen...\r\n\r\nFred [[mit Streifenkrawatte, läuft im Kreis]]: ...verlagern wir den Firmensitz in einen Hafen...!\r\nKäfer: ?\r\n\r\nFred [[freudig]]: Ist besser zum Anlegen!\r\nKäfer [[nicht sichtbar, von unten]]: seufz\r\n\r\n{{Taschendiebe kennen sich am besten damit aus, an die Börse zu gehen.}}"
}
