{
    "text": "Fred [[auf dem filosofiestein]]: Es ist eigentlich gar nicht so schwer, sich in jemanden hineinzuversetzen.\r\n\r\nFred [[mit offenem Mund, Wurm sitzt auf der Zunge]]\r\nWurm\r\n\r\n{{Ich habe festgestellt, dass sich Kekse am besten in mich hineinversetzen können.}}",
    "user": "Woodpecker68"
}