{
    "text": "Professor-Fred: Lieber Osterhase, da sie über keinerlei Kanten verfügen, empfehle ich dir...\r\n\r\nProfessor-Fred: ...die Ostereiner fortan zu verstrunden...!\r\n\r\n{{Ich stellte soeben erst fest, dass eine Ecke aus drei Kanten besteht.}}",
    "user": "Woodpecker68"
}