{
    "user": "Woodpecker68",
    "text": "Fred: Warum bewerben sich Arbeitslose nicht einfach bei irrationalen Zahlen?\r\n\r\nFred [[lachend auf dem Filosofiestein]]: Die haben unendlich viele Stellen...!\r\nKäfer [[schläft auf dem kleinen Stein]]: Z\r\n\r\n{{Die sind immer so unvernünftig!}}"
}
