{
    "user": "Woodpecker68",
    "text": "Fred [[mit Zaubererhut und einem Besen]]: Komm, wir fliegen zum Blocksberg...\r\nKäfer\r\n\r\nFred [[freudig]]: und tanzen in den Mai!\r\n\r\nKäfer: Wozu brauchst du denn den Besen?\r\n\r\nFred [[fliegt auf dem Besen]]: Ich habe Kehrwoche!\r\nKäfer\r\n\r\n{{Uhh, ein Schwabenwitz. Wird ja auch Zeit.}}"
}
