{
    "user": "Woodpecker68",
    "text": "Fred [[sitzt auf dem Filosofiestein]]: Wenn ich etwas stehlen wollen würde, würde ich mir professionelle Unterstützung besorgen...\r\nWurm [[schläft auf dem kleinen Stein]]\r\n\r\nFred: Raubtiere zum Beispiel!\r\n\r\n{{Diebstahl entsteht aus Diebeisen.}}"
}
