{
    "text": "Fred: Ich werde jetzt eine Rede halten. [[hat einen beschriebenen Zettel in der Hand]]\r\n\r\nFred: schweigt\r\n\r\nFred: schweigt\r\n\r\nFred: schweigt\r\n\r\n{{alt-text: Ich halte meinen Mund. Aber nicht lang. Ist zu groß, wiegt zu viel. Vor allem wegen der Goldzähne.}}",
    "user": "Sanne"
}