{
    "text": "Fred [[mit Schal]]: Schal.\r\n\r\nFred [[mit Schal und Pudelmütze]]: Mütze.\r\n\r\nFred [[hat eine Idee, Kerze]] \r\n\r\nFred [[mit einer Mütze,die in Verlängerung zum Schal wird]]: Schütze.\r\n\r\n{{Mal?}}",
    "user": "Woodpecker68"
}