{
    "text": "Fred [[gehend]]: Wenn man etwas erreichen will...\r\n\r\nFred: ...braucht man jemanden, der einen antreibt...!\r\n\r\nFred [[hebt auffordern die Hände]]: Na los!!\r\n\r\nFred [[dreht sich fragend um]]: ?\r\n\r\n{{...}}",
    "user": "Woodpecker68"
}