{
    "text": "Fred: Hihi... [[liegt ausgebreitet am Boden und kichert]]\r\n\r\nFred: Er kommt! Schnell verstecken! [[Fred versteckt sich hinter einem Baum, man sieht im Hintergrund des Bildes eine Fledermaus-Kuhle im Schnee]]\r\n\r\nBatman: Dort! Im Schnee: Das Bat-Signal! Jemand braucht meine Hilfe! [[Freds Fledermaus-Kuhle entdeckt hat]]\r\n\r\nBatman: NUR WER?? [[fragend, im Hintergrund lugt Fred hinter dem Baum hervor]]\r\nFred: Hihi [[kichernd]]",
    "user": "Björn"
}