{
    "text": "Fred:[[mit Schwimmring]] Weil es so heiß ist...\r\n\r\nFred:[[mit Schwimmring]]...werde ich mir etwas Abkühlung gönnen...\r\n\r\nFred:[[mit Schwimmring in der Höhle und wartet das ein Tropfen herabfällt]]\r\n\r\nFred:[[mit Schwimmring in der Höhle und wartet das ein Tropfen herabfällt]]Gleich ist es soweit!",
    "user": "ksa"
}