{
    "text": "Professor-Fred: Die Zukunft steht nicht fest.\r\n\r\nProfessor-Fred: [[liegt am Filosofiestein]]: Aber vielleich tliegt sie bequem...!\r\nWurm [[liegt schlafenbd auf dem kleinen Stein]]\r\n\r\n{{Oder sitzt zumindest stabil.}}",
    "user": "Woodpecker68"
}