{
    "text": "Fred: Die wichtigste Grundregel beim Abnehmen lautet:\r\n\r\nFred: Mehr Bewegung!\r\nWurm: ?\r\n\r\nFred: Und das ist leichter als man glaubt. Man muss nur berücksichtigen,...\r\n\r\nFred: ... Dass man sich auch beim Essen bewegt!!",
    "user": "sini"
}