{
    "text": "[[Fred erstrahlt]]\r\nFred: Heute tue ich nur Gutes...!\r\n\r\nDen kleinen Würmern...\r\n[[Fred winkt 2 Würmern]]\r\n\r\nDe Lieben Käfer...\r\n[[Er hält Käfer im Arm und drückt ihn]]\r\n\r\nund vor allem: mir selbst...!\r\n[[Fred liegt im Liegestuhl wie ein Urlauber mit Buch, Getränk und Apfel in der Hand]]\r\nWurm: \"!\"\r\nKäfer: \"!\"",
    "user": "ksa"
}