{
    "text": "Fred: Ich möchte kurz des Übels dieser Welt gedenken...\r\n\r\nFred: Wenn ihr also im nächsten Bild alles Richtig machen werdet....\r\n\r\n[[Fred schaut betrübt ins Leere]]\r\n\r\nFred: ...habe ich soeben eine Schweigeminute eingelegt...!\r\n\r\n{{Übrigens ist, um sich der Stimmung anzupassen, der Comichintergrund ausnahmweise mal schwarz.}}",
    "user": "Gamlor"
}