{
    "text": "Fred: Wir müssen los kleiner Käfer! Die Welt braucht uns!\r\n\r\nFred: Unheil bedroht unser aller Dasein! Wir müssen es vernichten, vom Antlitz der Erde tilgen, für alle Zeiten auslöschen! Nieder mit dem Bösen!\r\n\r\nFred: *wusch*\r\nKäfer: ?\r\n\r\nKäfer: Böse Äpfel!?!",
    "user": "robby"
}