{
    "text": "Fred: Mit einer Krawatte wirke ich seriös...\r\n[[Fred hat Krawatte um Hals]]\r\n\r\nFred: Mit einem Schwert wirke ich männlich... *fuchtel*\r\n[[Fred fuchtelt mit Schwert]]\r\n\r\nFred: Wenn ich also diese beiden Dinge kombinieren, wirke ich...\r\n\r\nFred: Lächerlich!!\r\nKäfer: Lächerlich!!\r\n[[Fred hat Schwert um Hals]]\r\n\r\nFred: Lächerlich!!\r\nKäfer: Lächerlich!!\r\n[[Fred fuchtelt mit Krawatte]]",
    "user": "sini"
}