{
    "user": "Woodpecker68",
    "text": "Fred: Zu Halloween verkleide ich mich nicht als Dämon...\r\n\r\nFred: ...und auch nicht als Monster...\r\n\r\nFred: ...sondern als Dämonster!!! <3\r\n\r\n{{Dämontage. Demontage.}}"
}
