{
  "user": "Woodpecker68",
  "text": "Fred [[fliegt zwischen den Wolken]]: Hey Schöpfer, kannst Du mal kurz reinzoomen?\r\n\r\nFred [[fliegend]]: Ich m uss nämlich mal...\r\n\r\nFred [[nur der Oberkörper zu sehen]]\r\n\r\nFred [[wieder ganz zu sehen]]: Schon viel besser. Danke!\r\n\r\n{{Flugzeug. Fahrzeug. Schwimmzeug.}}"
}