{
    "text": "Fred: Ich versteh' das nicht...\r\nKäfer: ?\r\n\r\nFred: ...laut Karte ist doch alles in ordnung...\r\n\r\nFred: ...warum habe ich mich dann letzte Nacht schon wieder verflogen?!?\r\n\r\nKäfer: Du hälst die Karte falsch 'rum!!\r\nFred: Wa ja klar.\r\n*knüll*",
    "user": "robby"
}