{
    "text": "Fred: Ich liebe Erdbeeren [[Gedankenblase]]\r\nFred: Mampf\r\nFred: Pfui [[Erdbeere ausspuckend]]\r\nFred: Jetzt weiß ich, warum Erdbeeren Erdbeeren heissen... knirsch",
    "user": "woodpecker68"
}