{
    "text": "Fred: [[schweigt]]\r\nKäfer: [[schweigt]]\r\n\r\nFred: [[schweigt]]\r\nKäfer: ?\r\n\r\nFred: [[schweigt]]\r\nKäfer: ?\r\n\r\nFred: Warten fetzt!\r\nKäfer: *seufz*",
    "user": "bastian"
}