{
    "text": "[[Fred schläft, an einen Stein gelehnt. Ein Wurm, aus einem Loch in der Erde guckend, hat eine Idee]]\r\nFred: ZZZ\r\nWurm: !\r\n\r\n[[Freds Zetts sind nun Würmer. Auf der Erde liegt ein Farbtopf und ein benutzter Pinsel. Der Wurm hüpft zurück ins Loch]]\r\nFred: ZZZ\r\nWurm: Kicher!",
    "user": "Kicher!"
}