{
  "user": "Woodpecker68",
  "text": "Professor-Fred {{mit Brille und Fliege]]: Der heutige Comic ist ein Best-Of...\r\n\r\nFred [[geht nach rechts ab]]: ..des heutigen Comics!\r\n\r\n{{Schlangen sind auch sehr häutig.}}"
}