{
    "text": "Fred: Essen! Ich muss essen! *Mampf*\r\nKäfer: ?\r\n\r\nFred: Schlafen! Ich muss schlafen!\r\nKäfer: !\r\n\r\nKäfer: Stimmt ja. In kühleren Regionen halten Fledermaus Winterschlaf!\r\nSchild: [[auf Käfer zeigend]] Schlau\r\n\r\nFred: Winterschlaf? Wieso Winterschlaf??",
    "user": "bastian"
}