{
    "user": "Woodpecker68",
    "text": "Fred [[zitternd vor Kälte, die Hände um sich geschlagen]]: Bei dieser Kälte brauche ich dringend einen dicken Schal!\r\n\r\nFred [[schaut runter zu Käfer]]\r\nKäfer [[sitzt auf dem Boden, komplett eingerollt in einem langen Schal]]: <3\r\n\r\n{{Kleidung wird ebenfalls dicker, wenn man sie ordentlich füttert!}}"
}
