{
    "text": "Fred zu Käfer [[vor einem Weihnachtsbaum]]: an dem Weihnachtsbaum fehlen nur noch ein paar Kugeln...!\r\n\r\nFred [[schaut auf seinen Bauch]]: !\r\n\r\nFred [[schaut auf Käfer]]: !\r\n\r\nFred liegt links und Käfer rechts am Weihnachtsbaum.\r\n\r\n{{Der heuteige Comic basiert auf einer Idee von Claudi... ^^und mirage, denen hiermit allerherzlichst gedankt sei.}}",
    "user": "Woodpecker68"
}