{
    "user": "Woodpecker68",
    "text": "Fred [[zu Käfer]]: Das wichtigste an einer Freundschaft ist\r\nKäfer [[schaut hoch zu Fred]]\r\n\r\nFred: ...dass man den anderen...\r\n\r\nFred: ...auch in schlechten Zeiten...\r\n\r\nFred [[mit ausgebreiteten Armen. Auf der rechten Hand sitzt Käfer, in der linken hat er einen Keks]]: nicht mir einem Keks verwechselt!\r\nKäfer\r\n\r\n{{Fredschaft}}"
}
