{
    "text": "Fred: Das berühmte Licht am Ende des Tunnels \r\n\r\nFred:  wird übrigens bedeutungslos \r\n\r\nFred [[hebt ab]]:  wenn man eine Fledermaus ist \r\n\r\nFred [[flattert davon]]:  und im Dunkeln sehen kann !\r\n\r\n{{Ich mag ja, dass das Wort Tunnel durch sein doppeltes n in der Mitte selbst einen zweispurigen Tunnel besitzt.}}",
    "user": null
}