{
    "user": "Woodpecker68",
    "text": "Fred [[hält einen Teller mit drei Keksen]]: Kekse...\r\n\r\nFred: Ich sollte meine Ernährung umstellen...\r\n\r\nFred [[liegt am Stein, den Teller neben sich]]: Am besten hierhin!\r\n\r\n{{Die Wei-Zen-Meditation.}}\r\n"
}
