{
    "text": "Wunschfee: Du hast einen Wunsch frei!\r\n\r\nFred: Ui, toll! DAnn wünsche ich mir, dass ich endlich mal...\r\n\r\nFred: ...einer echten Wunschfee begegne!!\r\n\r\nWunschfee: Seufz\r\nKäfer: ?",
    "user": "Sanne"
}