{
  "user": "EdyCoelA",
  "text": "Comprar Cialis Generico En Andorra  https://abuycialisb.com/# - Cialis Pharmacy World Polarmeds Pharmacy  <a href=https://abuycialisb.com/#>Cialis</a> Propecia Eficacia Efectos Secundarios  "
}