{
    "text": "Fred [[rennt]]: Wenn ihr es eilig habt...\r\n\r\nFred: ...solltet ihr euren Weg nicht bahnen...\r\n\r\nFred [[fliegt weg]]: ...sondern flugzeugen...!\r\n\r\n{{Eile ist übrigens ein schwäbisches Hühnerprodukt.}}",
    "user": "Woodpecker68"
}