{
    "text": "Fred [[mit Punktekrawatte]]: Vielleicht sollte ich keine Partei gründen...\r\n\r\nFred: ...sondern eine Religion...!\r\n\r\nFred: Beziehungsweise eine...\r\n\r\nFred [[liegt am Stein]]: Reliegion...!\r\nWurm: z\r\n\r\n{{Die Re:liegion ist auch nur die Antwort auf die liegion.}}",
    "user": "Woodpecker68"
}