{
    "text": "Fred [[trägt einen Stapel Papiere, kommt an einer Blume vorbei]]\r\n\r\nFred: Ich fühle mich plötzlich so faul.\r\n\r\nFred [[schaut die Blume an]]: ?!\r\n\r\nFred [[liegt an einem Stein neben der Blume]]:  ...ist wohl eine fleissfressende Pflanze...!\r\n\r\n{{Fragt mal eure Mamis nach ein bisschen Muttivation.}}",
    "user": "Woodpecker68"
}