{
    "text": "Fred: Heute ist schon Heiligabend, und ich habe immer noch keine Ahnung, was ich dem kleinen Käfer schenken soll...\r\n\r\nFred: ...ich habe mir extra dieses schlaue Buch besorgt: \"Die besten Geschenke für Jedermann\"...\r\n\r\nFred: Mmhhh... Hier steht: \"Das schönste Geschenk für einen kleinen Käfer ist...\r\n\r\nFred: ...das Buch \"Die besten Geschenke für Jedermann\"!!!",
    "user": "leseratte12"
}