{
    "text": "Fred: Jahr für Jahr das Gleiche...\r\n\r\nFred: Ich weiss einfach nicht, was ich auf meinen Weihnachtswunschzettel schreiben soll...\r\n\r\nFred: Deswegen wird es wohl das Beste sein, wenn ich mir für dieses Jahr...\r\n\r\nFred:...einen ausgefüllten Weihnachtswunschzettel für nächstes Jahr wünsche...\r\nKäfer: !",
    "user": "Lorena"
}