{
    "text": "Fred: Hier stimmt doch was nicht! [Auf der Leinwand steht 1+2=5, Apfel und Stift liegen davor]\r\n\r\nFred: Besser. [Auf der Leinwand steht 1+2=5, Apfel ist verschwunden, Fred kaut]\r\n\r\n{{alt-text: #1758: Fehler -- Hach, die Fliege...}}",
    "user": "Andi"
}