{
  "user": "Woodpecker68",
  "text": "[[Ein gestreiftes Osterei liegt auf der Wiese]]: Rundlich, liegt im Gras\r\n\r\n[[zwei Ostereier liegen auf der Wiese]]: ist wunderschon, macht ansonsten nichts.\r\n\r\nFred [[hakt die Aussagen auf einer Checkliste ab]]\r\n\r\nFred [[liegt grinsend am Stein]]: Ich bin ein Osterei!\r\n\r\n{{Am liebsten mag ich den Genitiv von Ei.}}"
}