{
    "user": "Woodpecker68",
    "text": "Fred [[mit Schal, läuft durch eine Winterlandschaft]]: Der beste Weg, um bei diesen Temperaturen...\r\n\r\nFred: ...keine Erkältung zu bekommen...\r\n\r\nFred [[steht in seiner Höhle]]: ...ist übrigens...\r\n\r\nFred [[unter einer Decke mit Fieberthermometer im Mund]]: ...bereits eine zu haben...!\r\nKäfer [[brigt eine Tasse Tee]]: seufz\r\n\r\n{{Die Gebrüder Tai und Hat Chi}}"
}
