{
    "user": "Woodpecker68",
    "text": "Fred [[steht mit Schal  um den Hals und ausgebreiteten Armen neben einem Geschenk im Schnee]]: Jetzt musst du noch das schönste  Geschenk auspacken!\r\nKäfer [[sitzt neben Fred]]: ?\r\n\r\nFred [[steht mit ausgebreiteten Armen neben einem Geschenk im Schnee, der Schale liegt daneben auf dem Boden]]: Frohe Weihnachten!!\r\nKäfer [[sitzt neben Fred]]: ?\r\n"
}
