{
    "text": "[[Fred betrachtet den Vollmond am Sternenhimmel. Über seinem Kopf zeigt sich ein kleines Herz. In der Hand hält er einen Keks.]]\r\n\r\n[[Fred betrachtet eine Mondsichel am Sternenhimmel. Über seinem Kopf zeigt sich ein halbes Herz. In seiner Hand hält er einen halben Keks. Die Form des halben Keks und des halben Herzes imitieren die Sichelform des Mondes.]]\r\n\r\n{{Ich befürchte, dass die zweite Herz- und die zweite Mondhälfte das gleiche Schicksal erlitten wie die zweite Kekshälfte.}}",
    "user": "his"
}