{
    "text": "Fred [[mit Schal]]: Wenn ich Kufen für meine Schlittschuhe bräuchte...\r\n\r\nFred [[wandert durch den Schnee]]: ...ginge ich dann in einen Kufladen...?\r\n\r\n{{Eiskunstmelken.}}",
    "user": "Woodpecker68"
}