{
    "text": "Fred: Medizin muss widerlich schmecken, damit sie wirklich wirkt...!\r\n\r\nFred: Ich jedoch bin gesund und brauche daher keine Medizin die wirkt...\r\n\r\nFred: Also brauche ich logischerweise eine Medizin, die lecker ist!\r\n\r\nFred: Fokolade fum beifpiel...!",
    "user": "Gamlor"
}