{
    "text": "Fred: Seit Generationen ist es in meiner Familie Tradition...\r\nWurm: ?\r\n\r\nFred: ...keinerlei Traditionen zu befolgen...\r\nWurm: !\r\n\r\n{{alt-text: Abgesehen von  der Tradition, jedesmal, wenn man eine gepunktete Krawatte trägt, gleichzeitig eine gepunktete Krawatte tragen zu müssen.}}",
    "user": "ksa"
}