{
    "text": "Fred: Es fetzt übrigens total, an unpa\r\n\r\n[[Fred grinst und schweigt.]]\r\n\r\n[[Fred grinst und schweigt.]]\r\n\r\nFred: ssendsten Stellen eine Pause zu machen!\r\n\r\n{{alt-text: Unpa??}}",
    "user": "ksa"
}