{
  "user": "Woodpecker68",
  "text": "Fred [[hält einen Kürbis]]: Aus Sicherheitsgründen benutze ich zum Kürbisschnitzen kein Messer...\r\n\r\nFred: ...sondenr meinen Mund...\r\n\r\nFred: ...und anstelle von Kürbissen...\r\n\r\nFred [[hält einen Keks]]: ...Kekse! <3\r\n\r\n{{Ei nkleiner Kürbis ist ein Kürbisschen.}}"
}