{
    "text": "Fred [[sitzt schwitzend an einem überfüllten Schreibtisch]]: Beschäftigt.\r\n\r\nFred [[liegt schlafend auf einem Chefsessel mit den Füßen auf dem Schreibtisch]]: Becheftigt.\r\n\r\n{{Beschäftigt hat bestimmt irgendwas was mit Schafen zu tun.}}",
    "user": "Woodpecker68"
}