{
    "text": "Fred: Ich frage mich, was passieren würde,...\r\n\r\nFred: ...wenn ich in die Zukunft sehen könnte...\r\n\r\nFred: ...\r\n\r\nFred: Dann könnte ich wohl diese Frage beantworten...!",
    "user": "Briongloid"
}