{
    "user": "Woodpecker68",
    "text": "Fred [[schaut nach vorne aus dem Panel]]: Es gibt diese wundersamen Kreaturen...\r\n\r\nFred [[spielt irre]]: deren Verstand ein wenig veriwrrt ist...\r\n\r\nFred [[hält eine Teetasse]]: ...die zuweilen sogar an trockenen Pflanzenteilen knabbern...\r\n\r\nFred [[grinsend]]\r\nKäfer: TeeNager?!?\r\n\r\n{{Der heutige Comic entstand schnittwundenbedingt übrigens ohne Beteiligung des rechten Zeigefingers. Hoffe, man merkt das nicht.}}"
}
