{
    "text": "Fred: Zuspiel. Abgabe. Vorlage.\r\n\r\nFred: Gebirgsübergang. Joch. Bergsattel.\r\n\r\nFred: Ausweis. Papiere. Legitimation.\r\n\r\nFred [[vor seinem Laptop]]: Passwörter fetzten!\r\nKäfer: Seufz\r\n\r\n{{Fred ist ein kleiner sPassvogel.}}",
    "user": "Gamlor"
}