{
    "text": "Fred: Es ist unglaublich! Ich kann tatsächlich zaubern!!\r\nKäfer: ?\r\n\r\nFred: Ich lasse jetzt diesen Apfel verschwinden! [[hält einen Apfel in der Hand]]\r\nKäfer: ??\r\n\r\nFred: Dazu brauche ich nur die Augen zu schliessen und die Zauberworte zu murmeln:\r\nKäfer: ???\r\n[[Der Apfel liegt auf dem Boden, ein Wurm ist im Apfel]]\r\nWurm: ! [[uckt aus Boden]]\r\n\r\nFred: Apfelkadabraverschwindhokuspokusdreimalschwarzerblumenstraussundso\r\nKäfer: Ääh.....\r\n[[die Würmer essen sich an dem Apfel satt]]",
    "user": "Sanne"
}