{
    "text": "Professor-Fred [[vor einer Staffelei]]: Das ist ein Zylinder.\r\nStaffelei [[ein gemalter Zylinder]]\r\n\r\nProfessor-Fred: addiert man eine Hutkrempe dazu, ergibt sich ... ein Zylinder!\r\nStaffelei [[der Zylinder steht auf einem Kreis]]\r\n\r\nProfessor-Fred: daraus folgt:\r\nStaffelei [[Gleichung: Zylinder = Zylinder + Krempe / 0 = 0 + Krempe / 0 = Krempe]]\r\n\r\nProfessor-Fred [[hält einen Kreis mit einem loch inder Hand, ein Zylinder steht auf dem Boden]]: Daher sieht die Hutkrempe auch so aus... !\r\nWurm: !\r\n\r\n{{Ich habe mich ein wenig in das Wort 'Krempe' verliebt.}}",
    "user": "Woodpecker68"
}