{
    "text": "Fred: Wenn ich ein Auto besässe...\r\n\r\nFred: ...hätte ich noch mehr Erfahrungen gemacht...!!\r\n\r\n{{alt-text: Und er hätte zusätzliche Reife[n] erfahren.}}",
    "user": "Briongloid"
}