{
    "text": "Fred [[mit einem Zettel in der Hand]]: Der Keksdieb hinterließ eine zweite Botschaft in winzigen Buchstaben!\r\n\r\nFred [[mit einer Lupe]]: Mit meiner schicken Lupe werde ich sie entziffern!\r\n\r\nZettel: Diesen Teil schrieb ich nur, damit du deine schicke Lupe benutzen kannst!\r\n\r\n{{Vielleicht waren es gar keine Buchstaben, sondern nur buchstabenförmige Kekskrümel.}}",
    "user": "Woodpecker68"
}