{
    "text": "Panel 1: Professor-Fred: &quot;Letzlich sind wir alle - Tiere, Pflanzen, Steine, Meere, Kontinente, Planeten, Sterne, Galaxien undundund - ...&quot;\r\nPanel 2: Fred: &quot;...nur Bestandteile eines großen Traums...&quot;\r\nPanel 3: Fred: &quot;...den ein Wesen namens Wel ersinnt...!&quot;\r\nPanel 4: Fred strahlend: &quot;Der Weltraum!!&quot;\r\n\r\n{{Teile -- Und hiermit hat der Schöpfer eine Gottheit kreiert, die ihn selbst ersann}}",
    "user": "Woodpecker68"
}