{
    "text": "Fred: ich habe gelernt russisch zu sprechen! /Käfer: !\r\nFred: Y oyetto utoduto emu kpachwe uybema...\r\nKäfer: Wow! Ich bin beeindruckt!\r\nFred: Jetzt muss ich nur nochlernen, diese Sprache auch zu verstehen... /Käfer: seufz",
    "user": "Woodpecker68"
}