{
    "text": "Manchmal wäre es schön...\r\n\r\n... wenn ich aus zwei Körpern bestünde...\r\n\r\n... dann könnte ich gleichzeitig mehreren Interessen nachgehen...\r\n\r\n... und doppelt so viel schlafen!",
    "user": null
}