{
  "user": "Woodpecker68",
  "text": "Fred [[läuft mit Käfer über die Wiese]]: Im neuen Jahr möchte ich weniger Zeit verschwenden.\r\nKäfer\r\n\r\nFred: Also lasse ich ein paar Dinge weg!\r\n\r\nFred: Zum Beispiel:\r\n\r\n[[kein viertes Paneel]]\r\n\r\n{{Vielleich abr au ein par Bchstabn}}"
}