{
    "text": "Fred: Ich freue mich immer total über Geschenke! [[hängt an der Decke]]\r\n\r\nFred: Aber manchmal...\r\n\r\nFred: weiss ich mit einem Geschenk absolut nichts anzufangen!\r\n\r\nFred: Was soll ich mit einem Kopfkissen? [[hält ratlos ein Kissen in der Hand]]",
    "user": "Sanne"
}