{
    "text": "Fred: Es wurde sich beschwert, dass wir in diesem Comic...\r\n\r\nFred: ...ständig Kekse und Kuchen essen würden.\r\n\r\nFred: Daher heute mal etwas völlig anderes:\r\n\r\nFred und Käfer [[sitzen vor einer Torte und trinken diese mit einem Strohhalm]]: &lt;3\r\n\r\n{{Die Frekse sind bereits ausgetrunken.}}",
    "user": "Woodpecker68"
}