{
    "text": "Fred: So ein Gespräch mit einem guten Freund ist (selbst wenn er recht schweigsam ist)...\r\n[[Fred hält Luftballon]]\r\n\r\nFred: ...immer wieder wohltuend und erhebend...!\r\n\r\nFred: ?\r\n\r\nFred: Ich meinte das eher im übertragenen Sinne...\r\n[[Fred und Luftballon schweben]]",
    "user": "sini"
}