{
    "text": "Fred: Ich glaube, die Erfindung von Ölmalfarben...\r\n\r\nFred: ...ist mehr oder weniger sinnlos...!\r\n\r\nFred: Denn um Öl zu malen...\r\n\r\nFred: ...braucht man doch nur schwarz oder gelb...!",
    "user": "Sanne"
}