{
    "text": "Fred: Ich habe eine Sache gelernt:\r\n\r\nFred [[mit ausgebreiteten Armen]]: auf absolut nichts im Leben...\r\n\r\nFred: ...ist man wirklich vorbereitet.\r\n\r\nFred [[lacht]]: Aber darauf bin ich ja jetzt vorbereitet!\r\n\r\n{{Wäre ich ein Reiter, hieße mein Pferd Vorbe ocder Wegbe.}}",
    "user": "Woodpecker68"
}