{
    "user": "Woodpecker68",
    "text": "Fred: In diesen merkwürdigen Zeiten sollten wir alle.\r\n\r\nFred [[steht auf der Wiese]]: ...ein bisschen näher zusammenrücken...!\r\n\r\nFred [[steht ganz rechts im Panel und schaut ins rechte Panel]]: <3\r\n\r\nFred [[steht ganz links im Panel und schaut ins linke Panel]]: <3\r\n[[Beide Panel sind aneinandergerückt.]]\r\n\r\n{{Wir brauchen viel Nähe. Wir brauchen eine Nahmaschine!}}"
}
