{
    "text": "Fred: Plitsch - Platsch - Plitsch - Platsch - Plitsch - Platsch - Plitsch - Platsch - Plitsch - Platsch - Plitsch - Platsch - Plitsch - Platsch - Plitsch - Platsch - Plitsch - Platsch - Plitsch - Platsch - Plitsch - Platsch - Plitsch - Platsch - Plitsch - Platsch - Plitsch - Platsch\r\nKäfer: Um bei Menschen den Harndrang zu verstärken, reicht es oft aus...\r\n\r\nFred: Schhhhhhhhhhhhhhhhhhhh Schhhhhhhhhhhhhhhhhhhh Schhhhhhhhhhhhhhhhhhhh Schhhhhhhhhhhhhhhhhhhh\r\nKäfer: Wassergeräusche zu imitieren...\r\n\r\nKäfer: Fred glaubt, dass das auch bei Wolken funktioniert...\r\nFred: ? [[schaut nach oben]]\r\n\r\n[[Es beginnt zu regnen.]]\r\nFred: Jippieh!\r\nKäfer; Wow!",
    "user": null
}