{
  "user": "Woodpecker68",
  "text": "Magier-Fred [[mit Zaubererhut und Fliege]]: Wenn man besonders cool aussehen will...\r\n\r\nMagier-Fred [[zu Spinne]]: ...dreht man seine Mütze um...!\r\nSpinne [[hängt ins Panel, schaut zu Fred]]\r\n\r\nMagier-Fred [[dreht seinen sternenbesetzten Magierhut auf dem Kopf]]\r\n\r\nMagier-Fred [[grinst]]\r\nSpinne: Wow!\r\n\r\n{{0,5 U/Mütz}}"
}