{
    "text": "Fred: Ich habe für heute bereits...\r\nFred: ...alle wichtigen Punkte abgehakt...!\r\nKäfer: !\r\n[[ In Bild drei sieht man hinter Käfer ein Schild, auf dem ein Haken ist, Fred geht grinsend weg]]\r\n\r\n{{alt-text: ´Sieben Punkte mit einem Haken. Fred du tapferes Schneiderlein!´ }}",
    "user": "Neil"
}