{
    "user": "Woodpecker68",
    "text": "Fred [[läuft über die Wiese]]: Ich habe einen Weg gefunden, die Welt...\r\n\r\nFred: ...mit noch mehr Schönheit zu füllen!\r\n\r\nFred [[hält einen Spiegel]]: Ich brauche mehr Spiegel!\r\n\r\n{{derFred}}"
}
