{
    "text": "Fred [[liegt auf dem Filosofiestein und liest in einem Buch]]: &quot;Och nö! Keine Lust! Muss das sein? Geht das nicht auch morgen? Seutfz... &quot;\r\nKäfer: Sternzeichen Kein'Bock\r\nWurm: !\r\n\r\n{{Irgendein dämlicher Mouseovertext.}}",
    "user": "Woodpecker68"
}