{
    "text": "Fred: ?\r\nKäfer: Was ist denn los?\r\n\r\nFred: Ich weiß einfach nicht, welchen Weg ich wählen soll: Den linken oder den rechten?\r\n\r\nKäfer: Schau doch einfach auf die Wegweiser. Die helfen dir bestimmt weiter.\r\n\r\nWegweiser 1: [[nach links zeigend]] Rechts\r\nWegweiser 2: [[nach rechts zeigend]] Links\r\nKäfer: ...?",
    "user": "bastian"
}