{
    "text": "Fred: Hab ich dich, du Wurm!\r\n\r\nFred: *\r\nWurm: ?\r\n\r\nFred: Bist du eigentlich aus rein biologischem Anbau...?\r\nWurm: ??\r\n\r\nFred: Ich wusste gar nicht, dass Würmer mit den Kopf schütteln können...",
    "user": "sini"
}