{
  "user": "Woodpecker68",
  "text": "Fred [[liegt am Stein]]: Ich bewege mich eigentloch nur vom schlafen...\r\n\r\nFred [[liegt am Stein und isst einen Keks]]: ...zum Essen und zurück!\r\n\r\nFred [[nachdenklich]]\r\n\r\nFed [[liegt am Stein, schaut zum Leser]]: Naja, ohne das \"bewegen\"!\r\n\r\n{{Faulen ist Laufen in anders.}}"
}