{
    "text": "Fred [[steht auf der Wiese]]: Da es auf der Welt bereits genug von ihnen gibt...:\r\n\r\nFred [[freudestrahlend, die Flügel ausgebreitet]]: Macht Euch keine Sorgen!!!\r\n\r\n{{Anstelle von Sorgen macht euch doch lieber Dieweltwiesieeuchgefällt.}}",
    "user": "Woodpecker68"
}