{
    "text": "Käfer: Weihnachten ist wundervoll! Weihnachten ist... Familie & Freundschaft...\r\n\r\nKäfer: Weihnachten ist... Geschenke unterm Weihnachtsbaum...\r\n\r\nKäfer: Weihnachten ist... Naschwerk und Gebäck im Überfluss...\r\n\r\nFred: ... und Bauchschmerzen... !\r\nKäfer:!",
    "user": "leseratte12"
}