{
    "text": "Fred: *schlürf*\r\nKäfer: Oh fein: Ein heisser Tee für eine kühle Nacht...\r\n\r\nFred: Das ist gar kein Tee!\r\n\r\nFred: Das ist meine neueste Erfindung!\r\n\r\nFred: Kaffee-Beutel!",
    "user": "bastian"
}