{
    "text": "Fred [[strahlend]]: Ich mag Suchbilder!\r\n\r\nFred [[geknikt]]: Wo sind sie bloß?\r\nWurm: ?\r\n\r\n{{An dieser Stelle bitte ein 'sucht/Sucht'-Wortspiel einfügen.}}",
    "user": "Woodpecker68"
}