{
  "user": "Woodpecker68",
  "text": "Professor-Fred [[hält eine kleine runde Dose mit einer runden Antenne oben drauf]]: Meine neueset Maschine sagt in jeder Situation die bestmöglichen Worte!\r\nKäfer: ?\r\n\r\nProfessor-Fred: <3\r\nMaschine: Seine neueset Maschine sagt in jeder Situation die bestmöglichen Worte!\r\nKäfer\r\n\r\n{{SitUation. StandUation. LieUation.}}"
}