{
    "text": "Fred [[schaut auf eine auf dem Boden liegende Rakete]]: Uh! Eine ungenutzte Rakete!\r\n\r\nFred [[hält die Rakete]]: Jetzt wird sie in die Luft gehen!\r\n\r\nFred [[fliegt zwischen den Wolken, die Rakete zwischen den Zähnen]]: Und? Gefällt es dir hier oben?\r\n\r\n{{ }}",
    "user": "Woodpecker68"
}