{
    "text": "[[Fred sitzt auf seinem Filosofierstein]]\r\nFred: Anstatt nach Glück zu suchen...\r\n\r\nFred:...sollten wir lieber kein Glück suchen!\r\n\r\nFred: Ist die Suche erfolgreich, ist man des Erfolges wegen Glücklich...\r\n\r\nFred: Ist man es nicht, ist man es erst Recht!\r\n[[Fred geht weg]]\r\n\r\n{{Oder man nennt sein linkes Ohrläppchen Glück und findet es jeden Morgen erneut.}}",
    "user": "ksa"
}