{
    "text": "Fred [[steht im Schnee und streckt die Zunge raus; es schneit]]\r\nKäfer [[sitzt vor Fred im Schnee und schaut ihn an]]: Ich muss ganz leise sprechen.\r\n\r\nFred\r\nKäfer [[schaut den Leser an]]: Und in kurzen Sätzen.\r\n\r\nFred\r\nKäfer: sonst werden die Sprechblasen zu groß...\r\n\r\nFred\r\nKäfer: ...und stören Freds Schneeflocken...!\r\n\r\n{{Ich mag, dass der heutige Comictitel eine Antwort auf den heutigen Fredkalendertag sein könnte.}}",
    "user": "Woodpecker68"
}