{
    "text": "Fred: Wenn man klein ist, bekommt man ständig gesagt, ...\r\n\r\nFred: ...dass Scheren nichts für Kinder seien...\r\n\r\nFred: Ich frage mich, wie Krabbenkinder das machen...\r\nWurm: ?!",
    "user": "Sanne"
}