{
    "text": "[[Freudig]]\r\nFred: Frühling!\r\n\r\n[[Fred betrachtet das Gras.]]\r\nFred: Alles wächst und gedeiht...!\r\n\r\n[[Fred liegt an Stein, daneben steht ein Teller mit Keksen.]]\r\nFred: Zum Beispiel mein Bauch!\r\n\r\n{{Der Keksstapel hingegen wächst nicht. Schade eigentlich.}}",
    "user": "his"
}