{
    "user": "Woodpecker68",
    "text": "Fred [[sitzt auf dem Stein]]: Ich werde mich jetzt imm erbelohnen...\r\n\r\nFred: ...wenn ich eteas gutes gemacht habe.\r\n\r\nFred [[steht mit ausgebreiteten Flügeln auf dem Stein]]: Das ist eine gute Idee!\r\n\r\nFred [[isst ein Eis]]: <3\r\n\r\n{{Ein Engelskreis!}}"
}
