{
    "text": "Fred: Wenn ich etwas bestimmtes erreichen will, aber genau weiss, dass daraus nichts werden wird...\r\n\r\nFred: ...setzte ich mir ein Ziel: das ursprüngliche Ziel nicht zu erreichen...\r\n\r\nFred: Wenn ich das neugesetzte Ziel erreiche, bin ich dann - aufgrund meines Erfolges - glücklich. Wenn ich dieses Ziel aber nicht erreiche...\r\n\r\nFred: ...erst Recht...!",
    "user": "Sanne"
}