{
    "text": "Fred: \"Über den Wolken... muss die Freiheit wohl grenzenlos sein...\" *flatter*\r\n\r\nFred: Fliegen ist toll! Plötzlich ist man frei von allen irdischen Zwängen...\r\n\r\nFred: !?\r\n\r\nKäfer: Außer von der Schwerkraft!\r\nFred: *waah*",
    "user": "sini"
}