{
    "text": "Fred [[hält eine Comicseite]]: S\r\nDas ist der gestrige Comic...\r\n\r\nFred [[rollt ihn zusammen]]: ...aber ich werde ihn mir nicht ansehen.\r\n\r\nFred: Schließlich möchte ich mir nicht...\r\n\r\nFred [[läßt die Rolle liegen, geht nach rechts ab]]: ...die Vergangenheit vorwegnehmen...!\r\nWurm: ??\r\n\r\n{{Ich kann übrigens die Vergangenheit voraussagen.}}",
    "user": "Woodpecker68"
}