{
    "text": "Fred [[schaut auf herabhängende Spinne]]: Wenn man etwas mag zeigt man das...\r\n\r\nFred [[nimmt Spinne in den Arm]]: durch liebevolles drücken...!\r\nSpinne: !\r\n\r\nFred: Ich bin ein Like-Button!\r\n\r\n{{Oder ein Sternchen.}}",
    "user": "Woodpecker68"
}