{
    "text": "Fred: Ich trage heute eine Weste...\r\n\r\nFred: ... aber gehe nach Osten ...\r\n\r\nFred: Ich bin eben ein Rebell!\r\nKäfer: Wow!\r\n\r\n{{alt-text: Käfers 'Wow.' ist übrigens eine Art hündischer Minischerz als Antwort auf das 'ReBell'. Ähem.}}",
    "user": "Andi"
}