{
    "text": "Fred: Erschöpft.\r\nKäfer: [[auf dem Filosofierstein]] zzz\r\n\r\nFred: [[lehnt sich an den Filosofierstein]] Ichschöpft.\r\nKäfer: [[auf dem Filosofierstein]] zzz\r\n\r\n{{Genau das Richtige nach all dem Weihnachtsdingsbums. zZz.}}",
    "user": "Daniel Bohrer"
}