{
  "user": "Woodpecker68",
  "text": "Fred [[mit Käfer auf der Wiese, eine Biene fliegt auf ihn zu]]: Ich möchte nich von Bienen gestochen werden!\r\nKäfer\r\n\r\nFred [[aufgeregt und wütend]]: Vielleicht stecke ich mich an und bekomme überall Streifen!!\r\n\r\nFred [[schaut runter zu Käfer]]\r\nKäfer: Wäre das so schlimm?\r\nBiene\r\n\r\nFred [[sitzt grinsend auf der Wiese]]: Ich hätte lieber Punkte...!\r\nKäfer: <3\r\n\r\n{{BIENen sind in Frakreich die GUTen.}}"
}