{
    "user": "Woodpecker68",
    "text": "Fred [[hält eine Torte]]: Cremetorte wäre viel gesünder...\r\n\r\nFred [[grinst breit und zeigt die Zähne]]: ...bestünde sie aus Zahncreme!\r\n\r\n{{Mmmmh, lecker Konjunktiv.}}"
}
