{
    "text": "Fred: Ich glaube, ich verkleide mich in diesem Jahr...\r\n\r\nFred: ...als Schaf! [[hat eine Schaffellperücke auf]]\r\n\r\n[[Fred guckt]]\r\n\r\nFred: zzZ [[schläft vor dem Spiegel]]",
    "user": "Sanne"
}