{
    "user": "Woodpecker68",
    "text": "Fred [[mit einem Weinglas]]: Irgendwann wird jedes Glas, jede Tasse, jeder Teller...\r\n\r\nFred [[nur die obere Kopfhälfte zu sehen]]: zerbrechen.\r\n\r\nFred [[wieder mit dem Glas]]: Und Scherben bringen Glück!\r\n\r\nFred [[freudig, mit dem Glas auf der Wiese]]: Wir sind umgeben von Zukunftsglück!\r\n\r\n{{Denk nur an all die Fenster!}}"
}
