{
    "text": "[[Fred am Filostein angelehnt, Käfer oben sitzend, Wurm auf kleinen Stein]]\r\nFred: Ich kann nicht aufhören, an die Leute zudenken...\r\n\r\nFred: ...an die niemals jemand denkt...!\r\n\r\n{{alt-text: Fred ist immer für euch da.}}",
    "user": "ksa"
}