{
    "text": "[[Fred und Käfer betrachten den Sternenhimmel mit dem Mond.]]\r\nFred: Angeblich besteht der Mond aus Käse...\r\n\r\nFred: Nun ja. Er ist schon ziemlich alt...\r\n\r\nFred: ...und wir leben in der Milchstraße...!\r\nKäfer: Seufz\r\n\r\n{{Und damit Mond und Milchstraße sich noch eine Weile halten, ist es im Weltraum so kalt.}}",
    "user": "his"
}