{
    "user": "Woodpecker68",
    "text": "Professor-Fred: Das wichtigste von allem ist das Fundament, die Basis, der Anfang...\r\n\r\nProfessor-Fred: also die Grundlagen!\r\n\r\nProfessor-Fred [[taucht nach unten im Panel]]: daher werde cih mich jetzt...\r\n\r\nProfessor-Fred [[liegt bäuchlings auf der Wiese]]: ..auf den Grund legen!\r\n\r\n{{Zum Herumliegen gibt es immer einen Grund!}}"
}
