{
    "text": "[[Im Tagebuch steht: Lihbes Tahgebuch (auf dem Kopf), hoite habe ichh gelärnd, wih ma Buchstaabn auph dem Kobf schraibt. Isst gahr nichd so...]]\r\n\r\n[[Auf Fred Kopf steht das Wort \"ainfach\"]]\r\nKäfer: seufz\r\nFred: Waas??",
    "user": "Lorena"
}