{
  "user": "Woodpecker68",
  "text": "Fred: In dieser Zeit muss ich viel Kraft haben!\r\nKäfer: ?\r\n\r\nKäfer: Wofür denn?\r\nFred\r\n\r\nFred [[hält Käfer auf dem Arm]]: Um dich möglichst lange zu halten!\r\nKäfer\r\n\r\nFred: [[hält Käfer an sich gedrückt]]: <3\r\nKäfer: Mehr! <3\r\n\r\n{{Deswegen esse ich soviele Kartoffeln!}}"
}