{
    "user": "Woodpecker68",
    "text": "Fred {{läuft über die Wiese, ein kleiner Müllhaufen vor sich]]: Iiieh, Müll!!\r\n\r\nFred [[fliegt über den Haufen hinweg]]: Müll vermiedeb!\r\n\r\n{{Wegwerf- und Hochsprung-Gesellschaft.}}"
}
