{
    "text": "Fred: Das Wichtigste an Weihnachten...\r\n\r\nFred: ...sind keineswegs die Geschenke...\r\n\r\nFred: Das Wichtigste an Weihnachten ist...\r\n\r\nFred: ... Geschenke zu bekommen!!",
    "user": "Sanne"
}