{
    "user": "Woodpecker68",
    "text": "Fred [[liegt nachdenklich an einem Baum]]: Aus dem Holz eines Baumes...\r\n\r\nFred [[sitzt vor einem Buch an einem Tisch]]: ...kann man Stühle, Tische, Regale, Bücher usw. herstellen...\r\n\r\nFred [[hält einen Apfelkern]]: Und all das steckt in einem winzigen Kern verborgen!\r\n\r\nFred [[isst einen Apfel]]: Ich bin ein Bibliothekenverschlinger!\r\n\r\n{{Baum aß Name}}"
}
