{
    "text": "Fred [[hält ein Buch]]: Wenn Bücher keine fetzige Handlung haben...\r\n\r\nFred [[liegt an einem Stein, die Füße auf das Buch gelegt]]: ...haben sie immerhin noch Fußlung...!\r\nWurm: !\r\n\r\n{{Dann fällt auch nicht mehr so sehr auf, dass die Handlung Käse ist.}}",
    "user": "Woodpecker68"
}