{
    "text": "Fred [[liest in einem Buch]]: Liebevoll ausgearbeitete Charaktere...\r\n\r\nFred: abwechslungsreiche und zugleich wunderschöne Handlung...\r\n\r\nFred: Das ist ein gutes Buch!\r\n\r\nFred [[zeigt den Titel]] Die 235 besten Keksrezepte\r\n\r\n{{Leck- und Knabbertüre}}",
    "user": "Woodpecker68"
}