{
    "text": "Schalter: AN-gestellter\r\nFred [[mit Krawatte und Aktentasche]]\r\nKäfer\r\nWurm\r\nSpinne\r\nSchnecke\r\n\r\nSchalter: AUS-gestellter\r\nFred [[liegt auf dem Filosofiestein und schläft, kleines Schild: Fred]]: Z\r\nSchnecke: !\r\nWurm: !\r\nSpinne: !\r\nKäfer\r\n\r\n{{Eigentlich ist er ja dann ein Eingelegter.}}",
    "user": "Woodpecker68"
}