{
    "user": "Woodpecker68",
    "text": "Fred [[liegt schlafend am Stein]]: z\r\n\r\nFred [[wacht auf, im Halbschlaf]]: Wir solten aus der Vergangenheit lernen...!\r\n\r\nFred [[zeigt vom dritten ins erste Panel]]: Zum Beispiel aus dem ersten Panel...]]\r\n\r\nFred [[liegt schlafend am Stein]]: z\r\n\r\n{{Make Fred sleep again.}}"
}
