{
    "text": "Fred: Dieses Buch ist die Lösung...!\r\nKäfer: ?\r\n[[Buch mit Aufschrift: 47 Diäten]]\r\n\r\nFred: Hier steht: \"Ihr Bauch wird dicker und dicker? Und Sie wollen etwas dagegen unternehmen?\"...\r\n\r\nFred: \"Mit diesem Buch werden Sie garantiert abnehmen!\"\r\n\r\nFred: Iff glaube, ef wirkt bereitf!!\r\nKäfer: *seufz*\r\n[[Fred frisst das Buch]]",
    "user": null
}