{
    "text": "Schnecke: ... Gesundes ...\r\n[[Fred schaut fragend.]]\r\n\r\nSchnecke: ... neues ...\r\n[[Fred schmunzelt dem Leser wissend zu.]]\r\n\r\nSchnecke: ... Jahr ...\r\n[[Fred grinst vergnügt in sich hinein.]]\r\n\r\nSchnecke: ... 2006 !!\r\n[[Fred ist überrascht (da der Comic am Ende des Jahres 2007 entstand).]]",
    "user": null
}