{
    "text": "Fred: Eine Maus ist leicht... *kratz*\r\n\r\nFred: eine Feder ist leicht...\r\n\r\nFred: Also ist einig und allein das L...\r\n\r\nFred: ...das mich dick und schwer macht... [[steht auf einer Waage]]",
    "user": "Sanne"
}