{
    "text": "Spinne mit Postkarte\r\n\r\nSpinne:\r\nFred: Eine Urlaubspostkarte von der wunderbaren Schnecke...!\r\n\r\nFred: Ich wusste gar nicht das du im Urlaub warst...\r\nSchnecke:\r\n\r\nFred:\r\nSchnecke: Bin noch auf dem Weg dahin.\r\n\r\n{{Das mobile Haus der Schnecke lässt die Vermutung aufkommen, das sie holländische Ursprungs ist.}}",
    "user": "ksa"
}