{
    "text": "Fred: Ein Schal wärmt von aussen...\r\n\r\nFred: ...heisser Tee von innen...\r\n\r\nFred: *kratz*\r\n\r\nFred: Anderfrum funktioniert'f nift...!\r\nKäfer: *seufz*",
    "user": "Sanne"
}