{
    "text": "Fred: Ich bin so müde... [[zu Käfer]]\r\n\r\nFred: mir fällt überhaupt nichts geistreiches ein... [[zu Käfer]]\r\n\r\nFred: obwohl...\r\n\r\nFred: Spukschloss\r\nKäfer: immerhin\r\n\r\n{{alt-text: Es ist leicht zu erraten, in welchen Zustand mir dieser Comic einfiel.}}",
    "user": "ksa"
}