{
    "text": "Zauberer-Fred [[mit Zauberstab und Hut]]: Ich werde mich auf magische Weise vergrößern!\r\n\r\nZauberer-Fred [[zaubert konzentriert]]\r\n\r\nZauberer-Fred [abwartend]]\r\n\r\nZauberer-Fred [[verdutzt]]\r\n\r\n[[5. Panel]] Zauberer-Fred: Hat wohl nicht geklappt...\r\n\r\n{{ZUMINDEST IST DER MOUSEOVERTEXT IN GROSSBUCHSTABEN GESCHRIEBEN!]]",
    "user": "Woodpecker68"
}