{
    "text": "Fred: Wenn Gott [oder welche Macht auch immer] Regen auf die Erde bringt...\r\n\r\nFred: ...dann kriechen[um sich vor dem Ertrinken zu bewahren] alle Würmer an die Oberfläche...\r\n\r\nKäfer: Und?\r\n\r\nFred: Ich bin ein hungriger Gott!",
    "user": "robby"
}