{
  "user": "Woodpecker68",
  "text": "Professor-Fred [[gibt Käfer eine Maschine in form eines halben Eies]]: Diese Mschine macht dich perfekt!\r\nKäfer: ?\r\n\r\nKäfer [[sitzt vor der Maschine]]: Aber sie macht gar nichts!!\r\n\r\nProfessor-Fred [[geht nach rechts ab]]: Genau.\r\nKäfer: <3\r\n\r\n{{Ich bin mitten im Nichts.}}"
}