{
    "user": "Woodpecker68",
    "text": "Maus [[schläft auf dem Boden in der Höhle]]: z\r\n\r\nFred [[hängt schlafend von der Höhlendecke]]: 'Fledermaus'\r\n\r\nFred [[sitzt schlafend in der Höhle auf dem Boden]]: 'australische Fledermaus'\r\n\r\n{{AUStralien. Antralien.}}\r\n"
}
