{
    "user": "Woodpecker68",
    "text": "[[Panels in Farbe]]\r\nKäfer: Je älter man wird...\r\n\r\nKäfer: ...desto mehr Kerzen gibt es...\r\n\r\nKäfer: ...auf dem GEburtstagskuchen.\r\n\r\nKäfer [[läuft über die Wiese]]: A, besten sollten Kerzen also...\r\n\r\nKäfer [[schaut zu Fred und seinen Freunden, die um eine große Geburtstagstorte mit 13 gebackenen Kerzen stehen]]\r\nMaulwurf\r\nSpinne\r\nWurm\r\nSchnecke\r\nFisch\r\nFred: <3\r\n\r\n{{Alles Gute zum Burzeltag, fetzigster Fred!}}\r\n"
}
