{
    "text": "Panel 1: Fred mit Fliege\r\nPanel 2: Fred nachdenklich : &quot;Mit Hilfe moderner Bildbearbeitung sollte es dem Schöpfer eigentlich möglich sein...&quot;\r\nPanel 3: Fred: &quot;...mich hübscher zu machen!&quot;\r\nPanel 4: Fred ohne fliege: &quot;Perfekt!&quot;\r\n\r\n{{Bildbearbeitung -- Gestern war der Comic zur Hälfte ungezeichnet, heute beinhaltet er Copypaste. Der Autor wird immer fauler!}}",
    "user": "Woodpecker68"
}