{
    "user": "Woodpecker68",
    "text": "Fred [[hängt von der Höhlendecke]]\r\nKäfer [[schaut hoch zu Fred]]: Du bist ständig hier drin...\r\n\r\nKäfer: Du solltest mal ein bischen rausgehen...\r\n\r\nFred [[fliegt von der Decke aus los]]: ok.\r\nKäfer: !\r\n\r\nKäfer [[schaut nach unten aus dem Panel]]: !\r\nFred [[fliegt ausserhalb des Panels über den Bildschirm]]\r\n\r\n{{Flucht - entweder ein Substantiv oder ein Imperativ.}}"
}
