{
    "user": "Woodpecker68",
    "text": "Fred [[hängt schlafend an der Höhlendecke]]: Z\r\nSchalter [[steht auf 'Ein']]: Ein / Aus - Schlafen\r\nKäfer [[kommt von rechts]]\r\n\r\nFred [[hängt schlafend an der Höhlendecke]]: Z\r\nSchalter [[steht auf 'Aus']]: Ein / Aus - Schlafen\r\nKäfer: Freds liebster Schalter...!\r\n\r\n{{[X]Ein/[ ]Aus neuer Schaltercomic!}}\r\n"
}
