{
    "text": "Fred: Ich habe bereits alle Punkte auf meiner To-Do-Liste erledigt...!\r\nKäfer: !\r\n\r\nFred: Schau:\r\nKäfer: ?\r\n\r\n[[Fred zeigt seine Liste]]\r\nZuh tuhn: Behaupten, allle Punkte auf där To-Do-Lisste erledikt tsu habn [[durchgestrichen]]",
    "user": "Sanne"
}