{
    "text": "Fred: Im Winter fallen federleichte Schneeflocken vom Himmel...\r\n\r\nFred: Im Frühling regnet es hin und wieder, die ersten Pollen trudeln von Bäumen und Gräsern herab. Im Sommer gibt es immer noch Pollen, aber weniger Regen...\r\n\r\nFred: Im Herbst dagegen stürzen ständig zahllose Blätter und riesengroße Regentropfen vom Himmel... Das lässt nur eine Schlussfolgerung zu...:\r\n\r\nFred: Im Herbst ist die Erdanziehungskraft am stärksten...!",
    "user": "Sanne"
}