{
    "text": "Fred: mit dem Leben ist das so: ...\r\nFred: Niemals tritt genau das ein, vin dem man erwartet, dass es eintritt...\r\nFred: verlässt man sich aber darauf, dass nichts so eintritt wie erwartet, kann man davon ausgeheh, dass es dann doch eintritt...\r\nFred: ... oder eben nicht!",
    "user": "Drachin"
}