{
    "text": "Fred. Es wird kälter; Tiere und Menschen hüllen sich in dicke Felle und wärmere Kleidung...\r\n\r\nFred: Laubbäume hingegen werfen ihr schützendes Blätterkleid ab...!\r\n\r\n[[ein Blatt fällt herunter]]\r\n\r\nFred: Laubbäume sind Angeber",
    "user": "ksa"
}