{
    "text": "Osterhase [[mit einem Korb voller Ostereier auf dem Rücken hoppelt über die Wiese]]\r\n\r\nOsterhase [[hält an und stutzt]]: ?\r\n\r\nOsterhase [[schaut in den Korb]]: ??\r\n\r\nFred und Käfer[[springen aus dem Korb]]: Happy Easter!!!\r\nOsterhase [[strahlt]]\r\n\r\n{{Schokosterhasen.}}",
    "user": "Woodpecker68"
}