{
  "user": "Woodpecker68",
  "text": "Fred [[hält ein Blatt Papier in der einen und einen Pinsel in der anderen Hand]]: Künstler haben Angst vor einem leeren Blatt.\r\n\r\nFred [[hält einen Teller voller Kekse]]: Ich habe Angst vor einem leeren Keksteller.\r\n\r\nFred [[hält den Teller, es sind nur noch drei Kekse drauf]]: Daher übe ich wieder und wieder...\r\n\r\nFred [[hält kauend den leeren Teller]]: ...mich dieser Angst zu stellen!\r\n\r\n{{Furcht ist auch nur eine verwirrte Frucht.}}"
}