{
    "text": "Fred [[hält einen Keks in der Hand]]: Kekse, Kekse, Kekse...\r\nFred [[mit Keks]]: So richtig kreativ und abwechslungsreich ist der Schöpfer ja nicht...\r\n\r\nFred [[schaut den Keks an]]\r\nFred [[isst den Keks]]: danke! &lt;3\r\n\r\n{{Kekse. Kekse. Kekse.}}",
    "user": "Woodpecker68"
}