{
    "text": "Fred: An manchen Tagen, habe ich keine Lust auf Recherche...\r\nWurm:\r\n\r\nFred: ...was auch immer dieses Wort bedeutet...\r\n\r\n{{alt-text: Es bedeutet bestimmt irgendwas mit Lebkuchen.}}",
    "user": "ksa"
}