{
  "user": "Woodpecker68",
  "text": "Spinne [[hängt von oben ins Panel, hält einen großen Bleistift]]: Mit diesem magischen Stift...\r\n\r\nFred [[schaut zu Spinne]]\r\n\r\nSpinne: ...kann man viel besser schreiben!\r\nFred [[schaut mit offenem Mund zu Spinne]]\r\n\r\nFred [[sitzt auf dem Boden und schreibt auf ein Blatt Papier]]\r\n\r\nFred [[hält das Blatt breit grinsend zum Leser]]\r\n[[auf dem Blatt steht: viel besser]]\r\n\r\n{{Stift trifft Schrift.}}"
}