{
    "text": "Fred [[linsk im Bild vor einem Teller mit Keksturm]]: Eigentlich weiß man gar nicht...\r\nSchnecke [[links von Fred]]\r\n\r\nFred [[vor einem leeren Teller mit Kekskrümeln]]: ...wieviel Zeit...\r\nSchnecke [[rechts von Fred]]\r\n\r\nFred [[mit Kochmütze und dem Teller mit Keksturm in der Hand]]: ...zwischen den einzelnen...\r\nSchnecke [[Bildmitte]]\r\n\r\nFred  [[vor einem leeren Teller mit Kekskrümeln]]: ...Panels vergeht...!\r\nSchnecke [[am rechten Bildrand]]\r\n\r\n{{Hiermit wurde Zeitmesseinheit 'Keks' erfunden.}}",
    "user": "Woodpecker68"
}