{
    "user": "Woodpecker68",
    "text": "Frd [[steht vor einem Bild von Käfer, dass an einen Mast / Baum geschraubt ist]]: Gerahmte Bilder sind sehr ästhetisch...!\r\n\r\nFred: Insbesondere schwarz-weiß-Bilder sind wundervoll!\r\n\r\nFred [[nachdenklich]]: Vor allem, wenn man mehrere gruppiert.\r\n\r\nFred [[freudig]]: Vier zum Beispiel!\r\n\r\n{{Hin und wieder sollte aber eine Maus drüberrennen.}}"
}
