{
    "text": "Fred [[Nahaufnahme: Fred liegt an einem Stein und schläft]]: Z\r\n\r\nFred [[Vollbild Fred liegt an einem Stein und schläft, zu seinem Füßen ein kleinerer Fred, zu dessen Füßen ein noch kleinerer und dann ein winziger Fred]]: Z\r\n\r\n{{Fred mag Käse.}}",
    "user": "Woodpecker68"
}