{
    "text": "Fred: [[liest einen Brief]] \"Frederick ist ziemlich beliebt...\"\r\n\r\nFred: Beliebt! Ich bin beliebt! [[springt durchs Bild]]\r\n\r\nFred: ? [[stutzt]]\r\n\r\nFred: Nicht \"beliebt\"... \"beleibt\"...!",
    "user": "Sanne"
}