{
    "text": "Fred: Da sich Halloween allmählich auch in unserer Gegend durchgesetzt hat ...\r\n\r\nFred: ... habe ich beschlossen, mich in diesem Jahr auch zu verkleiden !\r\n\r\nKäfer: Als was denn ... ?\r\n\r\nFred: Als Batman !\r\nKäfer: Wer hätte das gedacht !?",
    "user": "bastian"
}