{
    "text": "Fred [[läuft über die Wiese]]: Zwischen den Panels...\r\n\r\nFred [[fliegt los]]: ...gönne ich mir manchmal eine kleine Pause...\r\n\r\nFred [[schaut den Leser an]]: EY!\r\n\r\nFred: Lies langsamer!\r\n\r\n{{Die Langsamen und die Kurzsamen.}}",
    "user": "Woodpecker68"
}