{
    "text": "Käfer: Was machst du denn da?\r\n[[Fred hält einen Zettel]]\r\n\r\nFred: Da ich ja bald ein berühmter Schriftsteller sein werde und unzählige Autogramme geben muss...\r\n\r\nFred: ...habe ich mir einfach einen Autogrammstempel gebastelt...*bomb*\r\nKäfer: !\r\n[[Fred drückt den Autogrammstempel auf den Zettel]]\r\n\r\nKäfer: Aber \"Fred\" wird doch mit F geschrieben...!\r\nFred: Tatsächlich?\r\n[[Auf dem gestempelten Zettel steht: Vret]]",
    "user": "sini"
}