{
    "user": "Woodpecker68",
    "text": "Fred [[sitzt mit Käfer auf der Wiese]]: Ich denke an eine Zahl zwischen 1 und 1000.\r\nKäfer [[schaut hoch zu Fred]]\r\n\r\nFred: An welche?\r\n\r\nKäfer: Keks?\r\n\r\nFred [[freudig mit ausgebreiteten Armen]]: Richtig!!\r\nKäfer [[hat die Augen geschlossen]]\r\n\r\n{{Kekse müssen geteilt werden.}}"
}
