{
    "text": "Professor-Fred: Da 'wider' 'gegen' bedeutet...\r\n\r\nProfessor-Fred:  ... ist die Gegenwar also widerlich...\r\n\r\nProfessor-Fred: Wir sollten das jetzt viel positiver betrachten!\r\n\r\nProfessor-Fred: Ab sofort heißt es also Fürwart!\r\n\r\n{{Prowart klingt wie ein Warzenerzeugungsmittel.}}\\",
    "user": "Woodpecker68"
}