{
    "text": "Professor-Fred: Mir steht der Sinn nach dem Genetiv eines federtierischen Schalenprodukts!\r\n\r\nProfessor-Fred und Käfer [[beim Eisessen]]\r\n\r\n{{Obstschalen werden unter anderem aus Bananen hergestellt.]]",
    "user": "Woodpecker68"
}