{
    "text": "Fred: Mathematisch betrachtet ist es ganz einfach...\r\n\r\nFred: Wenn ich halbwegs gut Zweirad fahren kann...\r\n[[Fred malt ein Fahrrad]]\r\n\r\nFred: ...kann ich logischerweise...\r\n[[Fred malt einen Strich, der beide Räder des Zweirades trennt]]\r\n\r\nFred: ...gut Einradfahren...!",
    "user": "sini"
}