{
  "user": "Woodpecker68",
  "text": "Fred [[steht auf der Wiese und zeigt Käfer sein Handy]]: Diese App sagt mir, wie morgen das Wetter sein wird!\r\nKäfer: ?\r\n\r\nKäfer: Jetzt?\r\n\r\nFred [[hat sich hingesetzt]]: Nein, erst übermorgen.\r\nKäfer [[schaut zum Leser]]: seufz\r\n\r\n{{Wegen fehlender Samstagscomics gibt es eigentlich auch kein Wetter am Samstag.}}"
}