{
  "user": "Woodpecker68",
  "text": "Fred [[lieht schlafend am Stein: Z\r\n\r\nFred [[wacht schlaftrunken auf]]: Uff, ich war sehr lange weg.\r\n\r\nFred [[am Filosofiestein liegend]]: Und jetzt habe ich wirklich viel zu tun!\r\n\r\nFred [[schläft grinsend wieder ein]]: ZZZ ZZZZ ZZZZ\r\n\r\n{{ZZZZZZZZZZZZZZZZZZZZZZZZZZZ}}"
}