{
    "text": "Fred: Mist\r\nKäfer:&quot;?&quot;\r\n\r\nFred:Jetzt habe ich total vergessen...\r\nKäfer:\r\n\r\nFred:...Was es war...\r\n\r\nFred:...das ich unbedingt vergessen wollte...\r\nKäfer:&quot;seufz&quot;\r\n\r\n{{...äh...}}",
    "user": "ksa"
}