{
    "text": "Käfer: Fliegenpilze besitzen diese auffälligen Punkte, damit sie nicht gegessen werden...!\r\n\r\nKäfer: Aus demselben Grund habe auch ich Punkte...\r\n\r\n[[Fred schaut entsetzt auf seinen Keks mit Schokopunkten]]\r\n\r\nFred: klappt nift!",
    "user": "Lorena"
}