{
    "text": "Fred: Ein ganzes Jahr lang habe ich gegossen und gehofft...\r\n\r\nFred: ...aber entgegen aller Logik...\r\n\r\nFred: ...ist aus dem Stück Geburtstagskuchen vom Vorjahr kein Geburtstagskuchenbaum mit zahlreichen Kuchenfrüchten geworden...\r\n\r\nFred: Aber vielleicht ist ja das leckere Kuchenstück noch da!\r\nKäfer: *iieh!*\r\n[[Fred buddelt nach dem Kuchenstück und Käfer flüchtet]]",
    "user": "sini"
}