{
    "user": "Woodpecker68",
    "text": "Fred [[steht auf der Wiese, schaut auf den Boden]]: Warum sollte man einen Schatz vergaben...?\r\n\r\nFred: Schätze sind doch wunderschön!\r\n\r\nFred [[mit freudig ausgebreiteten Armen]]: Jeder sollte sie anschauen können!\r\n\r\nFred [[schaut auf Maulwurf]]: <3\r\nMaulwurf [[schaut aus seinem Maulwurfshügel]]\r\n\r\n{{Schätze sind ungefähr.}}"
}
