{
    "user": "Woodpecker68",
    "text": "Spinne [[hängt von oben im Panel]]: ...und dafür musste man echt viel fighten...\r\nWurm [[schaut aus dem Boden]]: !\r\n\r\nFred [[schaut von rechts ins Panel und flüstert]]: 'Kämpfen' ist ein schöneres Wort als 'Fighten'.\r\nSpinne\r\nWurm\r\n\r\nFred [[geht nach rechts ab]]: Ich bin ein Verbrächer!\r\nSpinne: ?\r\nWurm\r\n\r\n{{Verb&}}"
}
