{
    "text": "Käfer: Anstelle eines Freds, der alles dreifach sagt, gibt es nun drei Freds...!!\r\n\r\nKäfer: Zunächst wäre also wichtig zu wissen, welcher der drei Fredericks...\r\n\r\nKäfer: ...der Echte ist...!\r\n\r\nFred4: Na, ich bin es!! *flatter*\r\n[[Vier Freds sind nun um Käfer herum]]",
    "user": "sini"
}