{
    "user": "Woodpecker68",
    "text": "Fred [[sitzt am Stein und isst Kekse]]\r\nKäfer: Hast Du schon die Zeit umgestellt?\r\n\r\nFred [[beißt in einen Keks]]: Ich wollte es gerade machen...\r\n\r\nFred [[stopft den Keks in den Mund]]: Von Essenszeit...\r\n\r\nFred [[liegt am Stein]]: ...zu Schlafenszeit!\r\nKäfer: !\r\n\r\n{{Uhri Geller hat die Zeit verbogen!}}"
}
