{
    "user": "Woodpecker68",
    "text": "Fred [[mit hängendem Kopf, müde]]: Ich bin so müde...\r\n\r\nFred: ...dass normaler Schlaf nicht mehr ausreicht...!\r\n\r\nBat-Fred [[liegt grinsend schlafend auf dem Stein]]: Z\r\n\r\n{{Bettfred.}}"
}
