{
    "text": "[[Fred redet mit Maulwurf.]]\r\nFred: Wenn du ständig im Boden verweilst, unter allen Wegen...\r\n\r\nFred: Dann bist du ja immer unterwegs!\r\nMaulwurf: ?\r\n\r\n{{alt-text: Ich bin ja meistens überwegs.}}",
    "user": null
}