{
  "user": "Woodpecker68",
  "text": "Fred [[liegt rechts am Stein]]: Angeblich ist der Osterhase...\r\nHase [[sitzt links am Stein]]\r\n\r\nFred: ...superschnell.\r\nHase [[dreht den Kopf zu Fred]]\r\n\r\nFred [[Ich bezweifle aber, dass er schnell genug ist...\r\nHase [[man sieht nur links die Ohren]]\r\n\r\nFred [[liegt immer noch am Stein]]: ...für mich!\r\n[[rechts am Stein steht ein Oaterei mit Hasenohren]]\r\n\r\n{{Eier. Eisie. Eies.}}"
}