{
    "user": "Woodpecker68",
    "text": "Fred [[nachdenklich]]: Vor einem schwarzen Hintergrund...\r\n\r\nFred [[dicker gezeichnet, zeigt ins linke Panel]]: ...wird man durch weiße Pixel dicker...\r\n\r\nFred [[dicker gezeichnet, zeigt ins rechte Panel]]: ... durch schwarze schlanker.\r\n\r\nFred [[in Normal-Dicke, auf der Wiese sitzend und isst die Schokolade aus den Keksen]]: Deswegen liebe ich die Schokolade auf den Keksen...!\r\n\r\n{{Deswegen esse ich nur himmelfarbenes Zeugs.}}"
}
