{
    "text": "Käfer: Und dann entzog er dem Wasser haufenweise Kälte...\r\n\r\nKäfer: ...und würzte es mit dem Geschmack verdorrter Pflanzenteile...\r\nFred [[mit einer Tasse mit Teebeutel in der Hand]]\r\n\r\n{{Geschmacksbestückte Hohlzylinderbefüllungsfeuchte}}",
    "user": "Woodpecker68"
}