{
    "text": "Spinne: Nicht immer ist Platz für alle.\r\n\r\nSpinne: Und manchmal ist der Schöpfer zu faul, um un salle zu zeichnen.\r\n\r\nSpinne, Fisch, Maulwurf, Wurm: Alles Gute nachträglich!\r\nKäfer: Hihi\r\n\r\n{{Alles Gute nachträglich, kleiner Käfer!}}",
    "user": "Woodpecker68"
}