{
    "text": "Fred [[mit Schal. Es schneit]]: Ich brauche eine neue Frisur...\r\n\r\nFred [[mit einer Haube aus Schnee auf dem Kopf]]: Zum Beispiel Schneef-locken!]]\r\nKäfer: !\r\n\r\n{{Fred ist nicht nur cool, sondern auch voler Weißheit.}}",
    "user": "Woodpecker68"
}