{
    "text": "Käfer und Wurm [[sitzen Rücken an Rücken]]\r\n'Zusammengerückt.'\r\n\r\nKäfer und Wurm [[sitzen Brust an Brust]]: Hihi!\r\n'Zusammengebaucht.'\r\n\r\n{{Zunitedstatesofamerikamme.}}",
    "user": "Woodpecker68"
}