{
    "text": "Fred: Ich freue mich auf die...\r\n\r\nFred: ...Halbzeitpause dieses Comcis.\r\n\r\nFred [[mampft einne Keks.]]\r\n\r\nFred [[leckt sich die Lippen.]]\r\n\r\nFred: Ich freue mich auf das...\r\n\r\nFred: ...Ende dieses Comics.\r\n\r\n{{Ich mag ja die weißen Stücke zwischen den Panels und freue mich darüber, dass es heute ein paar mehr sind.}}",
    "user": "Woodpecker68"
}