{
    "text": "Fred: Mit einem quer gestreiften Shirt wirke ich dick... [[hat ein Querstreifenshirt an]]\r\n\r\nFred: ...mit einem längs gestreiften hingegen schlanker... [[hat ein Längsstreifenshirt an]]\r\n\r\nFred: Also wirke ich bestimmt besonders schlank, wenn ich...\r\n\r\nFred: ...möglichst viel längsgesteiftes anziehe...! [[hat mehrere Längsstreifenshirt übereinander an]]\r\nKäfer: Äh...",
    "user": "Sanne"
}