{
    "text": "Fred: Weisst du, worüber ich stundenlang reden kann?\r\nKäfer: ?\r\n\r\n[[Fred steht auf dem Stein.]]\r\nFred: Über diesem Stein!\r\nKäfer: !\r\n\r\n{{Ich bin ja froh, dass Fred nicht stundenlang darüber redet, dass er stundenlang darüber redet, dass er stundenlang darüber redet, dass er...}}",
    "user": "sebi"
}