{
    "user": "Woodpecker68",
    "text": "Fred [[mit großen Schritten gehend]]: Vielleicht hätten wir alle mehr Zeit...\r\n\r\nFred [[schaut auf eine Taschenuhr]]: ...würden wir nicht in Minuten rechnen...\r\n\r\nFred [[liegt lächelnd am Stein]]: ...sondern in Maxuten!\r\n\r\n{{Wieviele Quadratmeter hat eigentlich ein Zeitraum?}}"
}
