{
    "text": "Fred: [[sitzt auf dem Boden und schreibt]] Liehbes Takebuch...\r\n\r\nFred: hoite haabe ich mahl wider waß gelärndt:\r\n\r\n[[es fängt an zu regnen]]\r\n\r\n[[Fred ist weg im Tagebuch steht]] Lasss dain Takebuch nichd imm Rehgen (liehgen!) [[Schrift ist vom Regen verwischt]]",
    "user": "Sanne"
}