{
    "text": "Fred: Seid beruhigt...\r\n\r\nFred: In Annbetracht der Kosten, die ihr für eure Eltern verursacht habt...\r\n\r\nFred: ...könnt ihr euch sicher sein...\r\n\r\nFred: ...ihr habt nicht umsonst gelebt...!",
    "user": "Sanne"
}