{
    "text": "Käfer [[vor einem Baumstumpf]]: Schnüff\r\n&quot;Baum: gefällt.&quot;\r\n\r\nFred und Käfer [[umarmen einen Baum]]: &lt;3\r\n&quot;Baum: gefällt.&quot;\r\n\r\n{{In diesem Comic erinnert mich Käfer ein bisschen an Idefix. Hihi.}}",
    "user": "Woodpecker68"
}