{
    "text": "Fred:Ich bin zu dick...! [[vor einem Spiegel stehend]]\r\nFred: So kann das nicht weitergehen!\r\nFred: Ich muß etwas ändern!\r\nFred: Ich brauche einen neuen Spiegel!!",
    "user": "Woodpecker68"
}