{
  "user": "Woodpecker68",
  "text": "Fred [[läuft mit einem blauen Partyhut über die grüne Wiese]]: Eigentlich ist ein Geburtstag auch nur...\r\n\r\nFred [[mit dem blauen Partyhut]]: ...ein Tag wie jeder andere!\r\n\r\nFred: Und das ist gut so...\r\n\r\nFred [[sitzt auf der Wiese, statt dem Hut sitzt Schnecke auf seinem Kopf]]: ...wenn jeder andere Tag auch wundervoll ist!!\r\n\r\nMaulwurf, mit Wurm auf dem Kopf, Käfer, Fisch und Scnnecke, von oben hängt Spinne ins Panel [[alle haben einen Keks und auf der Wiese steht ein Teller voller Kekse\r\n\r\n{{Der beste Tag ist immer heute.}}\r\n"
}