{
    "user": "Woodpecker68",
    "text": "Fred [[zeigt auf einen Tisch mit Papieren, der von links ins Panel ragt]]: Und das hier ist mein Arbeitslatz!\r\nKäfer: !\r\n\r\nFred [[geht nach rechts ab]]\r\nKäfer [[dreht den Kopf und schaut ihm hinterher]]: ?\r\n\r\nFred [[läuft]]\r\nKäfer: Wohin gehen wir denn?\r\n\r\nFred [[freudig mit ausgebreiteten Armen]]: Irgendwo anders hin!\r\nKäfer\r\n\r\n{{Arb-Eiter. Klingt irgendiwe eklig.}}"
}
