{
  "user": "Woodpecker68",
  "text": "Fred: Wenn ich nicht ich wäre...\r\n\r\nFred [[mit Fliege und Zaubererhut]]: ...dann wäre ich vielleicht ein mächtiger Zauberer...\r\n\r\nFred [[hält einen sternförmigen Zauberstab]]: ...der sich in annles mögliche verwandeln kann!\r\n\r\nFred: Zum Beispiel in mich!\r\n\r\n{{VerWandlung. VerTürlung. VerFernsterlung.}}"
}