{
    "user": "Woodpecker68",
    "text": "Fred [[sitzt auf dem kleinen Filosofiestein und ist ein Stück Torte]]: Kugeln haben nur eine einzige Seite.\r\nKäfer [[sitzt auf dem großen Stein und schaut auf Fred]]: ?\r\n\r\nFred [[hält sich den Bauch]]: Deswegen zeige ich mich immer von meiner besten Seite!\r\nKäfer: !\r\n\r\n{{Meine beste Seite ist ja fonflatter.de}}"
}
