{
    "user": "Woodpecker68",
    "text": "Fred [[zeigt nach oben]]: Die Dinger da oben heißen Sprechblasen.\r\n\r\nFred [[schaut zum Leser]]: Also wundert Euch nicht, wenn ich irgendwelchen Quitschquatsch erzähle.\r\n\r\nFred: Schließlich bestehen Blasen zur Hälfte aus\r\n\r\nFred [[steht auf der Wiese]]: Bla\r\n\r\n{{Sprechrechtecke. Sprechtecke.}}"
}
