{
    "text": "Käfer: Fred!? Hast Du Lust, ein wenig mit mir durch die Gegend zu streifen? FRED!?\r\n\r\nKäfer: FÜRST FREDERICK FON FLATTER!!! [[lauter werdend]]\r\n\r\nKäfer: RAPUNZEL! [[schreiend]]\r\n\r\nFred: ... was denn ...? [[an Decke hängt und sein Schal berührt fast den Boden]]",
    "user": "Björn"
}