{
    "text": "Professor-Fred: Erst Februar, und jetzt März.\r\n\r\nProfessor-Fred: Warum sind die Monate unterschiedlich lang?\r\n\r\nProfessor-Fred: Sie sollten alle etwa gleich lang sein!\r\n\r\nProfessor-Fred [[nach rechts ab]]: Sechs Buchstaben zum Beispiel...!\r\n\r\n{{Januar Februa Rmärza, Prilma, Ijunij Uliaug Ustsep Tember Okotbe Rnovem Berdez emberj.}}",
    "user": "Woodpecker68"
}