{
    "user": "Woodpecker68",
    "text": "Fred [[sitzt grinsend auf dem Stein - eine große Denkblase über sich]]\r\nDenkblase [[Fred sitzt auf dem Stein: Heute werde ich nur schöne Gedanken denken...!]]\r\n\r\n{{Gedanken. Gedausken.}}"
}
