{
    "user": "Woodpecker68",
    "text": "Fred [[mit Schal]]: Alle Jahre wieder saust in dunkelster Nacht und bei eisigsten Temperaturen...\r\n\r\nFred: ...über den Häusern sehnsüchtig wartender...\r\n\r\nFred: ein beleibter und beliebter Held durch die Lüfte...\r\n\r\nFred [[fliegt zwischen den Wolken]]: ...und freut sich auf sein Geschenk!\r\n\r\n{{Kekse sind eine Beleibigung.}}"
}
