{
    "text": "Fred: Mir ist heute ein Missgeschick passiert...\r\nFred: Es tut mir auch ganz doll leid...\r\n[[Bild 3: Trauriger Fred]]\r\nFred: Ich hätte zum Jonglieren keine gepunkteten Bälle nehmen dürfen...!\r\n[[Käfer mit Pflaster und Kringeling über dem Kopf]]",
    "user": "Neil"
}