{
    "text": "Fred: An manchen Tagen muss man einfach...\r\n\r\nFred: ...die Welt vergessen...\r\n[[Der Hintergrund des Comic ist verschwunden]]\r\n\r\n{{alt-text: Vergessen besteht ja hauptsächlich aus Essen.}}",
    "user": "Gamlor"
}