{
    "user": "Woodpecker68",
    "text": "Fred [[kommt über die Wiese, hält den großen Bleistift in der Hand]]: Ich schreibe ein Buch darüber...\r\nKäfer\r\n\r\nFred [[mit Stift]]: ...wie man Dinge delegiert.\r\n\r\nKäfer: Brauchst Du Unterstützung?\r\n\r\nFred [[sitzt vor Käfer, streichelt ihm über den Kopf]]: Nein, danke.\r\nKäfer: <3\r\n\r\n{{Dele, Navi und Konju sind Geschwister.}}"
}
