{
    "text": "Spinne [[hängt in halber Höhe von der Decke und liest 'Harry Potter]]\r\n\r\nSpinne [[hängt knapp über dem Boden von der Decke, der Faden dünn gespannt und liest 'Krieg und Frieden]]\r\n\r\n{{Vielleicht wäre die Lektüre leichter, wenn es Lekfenster wäre.}}",
    "user": "Woodpecker68"
}