{
    "user": "Woodpecker68",
    "text": "Fred [[flüstert]]: Wir müssen ganz leise sein...!\r\n\r\nFred: Käfer wacht manchmal beim kleinsten Geräusch auf...\r\n\r\nFred [[ schaut auf Käfer]]\r\nKäfer [[schlafend]]: z\r\n\r\nFred [[übermalt das \"z\" über Käffer mit einem Bleistift]]\r\n\r\n{{deswegen schreibe ich vorsichtshalber nur in kleinbuchstaben}}"
}
