{
    "text": "Fred: [Fred hält ein Teller mit Austern in der Hand] ?\r\nKasten: Austern\r\n\r\nFred: [Fred zeigt auf Stern am Himmer]\r\nKasten: Ein Stern\r\nWurm: ?\r\n\r\n\r\n{{Austern--Vielleicht sind Austern aber auch schmerzerfüllte [See]Sterne.",
    "user": "Gamlor"
}