{
    "text": "Fred [[vor einer Staffelei]]: Interessanterweise muss ich inmitten von Überlegungen...\r\nStaffelei: &quot;Überlegung&quot;\r\n\r\nFred: ...immer an Bäume denken...!\r\nStaffelei: &quot;Üb(gezeichneter Baum)gung&quot;\r\n\r\n{{Buchen und Eichen sind Verben.}}",
    "user": "Woodpecker68"
}