{
    "text": "Fred: Ich werde mehr Sport treiben.\r\n\r\nFred: Liegestütze mache ich gerne.\r\n\r\n[[Fred hält Nadel mit Faden und Stoff bereit.]]\r\nFred: Einfach ein bisschen schneidern...\r\n\r\n[[Fred liegt an Stein, sein Kopf ist auf ein Kopfkissen gebettet.]]\r\nFred: ...und fertig ist das Kopfkissen...!\r\n\r\n{{Klimmzüge haben bei mir meist Verspätung.}}",
    "user": "his"
}