{
    "text": "Fred [[liegt verschlafen am Stein und schaut auf einen Wecker]]: Huch, es ist schon halb zehn!\r\n\r\nFred [[schlaftrunken]]: Ich muss aufstehen...\r\n\r\nFred: Obwohl: halb zehn ist ja eigentlich...\r\n\r\nFred [[schäft weiter]]: ...um fünf!\r\nWecker: Z\r\n\r\n{{Um elf. Um drei. Um sechs. Um neun. Um zwölf.}}",
    "user": "Woodpecker68"
}