{
    "text": "Käfer [[zu Fred]]: Ich fürchte mich ein wenig vor der Eule.\r\nFred\r\n\r\nKäfer [[laufend]]: Wenn si nicht auf einem Baum hockt...\r\nFred [[läuft hinterher]]\r\n\r\nKäfer: ...sitzt sie auf zerfledderten, zerquetschten Leichensteilen!!\r\n\r\nKäfer: Von Bäumen!\r\nFred\r\nEule [[sitzt auf einem Stapel Bücher]]\r\n\r\n{{Tätowierte Körperteile!}}",
    "user": "Woodpecker68"
}