{
    "text": "Fred [[mit einer Tasse Kaffee]]: Man mische Kaffee...\r\n\r\nFred [[mit einer Tasse heisse Schokolade]]: ...mit Kakao...\r\n\r\nFred [[mit einer Käfer-Tasse]]: ...und erhält: Kafka!\r\n\r\n{{Oder Kaka. Wegen der Farbe.}}",
    "user": "Woodpecker68"
}