{
    "text": "Fred: Seid vorsichtig, damit ihr nicht stolpert!\r\n\r\nFred: Hier sind überall Löcher im Boden!\r\nMaulwurf [[schaut aus seinem Hügel]]: !\r\nWurm: [[schaut aus dem Boden]]: !\r\n\r\n{{Stolpernde Würmer stelle ich mir lustig vor. so wie umfallende Kugeln.}}",
    "user": "Woodpecker68"
}