{
    "text": "Schneemann [[mit Schal und Zylinder, steht unter einem Mistelzweig]]\r\n\r\nBatfred [[kommt dazu, schaut zum Mistelzweig]]\r\n\r\nBatfred [[hat Schnee in der Hand, es kommt ihm eine Idee]]\r\n\r\nSchneefrau küßt Schneemann [[unter dem Mistelzweig]]\r\n\r\n{{Merke: Wer küssen will, nimmt seine Möhrennase ab.}}",
    "user": "Woodpecker68"
}