{
    "text": "Bat-Fred [[zu Maulwurf]]: Gräbst du gerade unter mir einenGang...?\r\nMaulwurf [[schaut aus einem Hügel]]\r\n\r\nBat-Fred: Mach' doch mal eine Pause!\r\n\r\nMaulwurf [[hält einen Keks]]\r\nBat-Fred: Und wieder einmal rettete ich die Welt vor dem Untergang!!\r\n\r\n{{Um die Frage des gestrigen Comics zu beantworten: Nein.}}",
    "user": "Woodpecker68"
}