{
    "text": "Fred: [[mit Schal]] Frost ist auch nur\r\n\r\nFred: der Superlativ von froh!\r\nTafel: Froh, frohher, am frosten\r\n\r\n{{Zu Weihnachten bin ich immer frost.}}",
    "user": "Daniel Bohrer"
}