{
    "text": "Fred [[freudig mit Schal]]: Ich wünsche mir Frieden für die ganze welt!\r\n\r\nFred: ... und auch für alle kaputten Welten...!\r\n\r\n{{Frieden auf der Welt. und neben ihr. Und unter ihr. Und überall.}}",
    "user": "Woodpecker68"
}