{
    "text": "Panel 1: Schild &quot;Fred --&gt;&quot;, Fred steht links davon, Wurm schaut nur. &quot;Wegweiser&quot;\r\nPanel 2: Schild &quot;&lt;-- Fred&quot;, Fred immernoch links, Wurm: &quot;!&quot;. &quot;Hinweiser&quot;\r\n\r\n{{Weiser -- Immerhin ist es ein Wegweiser, kein Wegdoofer.}}",
    "user": "Woodpecker68"
}