{
    "text": "Panel 1: Fred liegt am Filosofiesein, daneben eine Blume mit hängendem Kopf. Fred: &quot;Ich muß gestehen...:&quot;\r\nPanel 2: Fred: &quot;ich habe mich lang nichte mehr gewaschen...&quot;\r\nPanel 3: Fred (erfreut): &quot;aber das merkt ja keiner!&quot; Blume steht senkracht.\r\n\r\n{{Geständnis -- Gestank verwirrt das Raum-Zeit-Kontinuum.}}",
    "user": "Woodpecker68"
}