{
    "user": "Woodpecker68",
    "text": "Fred [[schaut auf Käfer neben sich]]Käfer: Niemand weiß genau, welche Geräusche Dinosaurier von sich gaben...\r\nTriceratops [[als Statue rechts im Bild]]\r\n\r\nFred: Wie bei Comicfiguren...!\r\n\r\nFred, Käfer [[liegen dem Triceratops auf dem Rücken]]: <3\r\n\r\n{{Kkurz.}}"
}
