{
    "text": "Fred: ich habe versprochen, es niemanden zu sagen.\r\n\r\nFred: Die besten Versprechen sind jene,...\r\n\r\nFred: ...die man gibt...\r\n\r\nFred: ...ohne es jemanden zu sagen...\r\n\r\n{{alt-text: Vielleicht hat er sich ja nur versprochen}}",
    "user": "ksa"
}