{
    "text": "Fred [[rennt freudig zu Käfer]]: Ich habe etwas fetziges herausgefunden:\r\nKäfer: ?\r\n\r\nFred: Ich bin der beste Ich-Imitierer der Welt!\r\nKäfer: !\r\n\r\nFred: Ich bin der beste Ich-Imitierer der Welt!\r\nKäfer: Seufz\r\n\r\n{{Fred ist ein ImiTier.}}",
    "user": "Woodpecker68"
}