{
    "text": "Fred: Ich wüßte gerne...\r\n\r\nFred [[schaut nach unten]]: ...was am Ende des heutigen Comics passiert...\r\n\r\nFred [[freudig]]: Bestimmt etwas wunderbares!\r\n\r\nFred: &lt;3\r\nSpinne [[gibt Fred einen Keks]]\r\n\r\n{{Und ich wüsste gerne, wieviele Leute eigentlich den Text hier lesen.}}",
    "user": "Woodpecker68"
}