{
    "user": "Woodpecker68",
    "text": "Käfer [[in Farbe]]: Zum Geburtstag wünche ich mir...\r\n\r\nKäfer: ...leckere Torte!\r\n\r\nKäfer [[in Farbe, auf der Wiese mit seinen Freunden, ein Stück Torte vor sich]]: ...in den Bäuchen meiner Freunde!\r\nFisch [[im Glas mit einem kleinen Stück Torte]]\r\nSchnecke [[auf dem Glas mit einem kleinen Stück Torte]]\r\nFred [[sitzend kauend daneben, ein Stück Torte auf einem Teller]]\r\nSpinne [[hängt von oben ins Panel, ein Stück Torte in den Beinen]]\r\nMaulwurf [[schaut aus seinem Hügel, ein Stück Torte in den Händen]]\r\nMond [[schaut vom Himmel auf die Gruppe]]: <3\r\n\r\n{{Alles Gute,kleiner Käfer!}}"
}
