{
    "text": "Fred: Schokolade macht angeblich glücklich.\r\n\r\nFred: Das ist super!\r\n\r\n[[Fred mit einem Bild von sich]]\r\nFred: Das bin ich. Glücklich.\r\n\r\nFred: Womit bewiesen wäre: Schokolade macht glücklich!",
    "user": "Lorena"
}