{
    "text": "Panel 1: Fred schaut auf ein paar Blätter: &quot;Folgendes fiel mir auf:&quot;\r\nPanel 2: Fred zeigt die Blätter mit Comics drauf: &quot;In fast keinem Fredcomic fehle ich...!&quot;\r\nPanel 3: Fred: &quot;Womit bewiesen wäre:&quot;\r\nPanel 4: Fred strahlend: &quot;Ich bin unfehlbar!&quot;\r\n\r\n{{Auffällig -- Zum 2300. Comic die vierte Wand durchbrochen und zum Dreikönigstag auch noch Kürchenbezug. Zwei Kekse mit einer Klappe gefuttert.}}",
    "user": "Woodpecker68"
}