{
    "text": "Fred [[schaut auf ein paar Blätter]]: Folgendes fiel mir auf:\r\n\r\nFred [[zeigt die Blätter mit Comics drauf]]: In fast keinem Fredcomic fehle ich...!\r\n\r\nFred: Womit bewiesen wäre:\r\n\r\nFred [[strahlend]]: Ich bin unfehlbar!\r\n\r\n{{Zum 2300. Comic die vierte Wand durchbrochen und zum Dreikönigstag auch noch Kürchenbezug. Zwei Kekse mit einer Klappe gefuttert.}}",
    "user": "Woodpecker68"
}