{
    "text": "Fred [[hält ein riesiges Lineal]]: Ich habe dieses riesige Lineal gefunden...\r\n\r\nFred: aber ich weiß nicht, wem es gehört...!\r\nKäfer: ?\r\n\r\n{{Übrigens hat Fred das Lineal gerade gefunden.}}",
    "user": "Woodpecker68"
}