{
    "user": "Woodpecker68",
    "text": "Fred [[isst einen Keks]]: Manche behaupten ja...\r\n\r\nFred [[kauend]]: ...ich lege keinen Wert auf Teller...\r\n\r\nFred [[sitzt auf der Wiese, einen Teller voller Kekse vor sich]]: Aber manchmal lege ich meine Kekse darauf.\r\n\r\nFred [[reibt sich den Bauch]]: ...und die sind total wertvoll!\r\n\r\n{{Teller ohne Kekse: Telleer.}}"
}
