{
    "text": "Fred: Berge sin groß und gewaltig...\r\n\r\nFred: ...und gut von weitem zu erkennen.\r\n\r\nFred: Wenn man also etwas verstecken will...\r\n\r\nFred: ...sollte man es auf keinen Fall verbergen...!\r\n\r\n{{Keksberge sollte man übrigens in Bäuchen verstecken.}}",
    "user": "Woodpecker68"
}