{
    "user": "Woodpecker68",
    "text": "Brief [[liegt unter einem Stift auf der Wiese]]: Lieber Schöpfer, damit du für den Comic nicht so viel zeichnen musst, ist heut ekeiner hier. Keksige Grüße, Fred & Freunde <3\r\n\r\n{{Danke.}}"
}
