{
    "text": "Fred [[liest in einem Buch]]: Aha!\r\n\r\nFred [[hält einen Bleistift]]: Wenn man die Punkte eines Marienkäfers...\r\n\r\nFred: ...in der richtigen Reihenfolge miteinander verbindet...\r\n\r\nFred: ...erhält man einen seufzenden Käfer!\r\nKäfer: seufz\r\n\r\n{{Tuwort in Pflanzenfresserkot: Verb in Dung.}}",
    "user": "Woodpecker68"
}