{
    "text": "Fred: (flüstert) Ich bin jetzt ein professioneller Geheimnisbewahrer...\r\nKäfer: ?\r\n\r\n[[guckt nach links]]\r\n\r\n[[guckt nach rechts]]\r\n\r\nFred: Aber sag es nicht weiter...\r\nKäfer: Seufz",
    "user": "Sanne"
}