{
    "text": "Fred [[zu Käfer]]: Diese Jahr zu Halloween...\r\nKäfer: ?\r\n\r\nFred: gehe ich als Gefangener...\r\n\r\nFred: ...dazu verurteilt, jahrelang...\r\n\r\nFred [[verzweifelt]]: ...in winzigen schwarz geränderten Boxen zu hausen!!\r\n\r\n{{Das zwischen den Panels könnte auch ein Metallgitterfensterkreuz sein...}}",
    "user": "Woodpecker68"
}