{
    "text": "Fred: Ich sehe tote Menschen...!\r\n\r\nKäfer: Du hast die Anführungszeichen vergessen...\r\n\r\nFred: Oh...'tschuldigung...\r\n\r\n[[Fred mit einem Plakat auf dem tote Menschen steht]]\r\nFred: Ich sehe \"tote Menschen\"...!\r\nKäfer: Richtig.",
    "user": "Lorena"
}