{
    "text": "Fred [[nur zur Hälfte im Bild]]: Lieber Schöpfer, du hast heute...\r\n\r\nFred [[kommt ein bisschen mehr ins Bild]]: ...einen leichten Linksdrall...!\r\n\r\n{{alt-text: Huch! Stimmt ja.}}",
    "user": "ksa"
}