{
    "text": "Fred: Der Verzehr von Möhren führt ja angeblich dazu, dass man besser sehen kann...\r\n\r\nFred: Mir wäre es lieber, könnte man dadurch besser säen...\r\n\r\nFred: Dann würde ich nämlich unzähliche Möhrensamen säen, unzählige Möhren ernten, unzähliche Möhren essen, um somit...\r\n\r\nFred: ...noch besser säen zu können, noch mehr Möhrensamen zu säen, noch mehr Möhren zu...",
    "user": "Sanne"
}