{
    "text": "Professor-Fred [[mit einer fiktiven Krone auf dem Kopf]]: Kronen bestehen meist aus Edelmetallen...\r\n\r\nProfessor-Fred: ...die wiederum aus Erzen gewonnen werden...\r\n\r\nProfessor-Fred: ...die sich wiederum in der Erde befinden!\r\n\r\nProfessor-Fred [[steht auf dem Kopf]]: Ich bin ein König!\r\n\r\n{{Vielleicht ist er aber auch ein Krönig.}}",
    "user": "Woodpecker68"
}