{
    "text": "Panel 1: Fred (mit Blättern in der Hand): Diese To-Do-Listen bewahre ich dort auf...\r\nPanel 2: Fred: ...wo ich sie am besten wiederfinden kann.\r\nPanel 3: Käfer: Überlistet!\r\nFred (mit den Listen am Körper verteilt): Mpf!\r\n\r\n{{To-Do -- Übrigens sind auf den To-Do-Listen tatsächlich nichts weiter als wirre Krakellinien zu sehen.}}",
    "user": "Woodpecker68"
}