{
    "text": "Fred [[läuft mit Wurm]]: Ich habe ein superes Orientierungsvermögen!\r\nWurm\r\n\r\nFred: Den Weg zum 4. Panel zum Beispiel finde ich sofort...!\r\nWurm\r\n\r\nFred [[schaut von rechts ins dritte Panel]]: ?\r\nWurm\r\n\r\nWurm [[schaut sich suchend um]]: ??\r\n\r\n{{Vielleicht heißt der Wurm ja Orientierungsvermögen.}}",
    "user": "Woodpecker68"
}