{
    "text": "Fred:Klug schön und Lieb!\r\n\r\nFred: Ich mag es mich zu beschreiben!\r\n[[Fred mit Tattoo KLUK, TSCHÖÖN, LIEP]]\r\nKäfer: seufz\r\n\r\n{{Am 06.03.2009 war Fred noch unbeschreiblich. Hat wohl einen besseren Stift gefunden.}}",
    "user": "ksa"
}