{
    "text": "Fred: Zum Karneval...\r\n\r\nFred: ...gehe ich als Fred...\r\n\r\nFred: ...aus dem ersten Panel...!\r\n\r\nFred [[steht genauso da, wie im ersten Panel]]\r\n\r\n{{Ich habe eher das Gefühl, dass der Panel1-Fred sich als Panel4-Fred verkleidete.}}",
    "user": "Woodpecker68"
}