{
    "text": "[[Fred ist als Batfred verkleidet.]]\r\nBatfred: Ich sorge dafür, dass sich am Ende...\r\n\r\nBatfred: ...alles zum Guten wendet!\r\n\r\n[[Fred strahlt. Käfer, den Körper abgewandt, dreht den Kopf zu Fred hin.]]\r\nKäfer: ?\r\n\r\n{{Ich bitte, von 'Gutfredwurst ist gut für mich, oh yeah'-Witzen abzusehen.}}",
    "user": "his"
}