{
    "text": "Fred: ich muss zugeben...\r\n\r\nFred: ... das hier ist gar kein Geständnis...\r\n\r\nFred: ... sondern ein Gesitznis!\r\nWurm: !\r\n\r\n{{alt-text: Oder ein Gesteintnis. Ähem.}}",
    "user": null
}