{
    "text": "Fred: zZz\r\nKäfer: wissenschaftliche untersuchungen Zeigen...\r\nKäfer: ... dass schlafwandelnde Fledermäuse...\r\nKäfer: häufig unter Kopfschmerzen leiden...!\r\nFred: Rums!",
    "user": "Drachin"
}