{
    "text": "Schnecke: Es stimmt, dass ich manchmal nicht gut rieche\r\n\r\nSchnecke: Allerdings sei erwähnt, das ich fast immer\r\n\r\nSchnecke: Krieche.\r\n\r\n{{K wie Käfer?}}",
    "user": "Gamlor"
}