{
    "user": "Woodpecker68",
    "text": "Fred [[mit Pudelmütze]]: Zu Weihnachten sollten nicht die Geschenke im Vordergrund stehen!\r\n\r\nFred [[hält ein Geschenk]]: Bei allem, was ich verschenke...\r\n\r\nFred [[schaut aus dem Panel]]: ...ist eine Sache besonders wichtig:\r\n\r\nFred [[freudig auf der Wiese]]: Der Verschenkende!\r\nWurm [[schaut aus dem Boden]]: <3\r\n\r\n{{Manchmal steht der Verschenkende nicht im Vordergrund.Sondern sitzt.}}"
}
