{
    "text": "Fred: Für mich hat höchste Priorität ... [[Auf Filosofierstein stehend]]\r\n\r\nFred: ... keinerlei Prioritäten zu setzen... [[An Filosofierstein angelehnt]]\r\nWurm: !",
    "user": "Neil"
}