{
    "user": "Woodpecker68",
    "text": "Professor-Fred: Ich habe eine Maschien erfunden...\r\n\r\nProfessor-Fred: ...die das neue Jahr wunderschön werden lässt...!\r\n\r\nKäfer: Ist das ein Ofen?\r\n\r\nProfessor-Fred [[hält Käfer einen Teller voll dampfender Kekse hin]]\r\nKäfer: <3\r\n\r\n{{Ist man als Wasser-Möger eigentlich ein Eau-Fan?}}"
}
