{
    "text": "Fred: wenn ich ehrlich bin, muss ich mir eingestehen, dass ich überhaupt nicht weiss, was das alles soll. ich meine, das muss man sich mal vorstellen: dein einen tag geht es so, den nächsten auch, eventuell sogar den übernächsten, das hängt ja immer davon ab, ob und überhaupt und so. ohnehin ist die frage, was das alles soll, ich meine, wenn man sich das nur mal vorstellt, so mir nichts dir nichts, von heute auf morgen, eigentlich von gestern auf heute, da hätte vorgestern wahrscheinlich auch noch keiner mit gerechnet, plötzlich geht das ratzfatz, und ehe man sich versieht, ehe man mit den augen geblinzelt hat, wieso heisst das überhaupt geblinzelt? klingt doch komisch das wort, wer hat das denn wieder ausgedacht? bestimmt irgendwelche verrückten wissenschaftler, die denken sich ja den lieben langen\r\n\r\nFred: tag ja irgendwelchen krimskrams aus, bei dem man sich fragt, was das soll und wie sie überhaupt darauf kommen und vor allem: wer das alles bezahlt, schließlich kostet das ja alles geld und geld wächst bekanntlich nicht auf bäumen, wäre ja noch schöner, wenn geld auf bäumen wüchse, da hätten wir bald eine inflation oder wie das heisst diese ganzen lateinischen wörter verwechsle ich irgendwie immer, weiss auch nicht, woher das kommt, vielleicht sollte ich mehr lesen, schlaue bücher lesen, also mit vielen, vielen seiten, aber dann tun mir immer die armen bäume leid, die dafür\r\nund außerdem weiss ja sowieso jeder\r\nkönnte sein, sag ich immer, könnte\r\nKäfer: Ah! Heute ist Muttertag...\r\n\r\nKäfer: ...und Fred hat das engliche Wörterbuch gefunden...!\r\nFred: Hihi!",
    "user": null
}