{
    "text": "Käfer: Du brauchst nicht alles, was man dir sagt, für wichtig zu halten\r\nFred: ?\r\n\r\nFred: \r\n\r\nFred: Diesen Satz schreibe ich sofort ganz oben auf meine Prioritätenliste!\r\nKäfer: seufz\r\n\r\n{{Außerdem wird er wohl -seufz- draufschreiben müssen.}",
    "user": "Daniel Bohrer"
}