{
    "text": "Fred: Schnecke ist nicht immer langsam\r\nSchnecke:\r\n\r\nFred: Nachmittags ist sie langspm!\r\nSchnecke: HiHi!\r\n\r\n{{Um genau zu sein: Zwischen Mittag und Mitternacht.}}",
    "user": "ksa"
}