{
    "text": "Käfer: Warum weinst du denn?\r\n\r\nFred: [[mit Träne im Auge]] Ich weine nicht, ich heule\r\n\r\nFred: den Mond an. (sniff)\r\nKäfer: !\r\n\r\n{{Vielleicht ist es aber auch nur der Regen, der von Freds Nasenspitze... Ach nee, doch nicht.}}",
    "user": "Daniel Bohrer"
}