{
    "text": "Fred: Der heutige Comic ist für jene...\r\n\r\nFred: ... die erst, wenn etwas fehlt, begreifen...\r\n\r\nFred: ... wie wunderschön es war...!\r\n\r\n[rein schwarzes Panel]\r\n\r\n{{alt-text: Beim letzten Panel habe ich mir besonders viel Mühe gegeben. Ehrlich.}}",
    "user": "Andi"
}