{
  "user": "Woodpecker68",
  "text": "Fred [[mit einer kleinen Weihnachtsmütze auf dem Kopf, steht in seiner Höhle]]: In der weinachtszeit verschönere ich gerne meine Höhle!\r\n\r\nFred [[steht grinsend in der Höhle]]: <3\r\nKäfer [[schaut fragend hoch zu Fred]]: ?\r\n\r\n{{Santa ClAn. Santa ClAus.}}"
}