{
    "text": "Fred [[flattert zu einem Baum]]: Rinde ist das Fell der bäume\r\n\r\nFred [[hängt kopfüber an einem dicken Ast]]: Sie ist härter als der Rest...\r\n\r\nFred [[umarmt den Baum]]: Mein Fell ist kuschlig weich...\r\n\r\nFred [[liegt grinsend am Baum]]: Also ist der Rest von mir noch flauschiger!\r\n\r\n{{Flauschherz!}}",
    "user": "Woodpecker68"
}