{
    "text": "[[Spinne hängt im Bild]]\r\nSpinne: Die Post ist da\r\nKäfer: Wo denn?\r\nSpinne: Na, im Briefkasten! / Käfer: *seufz* [[Briefkasten (Fred&Käfer) hängt an der Decke]]",
    "user": "Sanne"
}