{
    "text": "Fred: Manchmal wünschte ich, ich könnte mit einem einzigen Fingerschnipsen... [[Schnipp]]\r\n\r\nFred: ... die Zeit anhalten!\r\nKäfer\r\n\r\nFred und Käfer [[Standbild]]\r\n\r\nFred und Käfer [[Standbild]]\r\nKäfer: Na toll! [[Denkblase]]",
    "user": "Woodpecker68"
}