{
    "text": "Fred: Ich werde mich fortan nur noch auf Hauptsachen konzentrieren!\r\nWurm: ?\r\n\r\nFred: Also auf Mützen und Hüte!!\r\n[[Fred trägt einen Zylinder mit Pudelmütze obendrauf]]\r\n\r\n{{Oder um Perücken.}}",
    "user": "winnie"
}