{
    "text": "Fred [[steht vor einem Baum]]: Erst werfen sie ihre Kleidung ab...\r\n\r\nFred [[steht im Regen vor dem Baum]]: Dann duschen sie sich ab...\r\nWurm: &lt;3\r\n\r\nFred [[steht mit Schal im Schnee vor dem Baum]]: Und danach baden sie im Schnee!\r\n\r\nFred: Winter ist der Strandurlaub der Bäume...!\r\n\r\n{{Und sie schlecken am Eis!}}",
    "user": "Woodpecker68"
}