{
    "text": "Käfer: Weil er gehört hat, dass man sich bei Sichtung einer Sternschnuppe etwas wünschen darf...\r\n\r\nKäfer: ...steht Fred nun schon seit Stunden hier und starrt in den Sternenhimmel...\r\n\r\nKäfer: Da! Eine Sternschnuppe!! Fred, was wünschst du dir??\r\n\r\nFred: Eine Nackenmassage...\r\nKäfer: *seufz*",
    "user": "sini"
}