{
    "user": "Woodpecker68",
    "text": "Fred: Ich bin so selbstlos...\r\n\r\nFred: ...dass ich das letzte Stück meines Geburtstagskuchens verschenke.\r\n\r\nFred [[hält eine brennende Kerze]]\r\nSpinne [[hängt von oben ins Panel]]: !\r\n\r\n{{Wo sind die anderen 9 Kerzen?}}"
}
