{
    "user": "Woodpecker68",
    "text": "Fred [[mit Käfer auf der Wiese]]: Immer wenn meine Lieblingsmannschaft ein Tor schießt, esse ich einen Keks!\r\nKäfer [[schaut hoch zu Fred]]\r\n\r\nKäfer: Was ist denn deine Lieblingsmannschaft?\r\n\r\nFred [[grinst]]: Ach...\r\n\r\nFred [[sitzt auf der Wiese, hält einen Keks]]: Ich mag sie irgendwie alle! <3\r\nKäfer: seufz\r\n\r\n{{Deswegen mag Fred Basketball.}}"
}
