{
    "text": "Fred: Ojemine! Ich habe total verschlafen!\r\n\r\nFred: Ich komme zu spät!\r\n\r\nFred: Ähm... Wo muss ich eigentlich hin?\r\n\r\nFred: Hatte völlig vergessen, dass Fledermäuse gar keine Termine haben!",
    "user": "sini"
}