{
    "text": "Fred: Das wichtigste am Fest sind doch unsere Freunde und Verwandten...\r\n\r\nFred: Denoch freue ich mich auch auf die Geschenke...!\r\n\r\nFred: ...und ich kann kaum abwarten Sie endlich auszupacken...\r\n\r\nKäfer, Spinne, Wurm, Schnecke: Hihi",
    "user": "Gamlor"
}