{
    "text": "Fred: Auf, auf treuer Kamerad! Jemand braucht unsere Hilfe! *fuchtel*\r\nKäfer: ?\r\n[[Fred im Batfred-Kostüm]]\r\n\r\nWenige Aufgenblicke später...\r\nFred: Ein Wurm! Kurz vor dem Erfrieren! Er braucht dringend einen warmen Platz!\r\n[[Ein zitternder Wurm am Boden]]\r\n\r\nFred: *happ*\r\n[[Fred frisst den Wurm]]\r\n\r\nFred: Helfenhaft, wie ich den Wurm vor dem Kältetod rettete, oder...?\r\n[[Käfer mit hängenden Fühlern]]",
    "user": null
}