{
    "text": "Fred: Puh...\r\n[[Fred als Osterhase mit Hängeohren]]\r\n\r\nFred: Irgendwie bin ich froh, dass Ostern vorbei ist.\r\n[[Fred als Osterhase mit einem hängenden und einem stehenden Ohr]]\r\n\r\nFred: Denn so komme ich endlich aus diesem Hasenkostüm heraus...\r\n[[Fred als Osterhase mit Hängeohren]]\r\n\r\nFred: ...das schließlich auch das Top-Osterei-Versteck vom Vorjahr war...!\r\nKäfer: *Iieh!*\r\n[[Fred mit stinkendem Hasenkostüm. Käfer lässt die Fühler hängen]]",
    "user": "sini"
}