{
    "text": "Professor-Fred [[liegt am Stein]]: Unangenehme Gerüche beseitigt man am besten...\r\n\r\nleeres Panel [[mit Geruchssysmbol]]\r\n\r\nProfessor-Fred [[am  Stein]]: ...indem man sie in ein anderes Panel steckt!\r\nWurm: !\r\n\r\n{{Notfalls kann man unangenehme Gerüche aber auch im Ges-Tank lagern.}}",
    "user": "Woodpecker68"
}