{
    "text": "Fred: Mal sehen, wie gross ich bin... [[hat ein Metermass in der Hand]]\r\n\r\nKäfer: Freds neueste Erfindung: ...\r\n\r\nKäfer: ...eine eigene Masseinheit!\r\n\r\nFred: Hab ichs mir doch gedacht: Exakt einskommanull Fred!\r\nKäfer: seufz",
    "user": "Sanne"
}