{
    "text": "Fred: Hihi! Ich bin der schreckliche Menschenerschrecker!! *Flap*\r\nSchild: Höhle\r\n\r\nFred: Menschen sind aber auch äusserst ängstlich! ...\r\n... zittern vor jeder albernen Kleinigkeit!\r\nSchild: Höhle\r\n\r\nFred: Waah!\r\n\r\nKäfer: Reg' dich ab! Das ist doch nur 'ne Vogelscheuche.\r\nFred: *Zitter*",
    "user": "bastian"
}