{
    "text": "Fred: Ich habe mich heute gründlich gesäubert...\r\n\r\nFred: ...wobei \"Grund\" bekanntlich \"Boden\" bedeutet...\r\n\r\nFred: ...und \"gründlich\" somit für \"in Bodennähe\" steht...!\r\n\r\nFred: Ich habe saubere Füsse...!\r\nKäfer: Hatte!\r\n[[Fred läuft durch Matsch]]",
    "user": "Sanne"
}