{
    "user": "Woodpecker68",
    "text": "Fred [[liegt am Stein]]: Wände sind dekorativ...\r\n\r\nFred: ...und machen den ganzen Tag lang gar nichts...!\r\n\r\nZauberer-Fred [[ mit Magierhut, Fliege und Zauberstab]]: Vielleicht sollte ich mich verwandeln!!\r\n\r\n{{Wandastisch!}}"
}
