{
    "user": "Woodpecker68",
    "text": "Fred [[mit Pudelmütze, dozierend]]: Diesmal werde ich es mit den Süßigkeiten nicht übertreiben.\r\n\r\nFred [[grinst]]: Ich setze mir eine Grenze!\r\n\r\nKäfer: Was ist denn die Grenze?\r\nFred [[schaut zu Käfer runter]]\r\n\r\nFred [[lachend]]: Flexibel!\r\n\r\n{{Nieder mit allen Grenzen!}}"
}
