{
    "text": "Fred [[hält ein Schild hoch]]\r\nSchild [[ist ausserhalb des oberen Panelrandes]]\r\nKäfer: ?\r\nSchnecke [[schaut unglücklich]]\r\n\r\nFred [[stellt das Schild auf den Boden]]\r\nSchild: 'für niedrige Beschriftungen'\r\nKäfer: !\r\nSchnecke [[grinst]]\r\n\r\n{{Immerdrig. Niedrig.}}",
    "user": "Woodpecker68"
}