{
    "text": "Fred [[in einer Reihe mit den anderen vor einem leeren Teller mit Kekskrümmeln]]: Der Keksteller ist leer.\r\nKäfer\r\nWurm\r\nSchnecke\r\nTeller\r\n\r\nFred: Egal.\r\n\r\nFred [[zu den anderen]]: Alles wird sich zum guten wenden!\r\n\r\nFred [[alle drehen sich zu ihm um]]: Hihi!\r\nKäfer\r\nWurm\r\nSchnecke\r\n\r\n{{Kek-Steller?}}",
    "user": "Woodpecker68"
}