{
    "text": "Fred: Ui! Käfer schläft.\r\nKäfer: ZZZ\r\n\r\nFred: Damit er sich nicht selber weckt....\r\n\r\nFred: ...wird jetzt Käfers Umlaut... [[Fred schwingt den Zauberstab]]\r\n\r\nFred: ...Kafers umleise! [[Die Umlautpunkte sind unter dem Buchstaben A anstatt über dem A]]\r\nKäfer: ZZZ",
    "user": "Gamlor"
}