{
    "text": "Professor-Fred: Vielleicht sind doofe Tage...\r\n\r\nFred [[das Panel ist nur skizzenhaft und verwaschen gezeichnet]]: ...nur eine missglückte Überleitung...\r\n\r\nProfessor-Fred: ...zwischen den Superen!!\r\n\r\n{{Übrigens ist der heutige Comic nur eine beidseitig nicht unpassende zwischen dem gestrigen und dem morgigen.}}",
    "user": "Woodpecker68"
}