{
  "user": "Woodpecker68",
  "text": "Fred: Wenn ich schön wäre...\r\n\r\nFred: ...würde ich jetz den Konjunktiv benutzen!\r\n\r\n{{Deutliches Zeichen für Wunderschönheit ist übrigens auch, Kekse zu mögen.}}"
}