{
    "text": "Fred: Ich liebe das neue Jahr...!\r\n\r\nFred: Alle Wege stehen mir offen...\r\n\r\nKäfer: Wirklich alle Wege??\r\nFred: ?\r\n\r\nFred: Wirklich alle Wege!!!\r\nKäfer: !",
    "user": "sini"
}