{
    "user": "Woodpecker68",
    "text": "Fred [[hält Käfer auf dem Arm]]: Hier ist ein Tipp für alle, die immer gleich das schlimmste annehmen:\r\nKäfer\r\n\r\nFred [[hält Käfer auf dem Arm]]\r\nKäfer: Verweigert die Annahme und schickt es zurück!\r\n\r\n{{In diesem Falle ist es gestattet aufzugeben: Das Paket.}}\r\n"
}
