{
    "text": "Fred: Erst sind immer alle Dinge versteckt...\r\nzwei Ostereier hinterm Stein\r\n\r\nFred: ...und nach einer Weile habe ich sie stes gefunden...!\r\n\r\nFred: Logischerweise muss ich jetzt also...\r\n\r\nFred [[liegt am Stein]]: ...nur noch warten!\r\n\r\n{{Warten ist eine Kunst. Deswegen steckt auch 'art' drin.}}",
    "user": "Woodpecker68"
}