{
    "text": "Fred [[liegt am Filosofiestein]]: Ich möchte mehr Vitamine zu mir nehmen!\r\nKäfer [[sitzt neben einer Schale mit Obst am rechten Bildrand]]: ?\r\n\r\nFred [[hat die Obstschale vor sich stehen, ißt Kekse]]\r\nKäfer: seufz\r\n\r\n{{Fred braucht keine Kamera für die Nahrungsaufnahme.}}",
    "user": "Woodpecker68"
}