{
    "user": "Woodpecker68",
    "text": "Fred [[nachdenklich]]: Wasser hilft Pflanzen beim Wachsen...!\r\n\r\nFred [[mit einer Gießkanne vor einem Teller Kekse]]: Und Kekse sind hauptsächlich pflanzlich...!!\r\n\r\n{{Was? Wasser. Am Wassersten!}}"
}
