{
    "text": "Fred: Ein Eimer voller Kohlenstücke - für Gesicht und Knöpfe... *zeig*\r\nKäfer: ?\r\n\r\nFred: Ein wunderschöner Ast...\r\nKäfer: ?\r\n\r\nFred: ...und eine knackige Mohrrübennase...\r\n\r\nFred: Ich wäre dann soweit, Herr Winter...!\r\nKäfer: Optimist!",
    "user": "sini"
}