{
    "user": "Woodpecker68",
    "text": "Fred [[dozierend]]: Ich bin sehr selbstlos.\r\n\r\nFred [[auf dem Boden]]: Ich stehe nicht gern im Vordergrund.\r\n\r\nFred: Vermutlich bin ich sogar...\r\n\r\nFred [[mit seinem Kopf ganz groß im Panel]]: ...die bescheidenste Person der Welt!\r\n\r\n{{Wenn Selbstlosigkeit selbstlos wäre, wäre es losgikat.}}"
}
