{
  "user": "Woodpecker68",
  "text": "Professor-Fred [[läuft auf der Wiese]]: Der wichtigste Teil meines Alltags...\r\n\r\nProfessor-Fred: ...bin ich!\r\n\r\nProfessor-Fred [[läuft auf der Wiese]]: Deswegen liebe ich Alltag so sehr!!\r\n\r\n{{Sternenklare Nächte sind All-Tage.}}"
}