{
    "text": "Fred [[schaut an sich herunter]]: Ich dachte kurz, ich sei zu dick.\r\n\r\nFred [[eine Kerze schwebt über dem Kopf]]: Doch dann fiel mir ein...\r\n\r\nFred [[freudig]]: ...ich bin ja zweidimensional!\r\nKäfer: ?!\r\n\r\n{{Daher auch die flachen Witze.}}",
    "user": "Woodpecker68"
}