{
    "text": "Käfer: Ich glaube, es wird allmählich Zeit, den Weihnachtsbaum zu entsorgen...!\r\n\r\nFred: Oh nein...! Muss das sein? Er ist doch immernoch wunderschön!\r\n\r\nFred: ... und ausserdem nadelt er überhaupt nicht!\r\n\r\nKäfer: stimmt.\r\n[[Kahler Baum hängt an der Höhlendecke]",
    "user": "Drachin"
}