{
    "text": "Käfer: Ich glaube, es wird allmählich Zeit, den Weihnachtsbaum zu entsorgen...!\r\n\r\nFred: Oh nein...! Muss das sein? Er ist doch noch immer wunderschön!\r\n\r\nFred: ...und ausserdem nadelt er überhaupt nicht!\r\n\r\nKäfer: Stimmt.\r\n[[Vollkommmen kahler Weihnachtsbaum, von der Decke hängend]]",
    "user": null
}