{
    "text": "Professor-Fred: Reime sind eine Art von versenden...\r\n\r\nProfessor-Fred [[mit einem Brief]]: daher reim ich jetzt diesen Brief...!\r\nKäfer: !\r\n\r\n{{Nicht umsonst klingen 'Poesie' und 'Post' fast gleich. Äh.}}",
    "user": "Woodpecker68"
}