{
    "text": "Käfer: Fest steht...\r\n\r\nKäfer: Es gibt an Silvester immer einen Vorsatz...\r\n\r\nKäfer: ... der alsbald wieder gebrochen wird...\r\n\r\nFred: Nie wieder Alkohol!*Brech*\r\nKäfer: *Seufz*",
    "user": "leseratte12"
}