{
    "text": "Panel 1: Fred: &quot;Ein Wicht zeichnet sich vor allem durch geringe Größe aus...&quot;\r\nPanel 2: Fred: &quot;Womit also bewiesen wäre...:&quot;\r\nPanel 3: Fred mit Käfer auf dem Arm: &quot;Kleine Dinge sind wichtig!&quot;; Käfer: &quot;?&quot;\r\n\r\n{{Größe -- Und märchenhaft.}}",
    "user": "Woodpecker68"
}