{
    "text": "Fred: Meine neueste Erfindung: Eine Xylophon-Parkbank!\r\n\r\nFred: Nun brauche ich nur noch viele Banknoten...!\r\nWurm: ?\r\n[[Parkbank erinnert an eine Liegebank]]\r\n\r\n{{alt-text: Tatsächlich begeistert mich die Idee einer Xylophon-Parkbank sehr [und Freds Fliege fetzt sowieso].}}",
    "user": "Lorena"
}