{
    "text": "Fred [[begeistert zu Käfer]]: Ich lerne gerade griechisch!\r\n\r\nKäfer: Und? Was kannst du schon?\r\n\r\nFred [[schläft am Filosofiestein und schnarcht &quot;Omega&quot;s,]]\r\nKäfer [[schaut zu]]\r\n\r\n{{Ausserdem kann Fred auf griechisch schweigen.}}",
    "user": "Woodpecker68"
}