{
    "text": "'Stellenbeschreibung:'\r\nFred: Hier ist alles wundervoll!&lt;3\r\nFisch: &lt;3\r\nSchnecke [[auf dem kleinen Stein]]: &lt;3\r\nKäfer [[auf dem Filosofiestein]]: &lt;3\r\nMaulwurf: &lt;3\r\nWurm [[sitzt auf Maulwurf]]: &lt;3\r\nSpinne: &lt;3\r\n\r\n{{Und irrgendwer hat die Stelle mit seinen Initialen und 'fonflatter.de' beschrieben.}}",
    "user": "Woodpecker68"
}