{
  "user": "Woodpecker68",
  "text": "Fred [[liegt am Filosofiestein]]: Nach dem Aufwachen fühle ich mich stets wie beugeboren!\r\n\r\nFred [[steht auf und läuft mit schalgenden Flügeln weg]]: So viele Neues und Spannendens liegt direkt vor mir!\r\n\r\nFred: Auchwachen ist wundervoll!\r\n\r\nFred [[liegt mit geschlossenen Augen am Filosofiestein]]: Deswegen schlafe ich so oft!!\r\n\r\n{{Wachtel. Müdetel.}}"
}