{
    "user": "Woodpecker68",
    "text": "Fred [[liegt neben Käfer unterm Sternenhimmel auf der Wiese]]: Ich würde ja näher rücken...\r\n\r\nFred: ...aber ich weiss nicht, wie das geht...!\r\n\r\nFred [[sitzend neben Käfer]]: Ich glaube, ich muss zur Rückenschule!\r\nKäfer: seufz\r\n\r\n{{Für Purzelbäume geht man übrigens auf die Baumschule.}}\r\n"
}
