{
    "text": "Fred: Der Mond ähnelt einer Sichel...\r\n\r\nFred: Eine Sichel ist im Prinzip so etwas wie eine kleine Sense. Sensen nutzt man, um Gras zu schneiden, das getrocknet und somit zu Heu wird. Dieses Heu dient der Fütterung von Nutztieren wie Schafe, Ziegen oder Kühe. Die Tiere wiederum geben Milch, und aus Milch macht man Käse...\r\n\r\nFred: Womit eindeutig bewiesen wäre...\r\n\r\nFred: ...dass der Mond aus Käse besteht...!\r\nKäfer: ??",
    "user": null
}