{
    "text": "Fred: Bei diesen Temperaturen reicht es, sich nur etwas leichtes anzuziehen...\r\n\r\nFred [[mit einem Rock aus Papierseiten]]\r\nKäfer: Sind das Sudokus?\r\n\r\n{{Fred rockt!}}",
    "user": "Woodpecker68"
}