{
    "text": "Fred zu Käfer: Im neuen Jahr ist alles so wunderbar neu!\r\n\r\nFred: Wirklich alles!!\r\n\r\n{{Manchmal hat der Mouseovertext gar nichts mit dem aktuellen Comic zu tun.}}",
    "user": "Woodpecker68"
}