{
    "text": "Fred: Ich habe gestern über mich nachgedacht... [sitzt auf dem Boden]]\r\n\r\nFred: ...und bin zu einer interessanten Erkenntnis gelangt...:\r\n[[steht]]\r\n\r\nFred: Ich bin zu Höherem bestimmt! [[hat eine Krawatte mit einem Pfeil nach oben an]]\r\n\r\nFred: Viel besser! [[Steht auf dem Filosofierstein]]\r\nWurm: ?",
    "user": "Sanne"
}