{
    "text": "Fred: Erfahrungen sind besser\r\n\r\nFred: [[geht]] wenn es eigentlich Ergehungen sind\r\n\r\n{{alt-text: Oder Erstehungen. Oder Erschwimmungen. Oder Erhüpfungen. Oder...}}",
    "user": "ksa"
}