{
    "user": "Woodpecker68",
    "text": "Käfer: Fred hat eine neue Zahl erfunden!\r\nFred [[sitzt kauend auf der Wiese]]\r\n\r\nFred [[spricht mit vollem Mund]]: Mpf!\r\n\r\nKäfer: Sie definiert die Menge...\r\n\r\nKäfer: ...der Kekse in Freds Mund!\r\nFred: Mpf!\r\n\r\n{{Zahlotitis.}}"
}
