{
    "text": "[[Fred und Käfer stehen unter dem Sternenhimmel]]\r\n\r\nFred: Angeblich sind Sterne ja riesige Gaskugeln...\r\n\r\nFred: *pups*\r\n\r\nFred: A new Start is born...!\r\nKäfer: Iieh!",
    "user": null
}