{
    "text": "[[Fred hat ein Plakat mit einem Ei und ein Plus]]\r\n\r\n[[Weiter geht es mit einem Schiff mit Pfeil auf das Segel und ein Gleichzeichen]]\r\n\r\n[[Hinter dem Gleichzeichen kommt ein Seeigel; Ganzes Plakat: Ei+Segel=Seeigel]]\r\n\r\n{{alt-text: Hühnerproduktboot? Ovumdreieck?}}",
    "user": "Lorena"
}