{
    "text": "Fred: In Anbetracht der allgemeinen Silvesterknallerei...\r\n\r\nFred: konnte ich mich des Drangs nicht erwehren...\r\n\r\nFred: ...ein Feuerwerk zu besorgen...\r\n\r\nKäfer: Schööön! [[Fred hat eine Wunderkerze angezündet]]",
    "user": "Sanne"
}