{
    "text": "[[2 Regenwürmer kommen mit einem Bleistift aus der Erde]]\r\n\r\n[[1 Wurm versucht etwas auf den Filosofierstein zumalen]]\r\n\r\n[[1. Wurm versucht etwas auf den Filosofierstein zumalen und der andere eilt jetzt dazu]] \r\n\r\n[[Die Regenwümer haben Schneckenhäuser auf den Stein gemalt und stellen sich genau davor, so das sie jetzt wie Schnecken aussehen]]\r\nFred:\"?\"",
    "user": "ksa"
}