{
  "user": "Woodpecker68",
  "text": "Fred [[laufend]]: Ich bin um Sieben mit Käfer verabredet...\r\n\r\nFred: Er will mir eine Uhr schenken - damit ich pünktlicher werde.\r\n\r\nFred [[bleibt stehen]]: Allerdings weiß ich gar nicht, wie spät es ist...!\r\n\r\nFred [[liegt schlafend am Filosofiestein]]: Z\r\n\r\n{{Vera Bredung.}}"
}