{
    "text": "Fred [[mit einem Buch]]: Die Geschichte und das Geschehen innerhalb eines vielblättrigen Printerzeugnisses.\r\n\r\nFred [[sitzt vor einem offenen Buch]]: Verkaufsraum für vielblättrige Printerzeugnisse.]]\r\n\r\n{{Tipp: Beide Panele beschreiben dasselbe Wort.}}",
    "user": "Woodpecker68"
}