{
    "text": "Fred: Ich darf viel essen, da ich heute sport getrieben habe...\r\nKäfer: !\r\n\r\nKäfer: Was für Sport denn?\r\n\r\nFred: Gewichtheben!\r\nKäfer: ?\r\n\r\nKäfer: Und mit \"Gewicht\" meinst du \"ein Teller voller Kekse\"...?\r\nFred: Hihi!",
    "user": "Sanne"
}