{
  "user": "Woodpecker68",
  "text": "Fred [[hält eine lange Liste in den Händen]]: Uff- Heute steht wieder viel auf der To-Do-Liste!\r\n\r\n[[Liste]]: Aussschlafen - Entspannen - ruhig bleiben - Herumliegen (durchgestrichen) - Innehalten - hier sein - erholen - genießen - schlummern - abwarten\r\n\r\n{{Wenn man an ein L ein Gleichheitszeichen klebt,  gilt: L ist E, also ListE. Bzw. L=E. Bzw. EE.}}"
}