{
    "text": "Fred: Käfer! Käfer! Komm schnell her! Ich habe einen besonders gruseligen Pilz entdeckt!\r\n\r\nFred: Er sieht im Prinzip aus wie ein Fliegenpilz...\r\n\r\nNur mit schwarzen statt mit weissen Punkten\r\n\r\n[[Fred merkt das es Käfer ist]]\r\nUps...",
    "user": "ksa"
}