{
    "text": "Fred: Immer, wenn ich hier oben... [[fliegt in den Wolken]]\r\n\r\nFred: ...durch die Lüfte flattere...\r\n\r\nFred: ...denke ich nur an eines:...\r\n\r\nFred: Immer, wenn ich hier oben...",
    "user": "Sanne"
}