{
    "text": "Schnecke: Ich komme schon wieder zu spät zur Arbeit...!\r\n\r\nKäfer: Wo arbeitest Du denn?\r\n\r\nSchnecke: Ich mache Home office!\r\nKäfer: !\r\n\r\n{{Haben Nacktschnecken Urlaub?}}",
    "user": "Woodpecker68"
}