{
    "text": "Fred: Es ist erstaunlich: ...\r\n\r\n[[Fred läuft mit Koffer durch die Gegend.]]\r\nFred: Egal, wie, wann, wo oder mit wem ich Urlaub mache, ...\r\n\r\nFred: ... Es ist immer eine Rundreise...!\r\n[[Fred hält sich lachend den Bauch.]]",
    "user": null
}