{
    "user": "Woodpecker68",
    "text": "Fred [[sitzt nachdenklich im linekn Teil des Panels auf der Wiese]]: Anstatt darauf zu warten, dass Schönes zu mir kommt...\r\n\r\nFred: ...gehe ich lieber selber hin!\r\n\r\nFred [[geht nach rrechts über die Wiese]]\r\n\r\nFred [[sitzt vor Schnekce auf dem Boden]]: Hi!\r\nSchnecke [[kommt von rechts ins Panel]]\r\n\r\n{{Schnecke nimmt sich mal wieder eine hAuszeit.}}"
}
