{
    "text": "Fred: Fest steht: Die besten Ideen kommen einem auf dem Klo!\r\n\r\nFred: Meine Theorie dazu lautet, dass die Abgabe stofflicher Produkte aus dem Körperinneren die Abgabe anderer, beispielsweise geistiger Produkte fördert...\r\n\r\nFred: ...wird die Logik dieses einleuchtenden Zusammenhangs nun invertiert, so stellt man fest, dass man theoretisch...\r\n\r\nFred: ...beim Essen am besten zuhört...!",
    "user": "leseratte12"
}