{
    "text": "Fred: Arrh! Arrh!! Rate mal, was heute für ein Tag ist...\r\nKäfer: ?\r\n[[Fred als Pirat verkleidet, der Wurm auf seiner Schulter]]\r\n\r\nKäfer: Der Verkleide-dich-ziemlich-sonderbar-Tag?\r\n\r\nFred: Nein, aber du darfst noch 2,1415926535... mal raten...\r\n\r\nKäfer: Dann... äh... der PiRatentag??\r\nFred: Arrh!",
    "user": null
}