{
    "text": "Fred: Vielleicht bin ich ja wirklich zu dick...\r\n\r\nFred: Vielleicht sollte ich wirklich ein paar Kilogramm abnehmen...\r\nKäfer: !\r\n\r\nFred: *seufz*\r\nKäfer: ?\r\n\r\nFred: Also muss ich mich wohl mal wieder waschen...\r\nKäfer: Iiiieh!!",
    "user": "sini"
}