{
    "text": "Fred: [[schaut betrübt]] Seufz\r\n\r\nFred: Ich mag es nicht aufzuwachen...\r\n\r\nFred: \"Wach\" besteht schliesslich nur aus...\r\n\r\nFred: \"Ach\" und \"weh\"...",
    "user": "Sanne"
}