{
    "text": "Fred: Ich wollte Käfer zu seinem morgigen Geburtstag einen Kuchen backen...\r\n\r\nFred: WEil aber zu befürchten war, dass ich ihn sofort aufessen würde...\r\n\r\nFred:...habe ich gleich zwei Kuchen gebacken...\r\n\r\nFred:...und jetzt habe ich Doppelbauchschmerzen.",
    "user": "Lorena"
}