{
    "text": "Fred: Seufz\r\nKäfer: Was ist denn los?\r\n\r\nFred: Ich wollte ein Selbstportrait malen...\r\n\r\nFred: ...aber es ist total misslungen...!\r\n\r\n[[zeigt eine hübsche Fledermaus mit Schweinenase]]",
    "user": "Sanne"
}