{
    "text": "Fred: Ich bin heute faul und träge...\r\nKäfer:!\r\n\r\nFred: Ich sollte mich dafür bezahlen lassen...!\r\n\r\nFred:...als Träger!\r\nKäfer: Hihi!\r\n\r\n{{alt-text: Siehe auch Comic #361}}",
    "user": "Lorena"
}