{
    "text": "Käfer: Was machst du da?\r\nFred: Ich male.\r\n[[Fred schreibt mit einem riesigen Stift auf ein Papier]]\r\n\r\nKäfer: Das heisst \"Multiplizieren\".\r\n\r\nFred: Ach so.\r\n[[Auf dem Papier: 1*1=1 / 5*7=53 / 2*3 ..]]",
    "user": null
}