{
    "user": "Woodpecker68",
    "text": "Spinne [[hängt im Panel]]: Heute werde ich mich selbst motivieren...\r\n\r\nSpinne [[hängt im Panel]]: ...ohne jede Hilfe von Anderen!\r\n\r\nSpinne [[hängt im Panel]]\r\nFred [[schaut unten in der Ecke ins Panel]]: Du schaffst das!\r\n\r\nSpinne Spinne [[hängt mit geschlossenen Augen ins Panel]]\r\n\r\n{{Spinnen. Spaußen.}}"
}
