{
  "user": "Woodpecker68",
  "text": "Fred: Wenn du nervös bist, stell dir einfach vor...\r\n\r\nFred [[freudig mit ausgebreiteten Armen]]: ...alle anderen wären nackt!\r\n\r\nFred [[steht auf der Wise und schaut an sich runter]]: Ähm...\r\n\r\nFred [[grinst]]: Bist du gerade nervös, oder wie?\r\n\r\n{{Dieser Comic wurde nackt gezeichnet.}}"
}