{
    "user": "Woodpecker68",
    "text": "Fred [[liegt auf dem Bauch vor einer Blume]]: Hallo Frühlingsblume!\r\nBlume\r\n\r\nFred [[ganz dicht an der blüte]]: Ich heiße dich willkommen!\r\nBlume\r\n\r\nFred [[liegt auf dem Bauch vor einer Blume]]\r\nBlume: Hallo Dich-willkommen! Ich bin Blumi!\r\n\r\n{{Hallo Blumi. Der Herr Schöpfer war wieder einmal unglaublich kreativ bei der Auswahl deines Namens.}}"
}
