{
    "text": "Panel 1: Käfer zu Fred: &quot;Ich mag dich!&quot;\r\nPanel 2: Käfer nach rechts aus dem Bild, Fred :&quot;!&quot;\r\nPanel 3: Fred: &quot;Hiermit erkläre ich Käfer...&quot;\r\nPanel 4: Fred: &quot;...zu meinem Vorbild!!&quot;\r\n\r\n{{Ego -- Leute, die mich mögen, beweisen guten Geschmack.}}",
    "user": "Woodpecker68"
}