{
    "text": "Fred [[steht vor einem beschriebenen Blatt Papier, das an einem Stein liegt]]: Man muss ein Wahlprogramm nicht nur schreiben...\r\n\r\nFred [[hält das Schriftstück]]: ...sondenr anschließend auch umsetzen...!\r\n\r\nFred [[legt dsa Blatt etwas neben dem Stein auf den Boden]]: Mach es Dir bequem...!\r\n\r\n{{Mir ist das Wahlprogramm ja ein bischen zu einseitig.}}",
    "user": "Woodpecker68"
}