{
    "user": "Woodpecker68",
    "text": "Fred [[schaut in den Himmel]]: Es wird jetzt ziemlich lang regnen...\r\n\r\nFred [[steht freudig im Regen, die Regentropfen sind lang und schnurähnlich]]\r\nWurm\r\n\r\n{{Fred the wet bat.}}"
}
