{
    "user": "Woodpecker68",
    "text": "Fred [[freudig mit ausgebreiteten Armen auf der Wiese]]: endlich Regen!\r\n\r\nFred [[hält einen Keks]]: Endlich muss ich meine Kekse...\r\n\r\nFred [[kaut grinsend]]: ...nicht mehr so kauen!\r\n\r\n{{Gottesspeichel.}}"
}
