{
    "text": "Fred [[liegt am Stein, hält einen Keks]]: Männer, die viel weinen...\r\n\r\nFred [[liegt am Stein, hält einen angebissenen Keks]]: ...heißen Träner!\r\nWurm [[liegt neben Fred]]: z\r\n\r\n{{Trainer mögen Züge.}}",
    "user": "Woodpecker68"
}