{
    "text": "Fred: Ich liebe To-Do-Listen!\r\n\r\nFred: Nach erledigter Arbeit lösen sie eine Art zusätzlicher Zufriedenheit aus...\r\n\r\nFred: ...und besonders das Abstreichen fetzt... *streich*\r\n\r\n[[Liste in der Hand von Fred]] -Aufstehen- ; -Augen öffnen- ; -atmen- ; -lächeln- ; flattern ; -sprechen- ; essen ; schlafen",
    "user": "Sanne"
}