{
    "text": "[[Fred betrachtet ein Wellenbild]]\r\n\r\n[[Fred hängt ein Bild von sich auf das Wellebild]]\r\n\r\nFred: Womit bewiesen wäre:...\r\n\r\nFred: Ich bin ein VORbild!\r\nKäfer: Aber kein grosses...",
    "user": "Sanne"
}