{
    "text": "Fred: Grandios! Wundervoll!\r\n\r\nFred: Toll, dass es mir vergönnt ist, solche Schönheit, solche Pracht, erleben zu dürfen...\r\n\r\nFred: In der letzten Zeit habe ich ziemlich viel Glück bei diesen Preisausschreiben...!\r\n\r\nKäfer: 1. Preis: Eine romantische Höhlenwanderung um Mitternacht...",
    "user": "Sanne"
}