{
    "text": "Fred: Ich lege mich nicht gerne fest...\r\n\r\nFred [[liegt auf der Wiese]]: ...sondern weich. &lt;3\r\nWurm: !\r\n\r\n{{Festlegungen passieren, wenn Hühner hartgekochte Eier erzeugen.}}",
    "user": "Woodpecker68"
}