{
    "text": "Fred [[betrübt]]: Ich habe das Gefühl...\r\n\r\nFred: ...dass die schönen Dinge...\r\n\r\nFred: ...immer viel zu früh vorbei sind...\r\n\r\n[[4. Panel fehlt]]\r\n\r\n{{Ich fühle mich auch ziemlich vorbei.}}",
    "user": "Woodpecker68"
}