{
    "text": "Fred [[mit Winterschal]]: Dass die Tage kürzer werden...\r\n\r\nFred: ...weiß jeder...!\r\n\r\nFred: Aber bekommen sie auch Punkte?\r\n\r\nFred [[schaut rutner zu Käfer]]\r\nKäfer: ?\r\n\r\n{{Nun ja, wenn man Schnee als Punkte betrachtet...}}",
    "user": "Woodpecker68"
}