{
    "user": "Woodpecker68",
    "text": "Fred [[hält eine Uhr]]: Der Sekundenzeiger heißt so, weil er...\r\n\r\nFred [[hält die Uhr hoch]]: ...eine Sekunde lang ruhig bleibt, bevor er sich wieder bewegt.\r\n\r\nFred [[Kopf groß im Panel, hat eine Idee - Kerzensymbol über dem Kopf]]\r\n\r\nFred [[liegt am Stein]]: Ich bin ein Tageszeiger!\r\n\r\n{{Schau, eine Maus! - Schau, ein Mauszeiger!}}"
}
