{
    "text": "Fred: Es ist Mitternacht...! Geisterstunde...!\r\n\r\nFred: Pah! Von wegen! Ich bin jede Nacht wach, und mir sind noch nie Geister oder Dämonen, Höllenkreaturen oder Gruselgestalten begegnet...!\r\n\r\nFred: Wah!\r\n[[Fred erschreckt sich fürchterlich]]\r\n\r\nFred: Ach, du bist's nur...\r\nKäfer: ?",
    "user": null
}