{
    "user": "Woodpecker68",
    "text": "Fred [[schaut auf einen leeren Teller]]: Die Kekse sind schon wieder alle!\r\n\r\nFred: Wahrscheinlich isst irgendwer heimlich mit!\r\n\r\nFred [[schreit mir ausgebreiteten Armen]]: Vielleicht ein GEIST!!\r\n\r\nFred [[sitzt grinsend auf der Wiese vor dem leeren Teller]]: Ein Geist mit sehr gutem Gechmack! <3\r\n\r\n{{Furcht ist nur eine verwirrte Frucht.}}"
}
