{
    "text": "Fred: Als Osterhase würde ich die Eier dort verstecken...\r\n\r\nFred: ...wo sie niemand findet:\r\n\r\nFred: Außerhalb des Comics!\r\nOsterhase: ?\r\n[[Hinter dem Rahmen des letzten Panels lugt ein Osterei hervor.]]\r\n\r\n{{Ich suche Ostereier auch prinzipiell zuerst außerhalb der mir bekannten Welt.}}",
    "user": "his"
}