{
    "text": "Fred: Du kannst zu Halloween nicht einfach als Käfer herumlaufen! Käfer sind nicht gruselig, sondern nur knubbelig und süss!\r\n\r\nFred: Verkleide dich ! Als unheimlicher Geist zum Beispiel! Oder als bösartiger Vampir! Oder als hässliche Hexe! Als fieses Monster! Als dämonischer Teufel ...\r\n\r\nFred: Als irgendetwas Schreckliches, Furchtbares!\r\n\r\nKäfer: Als Fledermaus?!?",
    "user": "bastian"
}