{
    "text": "Fred:[[sitzt auf dem Stein]]Benutzt man den korrekten Komparativ von &quot;gut&quot;...\r\n\r\nFred:...müsste es eigentlich nicht &quot;Güterzug&quot;, sondern &quot;Besserzug&quot; heißen...!",
    "user": "ksa"
}