{
    "text": "Fred[[erfreut]]Natürlich bin ich Fußball begeistert!\r\n\r\nFred[[erfreut]]Mich interessieren nämlich runde Dinge und Tore\r\n\r\nFred[[lachend]]Rund[[Pfeil auf Keks und sich]], Tor[[Pfeil auf seien Mund]]\r\n\r\n{{Ich mag die Kekskrawatte}}",
    "user": "ksa"
}