{
    "text": "Fred: Ui...... Das ist ziemlich hoch...\r\n[[Fred hat Luftballon um den Bauch gebunden]]\r\n\r\nFred: Lieber Luftballon. Ich möchte wieder nach Hause... Fliegst du bitte nach unten?\r\n\r\nFred: ?\r\n\r\nFred: Ich hätte ihm Ohren zeichnen sollen!",
    "user": "sini"
}