{
    "user": "ksa",
    "text": "Fred[[am Filosofierstein liegend]]:Jetzt weiß ich endlich...\r\n\r\nFred[[am Filosofierstein liegend]]:...was meine liebste Schlafposition ist:\r\n\r\nFred[[am Filosofierstein liegend]]:Genau hier!\r\n\r\nFred[[am Filosofierstein liegend mit Herz über dem Kopf und winkend]]:Bei Euch...!\r\n\r\n{{Das soll aber nicht heißen, dass ihr soooo langweilig seit...}}"
}
