{
    "text": "Fred: In der Ruhe liegt die Kraft.\r\n\r\nFred: ? [[breitet seine Flügel aus, schaut fragend]]\r\n\r\nFred: Ich sollte mal wieder trainieren...!\r\n\r\nFred: zzZ [[hängt an der Decke]]",
    "user": "Sanne"
}