{
    "user": "Woodpecker68",
    "text": "Professor-Fred: Ursprünglich sollte man in der Schule...\r\n\r\nProfessor-Fred:...ja nur Bier und Schläge bekommen!\r\n\r\nProfessor-Fred [[auf der Wiese, spricht hinter vorgehaltener Hand]]:  Ich sag nur:\r\n\r\nProfessor-Fred:Hau-sauf-gaben.\r\n\r\n{{Das erinnert mich an Haus-Stiere.}}"
}
