{
    "text": "Frd [[mit einer dampfenden Tasse]]: Zu meinem Tee nehme ich gerne...\r\n\r\nFred [[trinkt]]: ...eine zusätzlichen Strich.\r\n\r\nFred [[hinter vorgehaltener Hand]]: Somit erfüllt er Wünsche!\r\n\r\n{{Und Tee wiederum ist ein gerader See mit Extra.}}",
    "user": "Woodpecker68"
}