{
    "user": "Woodpecker68",
    "text": "Fred [[auf der Wiese, hält sich den Bauch]]: Ich fühle es tief in meinen Eingeweiden...\r\nKäfer\r\n\r\nFred: Etwas schreckliches steht uns bevor!!\r\n\r\nFred [[auf der Wiese, läßt einen kräftigen Pups]]\r\n\r\nFred [[angeekelt, rennt nach links weg]]\r\nKäfer [[mit gequältem Gesicht, rennt nach rechts]]\r\n\r\n{{Eines Tages wird es Geruchscomics geben, und ich weiß nicht, ob das gut ist.}}"
}
