{
    "text": "Fred: Egal, wie sie sind\r\n\r\nFred: Die meisten Dinge haben eine Kehrseite\r\n\r\nFred: zum Beispiel Besen!\r\n[[Fred wischt den Boden mit eine Besen]]\r\n\r\n{{I don't kehr.}}",
    "user": "Gamlor"
}