{
    "text": "Kästchen: Keule [[die Eule auf dem Panel hat eine Keulen-Form]]\r\n\r\nKästchen: Beule [[die Eule hat ein Beule auf dem Kopf]]\r\n\r\nKästchen: Heue [[heulende Eule ist zu sehen]]\r\n\r\nKästchen: Eul of Olaz [[eine duftende Eule ist zu sehen]]\r\n\r\nKästchen: Seule [[Eine Eule die aussieht wie eine Holzsäule ist zu sehen]]\r\n\r\nKästchen: Freulein [[ne kleine süsse Eule]]\r\n\r\nKästchen: Feule [[Eine Eule und Fred schlafen tief beim Stein]]\r\n\r\n{{Alles Liebe, kleine Eule.}}",
    "user": "Gamlor"
}