{
    "user": "Woodpecker68",
    "text": "Fred [[liegt bäuchlings auf dem Filosofiestein]]: Ich habe mir angewöhnt, diese schönen Steine...\r\n\r\nFred [[liegt am Filosofiestein]]: ...als Schlaf-Unterlage zu verwenden...\r\n\r\nFred: Hoffentlich muss ich nicht eines Tages irgendwo...\r\n\r\nFred [[auf dem Stein sitzend]]: ...meine Unterlagen einreichen...!\r\n\r\n{{Oder einarmen.}}"
}
