{
    "user": "Woodpecker68",
    "text": "Käfer: Was machst Du denn hier?\r\n\r\nKäfer [[zu Fred]]: Ich dachte der Doktor hat die Bettruhe verordnet...!\r\nFred\r\n\r\nFred: Aber Betten sind nicht ruhig!\r\n\r\nFred [[in verschiedenen Tomlagen und Lautstärken]]: Quietsch Quietsch Quietsch Quietsch Quietsch Quietsch Quietsch Quietsch Quietsch Quietsch Quietsch Quietsch Quietsch Quietsch \r\nKäfer: seufz\r\n\r\n{{Postboten sind super im Auskurieren.}}"
}
