{
    "text": "Fred: Ich möchte mich vom oberflächlichen Äusseren abwenden und mich meinem Inneren Widmen: ...\r\n\r\nFred: der Suche nach mir selbst!\r\n\r\n[[Fred hat eine Idee.]]\r\n\r\n[[Fred klebt ein Plakat an einen Baum. Darauf zu sehen ist er selbst unter der Überschrift \"Gesucht\".]]",
    "user": "bastian"
}