{
    "text": "Fred: In meinem nächsten Zaubertrick...\r\nFred: ...werde ich all meine Magie einsetzen...\r\nFred: ...um meinen nächsten Zaubertrick...\r\nFred: ...zu verhindern.",
    "user": "Neil"
}