{
    "text": "Fred zu Käfer: Manchmal habe ich das Gefühl,...\r\n\r\nFred:...das mein Gedächtnis mich im Stich lässt...\r\nKäfer:\"?\"\r\n\r\nFred: ÄH...\r\nKäfer:\"??\"\r\n\r\nFred zu Käfer: Manchmal habe ich das Gefühl,...",
    "user": "ksa"
}