{
  "user": "Woodpecker68",
  "text": "Fred [[liest in einem dicken Buch]]: Jedes besonders wundervolle Jahr...\r\n\r\nFred [[mit freudig ausgebreiteten Armen]]: ...begann mit einem 01. Januar!\r\n\r\nFred [[fliegt zwischen den Wolken]]: Dieses Jahr wird wundervoll!!\r\n\r\n{{Jan und sein Bruder Febr Uar.}}"
}