{
    "text": "Fred: Manchmal möchte ich einfach nur weg von hier...!\r\nKäfer: ?\r\n\r\nFred: Besser! [[Fred hat sich von linke zum rechten Rand bewegt]]\r\nKäfer: !\r\n\r\n{{Gehweg != Geh weg}}",
    "user": "Gamlor"
}