{
    "text": "Panel 1: Käfer bedrückt: &quot;Ehrlichgesagt mag ich Erschrecken und Grusel nicht so sehr...&quot;\r\nPanel 2: Käfer: &quot;ich bevorzuge hübsche und niedliche Verkleidungen...&quot;\r\nPanel 3: Fred als Käfer verkleidet, Käfer als Fred verkleidet, beide: &quot;Hihi!&quot;, zwischen beiden liegt ein Keks\r\n\r\n{{Erschrecken -- Gruselkeks!}}",
    "user": "Woodpecker68"
}