{
    "text": "Fred [[vor einem Stein mit einem Keksteller drauf]]\r\nPfeil [[zeigt auf Freds Kopf]]: Haupt. (von Fred)\r\nPfeil [[zeigt auf die Kekse]]: Kekse. (neben Fred)\r\n\r\nFred: Womit bewiesen wäre...:\r\n\r\nFred [[futtert einen Keks]]: Nebensachen sind Hauptsachen!\r\n\r\n{{Und immer nach Bauchgefühl handeln.}}",
    "user": "Woodpecker68"
}