{
    "text": "Käfer: Das ist ein Maulwurf. Er lebt in selbst gegrabenen Gängen unter der Erdoberfläche...\r\nFred: Hallo Maulwurf!\r\n\r\nKäfer: Maulwürfe können mit ihren Augen nur hell und dunkel unterscheiden und sich daher fast blind...\r\n\r\nFred: Oh!\r\n\r\nFred: ICH SAGTE: HALLO MAULWURF!\r\nKäfer: Seufz",
    "user": "Sanne"
}