{
    "text": "[[Fred kommt ins Bild, es steht ein Teller mit Trauben auf dem Boden]]\r\n\r\n[[Fred verlässt das Bild, der Teller ist leer]]\r\n\r\n[[leerer Teller]]\r\n\r\nFred: [[schaut ins Bild]] Ich bin ein Weinträuber!",
    "user": "Sanne"
}