{
    "text": "Professor-Fred: Die Grenzen zwischen gut und schlecht...\r\n\r\nProfessor-Fred: ...sind oft recht schwammig...\r\n\r\nProfessor-Fred: Vielleicht sollten wir also nicht danach streben, besser zu werden...\r\n\r\nProfessor-Fred: ...sondern fredder!\r\n\r\n{{Ich vermute, die Prozedur berarf vieler Kekse.}}",
    "user": "Woodpecker68"
}