{
    "text": "Fred: Heute bleibe ich untätig.\r\n\r\n[[Fred bewegt sich nicht.]]\r\nKäfer: ?\r\n\r\n[[Fred bewegt sich nicht.]]\r\nKäfer: !\r\n\r\nKäfer: Das kann er gut.\r\n[[Fred grinst.]]",
    "user": null
}