{
    "user": "Woodpecker68",
    "text": "Fred: Bei dieser Hitze ist offenes Feuer ein sehr schlechte Idee!\r\n\r\nFred: Daher habe ich die Kerze mit Wasser gelöscht...!\r\n\r\nFred [[sitzt bis zum Bauch im Wasser]]: Mit viel Wasser!\r\nKäfer [[es schaut nur der Kopf aus dem Wasser]]: <3\r\n\r\n{{Feuer. Funser.}}"
}
