{
    "text": "Panel 1: Fred vor einem großen Stein: &quot;Dieser Stein kann wahrsagen.&quot;\r\nPanel 2: Fred: &quot;Jede einzelne seiner Voraussagungen traf hundertprozentig ein.&quot;\r\nPanel 3: Fred guckt lieb auf den Stein.\r\nPanel 4: Fred liegt gemütlich auf dem Stein: &quot;Allerdings sagt er nie etwas...&quot;\r\n\r\n{{Wahr -- Nie etwas. Nie etwas. Nie etwas. Nie etwas.}}",
    "user": "Woodpecker68"
}