{
    "text": "Fred: Angeblich ist es ziemlich schwer...\r\n\r\nFred: ...Diamanten zu teilen...\r\n\r\nFred: ...von wegen!\r\n[[Auf dem Flipchart: Diah-/mannten]]\r\n\r\n{{alt-text: 21 Diamanten / 3 = 7 Diamanten}}",
    "user": null
}