{
    "text": "[[Fred steht vor einem Schalter mit den Stellungen &quot;-&quot; (ausgewählt), &quot;ein&quot;, &quot;an&quot;.]]\r\nFred: ?\r\n\r\n[[Der Schalter steht auf &quot;ein&quot;. Vor Fred steht ein Schwein.]]\r\nFred: !\r\n\r\n[[Der Schalter steht auf &quot;an&quot;. Vor Fred befindet sich ein Schwan.]]\r\nFred: !\r\n\r\n{{Die Linie ist gar keine, sondern ein unsauber gekrakeltes 'achsinn'.}}",
    "user": "his"
}