{
    "text": "Panel [[oben links steht eine 1]]\r\nProfessor-Fred: Die einzige Zahl, deren Wert der Anzahl der Buchstaben ihres Zahlwortes entspricht...\r\n\r\nPanel [[oben links steht eine 2]]\r\nProfessor-Fred: ...ist vier!\r\n\r\nPanel [[oben links steht eine 3]]\r\nProfessor-Fred: Vier ist die perfekt Zahl!\r\n\r\nFred [[malt oben links ins Panel eine 4]]\r\n\r\n{{ }}",
    "user": "Woodpecker68"
}