{
    "text": "Fred: Hab' keine Zeit... ist bereits so kalt. Die anderen sind schon längst fort. ...muss hinterher! ...mich beeilen!\r\n\r\nFred: ...muss meine Sachen packen... hinterher fliegen... meinen Zug erwischen!\r\n[[Fred packt hektisch seinen Koffer]]\r\n\r\nKäfer: STOP! Kann es sein, dass du dich irgendwie verwechselst?\r\n\r\nKäfer: ... mit einem Zugvogel!?!\r\nFred: Ups...",
    "user": null
}