{
    "text": "[[Fred schaut verwirrt auf ein Blatt]]\r\nFred:???\r\n\r\n[[Auf dem Blatt steht: Könne Sie diese Frage mit Nein beantworten; das Kästchen mit Nein ist angekreuzt]]\r\n\r\n{{alt-text: [+] Käsebrötchen}}",
    "user": "Lorena"
}