{
    "text": "Fred: Erstaunlich, dass man besonders locker ist...\r\n\r\nFred: ...wenn man sich auf eine Fest befindet...!\r\n[[Fred macht voll die Party]]\r\n\r\n{{Ich bin vor allem dann Locker, wenn ich mit Käseresten vor Mäuselöchern sitze und ihre Besitzer bezirze.}}",
    "user": "Gamlor"
}