{
    "text": "Fred: Die Null ist eine symmetrische Ziffer.\r\n\r\nFred: Wenn man sie auf den Kopf stellt, sieht sie immer noch aus wie eine Null...\r\n\r\nFred:...doch werden so auf einfachste Weise Temperaturen unter Null...\r\n\r\nFred:...zu Temperaturen über Null...!\r\nKäfer:!",
    "user": "Lorena"
}