{
    "text": "Fred: Das neue Jahr hat begonnen...\r\n\r\nFred: Alles ist noch frisch und rein und neu...\r\n\r\nFred: Sniff [[Fred riecht unter seinem rechten Flügel]]\r\n\r\nFred: Fast alles ist noch frisch und rein und neu...",
    "user": "Kathi"
}