{
    "text": "Fred: Es isch eigentlich Ziemlich einfach...\r\n\r\nFred: ...Fragebögen auszufüllen...!\r\n[[Fred malt ein riesiges Fragezeichen auf der Tafel aus.]]\r\n\r\n{{Eigentlich ist es nicht einfach, sondern doppelt.}}",
    "user": "Gamlor"
}