{
    "text": "Schnecke [[von links ins Bild]]: Ich muss zur Post...\r\n\r\nSchnecke: ...ein Paket abholen...\r\n\r\nSchnecke: ...das der Postbote dorthin brachte...\r\n\r\nSchnecke: ...weil ich nicht zuhause war...!\r\n\r\n{{Post. Pwest.}}",
    "user": "Woodpecker68"
}