{
    "text": "Weihnachtsmann: Hohoho! Fröhliche Weihnachten! Weil du immer artig warst, kleiner Käfer, bekommst du dieses tolle Geschenk!!\r\n\r\nKäfer: Ach Fred, lass den Quatsch! Ich falle auf deine Maskerade nicht rein!\r\n\r\nKäfer: Zieh endlich dieses alberne Kostüm aus!\r\n\r\nWeinachtsmann & Batfred: Welches Kostüm???",
    "user": "Drachin"
}