{
    "text": "Käfer: Eine Ente...?\r\nFred: Nö!\r\n\r\nKäfer: Ein Löwe...?\r\nFred: Nö!\r\n\r\nKäfer: Ein .. äh ... Elefant...?\r\nFred: Richtig!\r\n\r\nFred: Ich liebe Schattenspiele im Dunkeln...!!\r\n\r\n{{alt-text: Ratespiel }}",
    "user": null
}