{
    "text": "Fred: Manchmal kichere ich...\r\n\r\nFred: ...nachdem ich etwas unwahres sagte...\r\n\r\n[[guckt nach oben]]\r\n\r\nFred: Hihi!\r\n\r\n{{alt-text: Ich nicht. Hihi.}}",
    "user": "Sanne"
}