{
    "text": "Käfer: Du hast den gestrigen Tag im Kalender markiert? Warum denn?\r\nFred [[steht mit einem Bleistift vor einem Kalender]]\r\n\r\nFred: Das war der Tag, an dem ich...\r\n\r\nFred: ...einen Tag im Kalender markierte!\r\nKäfer: seufz\r\n\r\n{{Das war einer der besten Tage, den Fred gestern erlebte.}}",
    "user": "Woodpecker68"
}