{
    "user": "Woodpecker68",
    "text": "Käfer: Und? Warst du erfolgreich bei der Eiersuche?\r\nFred [[liegt am Stein]]\r\n\r\nFred: Ja!\r\n\r\nKäfer: Wieviele Ostereier hast du denn gefunden?\r\n\r\nFred [[liegt am Stein, hält sich den Bauch]]: Anderthalb Bauchschmerzen!\r\nKäfer: seufz\r\n\r\n{{Eine größere Eierkonzentration kann man übrigens finden, wenn man anstelle von Hühner- Fischeier sucht.}}"
}
