{
    "text": "Käfer: Ui! Eine Sternschnuppe!\r\n[[Käfer ist hell erleuchtet]]\r\n\r\nKäfer: Ich wünsche mir, dass Freds Fluch, bei dem er jeden seiner Sätze verdreifacht, verschwindet.\r\n\r\nFred: Ich glaube, es hat gewirkt!\r\n\r\nFred2: Glaube ich auch!\r\nFred3: Ich auch...\r\n[[Drei Freds sind um Käfer]]",
    "user": "sini"
}