{
    "text": "Fred [[isst eine Banane]]: Angeblich stopfen Bananen sehr gut.\r\n\r\nFred [[mit der halben Bananen und einem Socken mit Loch]]: Viel Erfolg. Liebe Banane!\r\n\r\n{{Ich bin ein Stop-Fan.}}",
    "user": "Woodpecker68"
}