{
    "text": "Fred: ! [[schaut auf einen Apfel, der neben einem Stamm liegt]]\r\n\r\nFred: Da zeigt sich mal wieder, dass Sprichwörter die Wahrheit sagen:\r\n\r\nFred: \"Der Apfel fällt nicht weit vom Stamm.\"\r\n\r\nKäfer: ...selbst wenn es sich um einen Kastanienbaum handelt...",
    "user": "Sanne"
}