{
    "user": "Woodpecker68",
    "text": "Fred [[läuft über die Wiese, eine Tasche umgehängt]]: Mittlerweile kann man acuh verpackungslos einkaufen...!\r\n\r\nFred: Daher verzichte ich beim Einkaufen...\r\n\r\nFred: ...auf Kleidung!\r\n\r\n{{Fred, das Beuteltier}}"
}
