{
    "text": "Stein\r\n\r\nStein\r\n\r\nSpinne [[hängt von der Decke]]: Warum befindet sich denn niemand in den ersten Panels?\r\nFred [[liegt am Stein]]\r\n\r\nFred: Weil Hitze nach oiben steigt...!\r\nSpinne: !\r\n\r\n{{Ui, ein heißer Stein. Fehlt nur noch Pizza.}}",
    "user": "Woodpecker68"
}