{
    "user": "Woodpecker68",
    "text": "Fred [[mit Taucherbrille und Schnorchel beim tauchen]]: Würde Schwamm nicht am Meeresgrund wachsen, sondern an der Meeresoberfläche\r\n[[auf dem Grund liegt ein Putzschwamm]]\r\n\r\nFred [[am Ufer stehend]]: ...hieße es schwimmt.\r\n\r\n{{Vielleicht sollte es 'Taucht' heißen.}}"
}
