{
    "text": "Fred: Ich verwechsle ständig die Himmelsrichtungen.\r\n\r\nFred: Deshalb weiß ich auch nie, was ich euch wünschen soll...\r\n\r\nFred: Fröhliche WESTERN oder\r\n[[Fred als Cowboy]]\r\n\r\nFred: Fröhliches Ostern!\r\n[[Fred als Osterhase, der O als Osterei ausspricht]]",
    "user": "sini"
}