{
    "text": "Fred [[mampft ein Stück Torte]]: Wenn ich an Gewicht zunehme...\r\n\r\nFred [[sitzt auf dem Filosofiestein mit einem Teller Kekse]]: ...werde cih dan eigentlich massiert...?\r\nKäfer: Seufz\r\n\r\n{{Zunahmi.}}",
    "user": "Woodpecker68"
}