{
    "text": "Fred: Links...\r\n\r\nFred: Rechts!...Rechts!\r\n\r\nFred: Jaaa... Noch ein bisschen drehen...\r\n\r\nFred: Ich liebe Tetris...!\r\n[[Fred mit Spinne, Schnecke, Käfer und Wurm gut ins Bild gestapelt]]",
    "user": "sini"
}