{
    "user": "Woodpecker68",
    "text": "Fred [[nachdenklich]]: Wenn man mit Wachs...\r\n\r\nFred [[nur die obere Kopfhälfte zu sehen]]: ...haare entfernt...\r\n\r\nFred [[nur die Augen und Ohren zu sehen]]: ...was genau passiert eigentlich...\r\n\r\nFred [[sitzt auf dem Stein]]: ...wenn man sich die Haare wachsen lässt?\r\n\r\n{{Wachs mal, Stift!}}"
}
