{
  "user": "Woodpecker68",
  "text": "Fred: Wenn ich mich entscheiden muss, werfe ich eine Münze…\r\n\r\nFred [[ wirft ein Münze weg]]: …ganz weit weg.\r\n\r\nFred: Nach dieser sehr dummen Entscheidung steigt die Wahrscheinlichkeit…\r\n\r\nFred [[grinst]]: …dass die nächste Entscheidung klug sein wird!\r\n\r\n{{"
}