{
    "user": "Woodpecker68",
    "text": "Fred [[freudig, vor einem kleinen Tannenbaum im Schnee]]: Ich habe einen Weihnachtsbaum gefunden...!\r\n\r\nFred [[schaut glücklich runter auf den Baum]]: <3\r\nKäfer[[steht neben Fred, ist nur ein bisschen größer wie der Baum]]: Ist er nicht zu klein?\r\n\r\nFred [[streicht Käfer über den Kopf]]: Ich mag klein!\r\nFisch [[steht mit seinem Glas neben Käfer und Fred]]\r\nSpinne [[hängt von oben neben dem Baum]]\r\nSchnecke\r\nMaulwurf [[schaut aus seinem Hügel zum Baum]]\r\n\r\n{{KlEin. KlAus.}}"
}
