{
    "user": "Woodpecker68",
    "text": "Fred: Wir machen zu Halloween nichts besonderes...\r\n\r\nFred [[grinsend]]: ...sondenr gehen einfach als wir selbst\r\n\r\n[[In der Höhle]]\r\nMaulwurf [[schaut wie Käfer gepunktet aus dem Boden]]\r\nFisch [[hängt mit seinem Glas wie Spinne von der Decke]]\r\nSchnecke [[hängt kopfüber schlafend an der Höhlendecke]]: z\r\nWurm [[sitzt in einem Wasserglas auf dem Filosofiestein]]\r\nKäfer [[sitzt in einer Torte auf dem kleinen Stein]]\r\nSpinne [[hängt mit Sonnebrille und Blindenarmband von der Decke]]\r\nFred [[kriecht mit einem kleinen Haus auf dem Rücken über den Boden]]"
}
