{
    "user": "Sanne",
    "text": "Käfer: Freds Taktik ist einfach...\r\n\r\nKäfer: Es ist heiss, und er schwitzt.\r\n\r\nKäfer: Und wenn er sich lange genug nicht wäscht...\r\n\r\nKäfer: Wird das Wetter nachgeben...\r\nKäfer: ...und freiwillig Regen schicken...!\r\n[[[[Fred sitzt auf seinem Filosofierstein und stinkt]]\r\nSchnecke: Iiie!"
}
