{
    "text": "Fred: An manchen Tagen weiss ich einfach nicht,\r\n\r\nFred: was mir fehlt\r\n[[Fred hält den Umriss des Käfers in den Händen und ruht auf seinem Stein]]\r\n\r\n{{Punkte?}}",
    "user": "Gamlor"
}