{
  "user": "Woodpecker68",
  "text": "Käfer: Zum Schneemann-bauen braucht man eine Karotte!\r\n\r\nFred: eine Karotte?\r\n\r\nFred [[zeigt Käfer eine Schüssel voller Karotten]]: Ich habe aber siebzehn!\r\nKäfer: !\r\n\r\nFred [[sitzt im Schnee vor der Schüssel und isst eine Karotte]]: Schneemannbauen ist harte Arbeit!\r\nKäfer [[schaut zum Leser]]\r\n\r\n{{Give me möhr, möhr, möhr!}}"
}