{
  "user": "Woodpecker68",
  "text": "Professor-Fred: Man wird bis zu 23,5 % attraktiver...\r\n\r\nProfessor-Fred [[geht nach rechts aus dem Panel]]: ...wenn man wilde Behauptungen aufstellt.\r\n\r\n{{Alle Behauptungen beginnen mit einem BH.}}"
}