{
    "text": "[[Käfer schaut Fred zu, wie er einen Brief schreibt.]]\r\n\r\nBrief: Liebär Wainachtszmann, ich wüntsche mir fon dir, dass du den Wuntsch auf diehsem Wuntschtsättel erfülltst. Danke Danke! Der immär arrtige Vred\r\n\r\n{{Ich mag es ja ein bisschen, wie Fred es schafft, dasselbe Wort hintereinander richtig und falsch zu schreiben.}}",
    "user": "Woodpecker68"
}