{
    "text": "Bat-Fred [[kommt von links angelaufen, rechts steht der Filosofistein]]: Oh nein! Jemand hat mir Steine in den Weg gelegt...!\r\n\r\nBat-Fred [[flattert über den Stein hinweg]]: Aber das hält mich nicht auf!\r\n\r\nBat-Fred: [[liegt am Stein und schläft]]: Z\r\n\r\n{{Der mysteriöse Fall der in den Weg gelegten Steine bedarf gründlicher Investigation. Auch mit dem Rücken.}}",
    "user": "Woodpecker68"
}