{
    "user": "Woodpecker68",
    "text": "Fred: Heute habe ich gelernt...\r\n\r\nFred: ...das Kekse nicht auf Bäumen wachsen.\r\n\r\nFred [[sitzt auf einem Ast im Baum, hält einen Teller Keske]]: Also werden sie wohl so klein bleiben...!\r\n\r\n{{Wenn es Baumkuchen gibt, sollte (es) auch Baumkekse geben.}}"
}
