{
    "text": "Fred: Ich habe: einen dicken Bauch, einen Schlitten, eine Rute, einen grossen Sack und eine alberne Bommelmütze...\r\n\r\nFred: Theoretisch könnte ich in diesen Jahr die Geschenke verteilen..!\r\n\r\nKäfer: Dir fehlen noch rentiere und ein Bart!!\r\n\r\n[[Fred spannt Käfer vor den Schlitten]] Fred: HÜA\r\nKäfer: Ich hätte meine Klappe halten sollen...!",
    "user": "ksa"
}