{
  "user": "Woodpecker68",
  "text": "Fred [[zeigt seine Vampirzähne]]: Habt Angst vor Fledermäusen!\r\n\r\nFred: Ich komme zu euch nach hause...\r\n\r\nFred [[fliegt zwischen den Wolken]]: ...und futtere alle Kekse auf...\r\n\r\nFred [[fliegend]]: ...die ihr mir anbietet...! <3\r\n\r\n{{Angst. Ausgst.}}"
}