{
    "text": "Käfer: Was ist denn mit dir los?\r\n\r\nKäfer: ...du siehst so traurig aus... ich hatte dir ja geraten, nicht zu dieser albernen Karnevalsfeier zu gehen... aber du wolltest nicht auf mich hören...!\r\n\r\nFred: Naja, eigentlich war es ganz net... Aber irgendwie wurde ich total ausgegrenzt! Ich glaube...\r\n\r\nFred: ...die mochten mein Kostüm nicht...!\r\n[[Fred mit Hitlerfrisur und Bart]]",
    "user": null
}