{
    "text": "Fred: Kein Vergehen sollte ungestraft bleiben ...\r\nWurm: ?\r\n\r\nFred: Also: Sieh' dich vor, Zeit ... !\r\nWurm: !\r\n\r\n{{alt-text: Bin ja ein bisschen stolz darauf, mit der Überschrift sowohl die erdgeschichtliche Periode als auch das Studienfach zu bezeichnen}}",
    "user": "winnie"
}