{
    "text": "Fred [[hält einen Luftballon mit Fred-Gesicht]]: Luftballons heißen so, weil sie mit Luft gefüllt sind.\r\n\r\nFred [[mit dem Luftballon vor einem Teller Kekse]]: Ich bin ein Keksballon!\r\n\r\n{{Ballon. Balloff.}}",
    "user": "Woodpecker68"
}