{
    "text": "[[Fred schaut gequält]]\r\nFred: Mpfh Mpfh Mpfh !\r\n\r\nFred: Mpfh Mfmpfh Mhpff!!!\r\n\r\nKäfer: Ich übersetze das mal:...\r\n\r\nKäfer:\"Esst keinen Kleber!\"",
    "user": "Lorena"
}