{
    "text": "[[Fred sieht sich im Spiegel an.]]\r\nKasten ob Fred: derFred \r\nKasten ob Spiegel: derFred \r\n[[Die Schriftzeichen sind gespiegelt beim F]]\r\n\r\n{{Mein Spiegelbild beneidet mich übrigens um mein gutes Aussehen.}}",
    "user": "Gamlor"
}