{
    "user": "Sanne",
    "text": "Fred: \"Frühling lässt sein blaues Band wieder flattern durch die Lüfte...\"\r\n\r\nFred: ... wie ging's weiter?\r\n\r\nFred: [[schaut ratlos]]\r\n\r\nFred: ... und was ist eigentlich \"blau\" ...?"
}
