{
    "user": "Woodpecker68",
    "text": "Fred [[mit, Zylinder und Fliege, hält einen Zauberstab]]: Ich werde nun einen Hasen aus meinem Hut zaubern!\r\n\r\nFred [[hält den Zylinder und wedelt mit dem Zauberstab]]: Poff\r\n\r\nFred [[auf der Wiese, überrascht, denn aus dem auf der Wiese stehenden Hut kommt ein Elefant]]\r\n\r\nFred [[schaut trurig in den Zylinder]]: Ich muss wohl noch ein wenig üben...!\r\n\r\n{{Ein Hase wäre allerdings recht häslich.}}"
}
