{
    "text": "Fred: Oje! Ich wurde verzaubert und muss nun alles, was ich sage, dreifach sagen...!\r\n\r\nFred: Oje! Ich wurde verzaubert und muss nun alles, was ich sage, dreifach sagen...!\r\nKäfer: !\r\n\r\nKäfer: ?\r\n\r\nKäfer: Zum Glück kann Fred nicht sonderlich gut zählen...\r\nFred: Stimmt. Stimmt. Stimmt. Stimmt.",
    "user": "sini"
}