{
    "user": "Woodpecker68",
    "text": "Fred [[steht links im Panel auf der Wiese und zeigt nach rechts]]: Da sind Schnecke und Käfer\r\nSchnecke [[geht hinter Käfer nach rechts]]\r\nKäfer [[rechts im Panel, geht nach rechts ]]\r\n\r\nFred: Wenn man   sie   von hinten betrachtet...\r\n\r\nFred [[mit einer großen Eistüte mit drei Kugeln Eis]]: ...erhält man Eis.\r\n\r\n{{So eisfach geht das!}}"
}
