{
    "user": "Woodpecker68",
    "text": "Fred: Mütter füttern ihre Kinder mit Milch.\r\n\r\nFred [[hält eine dampfende Tasse]]: Solange man also Milch trinkt...\r\n\r\nFred [[trinkt aus der Tasse]]: ...ist man noch immer ein wenig Kind.\r\n\r\nFred [[grinst]]: Oder zumindest Kalb...!\r\n\r\n{{Kalbtraum.}}"
}
