{
  "user": "Woodpecker68",
  "text": "Fred [[hält ein Handy in beiden Händen]]: Telefone dienen vor allem dazu, den Liebsten zu sagen...\r\n\r\nFred [[drückst das Handy an sich]]: ...dass man sie mag! <3\r\n\r\nFred [[steht nachdenklich auf der Wiese]]\r\n\r\nFred: Können Kekse überhaupt telefoieren?!?\r\n\r\n{{Lieber als einen Anruf mag ich ja ein Anflüstern.}}"
}