{
    "text": "Professor-Fred: Gut und schlecht sind relativ...\r\n\r\nProfessor-Fred: Vielleciht wird also das Wettern icht schlechter...\r\n\r\nProfessor-Fred [[strahlend]]: ...sondern ich besser!\r\n\r\n{{Und bei gutem Wetter färbte Fred ab.}}",
    "user": "Woodpecker68"
}