{
    "text": "Professor-Fred: Ich werde oft gefragt, ob in meiner Brille...\r\n\r\nProfessor-Fred: ...überhaupt Gläser sind...\r\n\r\nProfessor-Fred [[mit zwei Trinkgläsern in der Brille]]: Manchmal.\r\n\r\n{{Ausgepresster Kartoffelsaft in derartigen Gläsern verleiht Sehstärke.}}",
    "user": "Woodpecker68"
}