{
    "text": "Fred [[liegt am Filosofiestein]]: Bei diesen Temperaturen...\r\nWurm [[liegt schlafend auf dem kleinen Stein]]: Z\r\n\r\nFred [[liegt am Filosofiestein]]: ...ist jede Bewegung anstrengend.\r\nWurm [[liegt schlafend auf dem kleinen Stein]]: Z\r\n\r\nFred [[liegt am Filosofiestein]]: Daher darf ich im heutigen Comic...\r\nWurm [[liegt schlafend auf dem kleinen Stein]]: Z\r\n\r\nFred [[liegt am Filosofiestein]]: ...reglos bleiben...!\r\nWurm [[liegt schlafend auf dem kleinen Stein]]: Z\r\n\r\n{{Reglose gewinnt man in der Reglotterie.}}",
    "user": "Woodpecker68"
}