{
    "text": "Fred: Ich werde heute ein bisschen fliegen...\r\n\r\nFred: ...allerdings nicht sehr schnell...\r\n\r\nFred ...und ziemlich niedrig...!\r\n\r\nFred [[liegt auf dem Boden und schläft]]: Z\r\n\r\n{{Das kann Fred übrigens auch in größerer Höhe. Wenn er sich voher auf einen Berg begibt.}}",
    "user": "Woodpecker68"
}