{
  "user": "Woodpecker68",
  "text": "Fred [[sitzt auf der Wiese vor einer brennenden Kerze]]: Diese Kerze hält viel länger, wenn ihr...\r\n\r\nFred: ...schnelle genug lest!\r\n\r\nFred [[sitzt auf der Wiese und schaut in die brennende Kerze]]\r\n\r\nFred [[die Kerze ist aus]]: Naja. Vielleicht beim nächten Advent!\r\n\r\n{{Leserschwerter.}}\r\n"
}