{
    "text": "Fred: Wenn jemand gute und intelligente Argumente hat...\r\n\r\n\r\nFred:...muss man auch mal zurückstecken und Fair genug sein...\r\n\r\nFred:...um dem anderen und schlaueren Recht zu geben.\r\n\r\nFred:[[dreht sich um 180°]] Stimmt!\r\n\r\n{{Wenn der Fred im ersten Panel der schlauere ist, dann wird wohl Fred mit der Zeit immer unschlauer. Oder der Schlauheitsgrad wird täglich zurückgesetzt.\r\nMmh. Ich weiß nicht, was stimmt. Aber es ist ja auch gerade später Abend.}}",
    "user": "ksa"
}