{
    "text": "Fred: Hey, kleiner Wurm komm zurück!\r\n\r\nFred: Ich tu dir auch nichts...\r\nKäfer: ?\r\n\r\nFred: Er vertraut mir nicht!\r\n\r\nKäfer: Vielleicht missfällt ihm die Geräuschkulisse...\r\nFreds Bauch: Knurr",
    "user": "sini"
}