{
    "user": "Wodpecker68",
    "text": "Fred [[mit einer Weihnachtsmannmütze auf, liest in einer Papierrolle]]: Zu Weihnachten stehen unartige Leute auf einer Liste und bekommen daher keine Geschenke.\r\n\r\nFred [[hält ein gepunktetes Osterei]]: Ostern ist da wesentlich subtiler...\r\n\r\nFred [[liegt bäuchlings auf dem Filosofiestein im Wald, überall verstekcte Ostereier]]: Faule Leute bekommen nichts!\r\n\r\n{{'UN-artig' bedeutet übrigens 'entsprechend der Vereinten Nationen'}}"
}
