{
    "text": "Fred: Jetzt habe ich total Lust auf etwas Süßes...\r\n\r\nFred: Mmhh... irgendwo hatte ich doch...\r\n[[Fred sieht sich um]]\r\n\r\nFred: Vielleicht dort drüben...\r\nWurm: ?\r\n\r\nFred: Aah ja!\r\n[[Fred betrachtet sich im Spiegel]]",
    "user": "sini"
}