{
    "text": "[[Fred wandert unter einen kahlen Baum hindurch und tritt fast auf ein Blatt]]\r\n\r\nFred: !\r\n\r\n[[Fred betrachtet Blatt]]\r\n\r\n[[Fred wandert weiter, das Blatt hat er an dem Baum befestigt]]",
    "user": "sini"
}