{
    "text": "Fred: Genießt den Augenblick!\r\n\r\nFred: Genießt außerdem:\r\n\r\nFred: Den Ohrenhorch!\r\n\r\nFred [[mit einem Stück Käse]]: Den Nasenriech!\r\n\r\nFred [[streckt die Zunge raus]]: Den Zungenschmeck!\r\n\r\nFred [[drückt Käfer]]: und den Hautfühl!\r\n\r\n{{Das gleiche gilt natürlich auch für sämtliche andere Sinne: Gnorphen, Repruktieren, Lupsknasten, Prieken, Hilihilohilieren, Üvven, Tschronken, ... und die Sinnesorgane: Snarfel, Plort, Lephohyben, Zwarfsze, Sardpfobb, Qwahajs, Demtolorö, Pleftaki und so weiter und so fort.}}",
    "user": "Woodpecker68"
}