{
    "text": "Fred: Jeden Tag dieselbe öde Monotonie...! [[hängt an der Decke]]\r\n\r\nFred: Ich halte das nicht mehr aus...!\r\n\r\nFred: Ich brauche etwas anderes... Abwechslung... Urlaub...!!\r\n\r\nFred: (denkt) Viel besser...! [[hängt an einer Palme auf einer kleinen Insel]]",
    "user": "Sanne"
}