{
    "text": "Fred [[steht im Gras]]: Hasen futtern das Gras...\r\n\r\n'...auf dem sie auch sitzen...!'\r\nHase [[mit Grashalm im Mund]]\r\n\r\nFred [[schaut nachdenklich]]\r\n\r\nFred [[beißt in den Filosofiestein]]: Happ!\r\n\r\n{{Mmmh. Essbare Kopfkissen.}}",
    "user": "Woodpecker68"
}