{
    "text": "Fred: Eine Münze!\r\n[[Sieht eine Münze vor sich liegen]]\r\n\r\nFred: Ich bin reich!!\r\n[[Hat die Münze aufgehoben]]\r\n\r\nFred: Jetzt kann ich es mir endlich leisten...\r\n\r\nFred: ...eine Münze zu verlieren...!\r\n[[Schmeißt die Münze lässig hinter sich]]",
    "user": null
}