{
    "text": "Fred: Winterkälte ist genial...! [[steht im Schnee, mit einer heißen Tasse]]\r\n\r\nFred: Aus viel zu heissem Kakao wird alsbald leckerer, trinkbarer Kakao...\r\n\r\nFred: ...und in Windeseile...\r\n\r\nFred: ...wunderbarstes Schoko-Eis...! [[löffelt Eis aus der Tasse]]",
    "user": "Sanne"
}