{
    "text": "Fred: Ich bin recht froh darüber...\r\n\r\n...das man für das Wort \"Vorschlag\"...\r\n\r\n...\"Schlagen\" als Wortstamm nutzte...\r\n\r\n...und nicht \"Hauen\"\r\n\r\n{{Vorschuss hingegen wäre schon fast wieder gut}}",
    "user": "ksa"
}