{
    "text": "Fred: Ich glaube, wir alle wären wesentlich glücklicher...\r\n\r\nFred: ...wenn wir anstelle von Sauerstoff...\r\n\r\nFred: Süssstoff atmen würden...!\r\nKäfer: !",
    "user": "Sanne"
}