{
    "text": "Fred [[mit Schal]]: Ich bin sooo hungrig...!\r\n\r\nFred: [[im Schnee]] Ich könnte einen ganzen Baum essen!\r\nKäfer:?\r\n\r\nFred: Naja...\r\nKäfer: ??\r\n\r\nFred [[isst einen Apfel]]: Zumindest einen zukünftigen!\r\n\r\n{{Babybäume! Mit blutigem Fruchtfleisch!}}",
    "user": "Woodpecker68"
}