{
    "text": "Fred: Ich HAB's!!\r\nKäfer: ??\r\n\r\nFred: Ich weiss jetzt endlich, wie der Titel meines Buches lauten soll...\r\n\r\nFred: Lange habe ich nachgedacht und überlegt - doch nun habe ich den perfekten Titel gefunden...:\r\nKäfer: !!\r\n\r\nFred: \"Das Buch mit dem unvollständigen Ti-\"\r\nKäfer: Seufz",
    "user": null
}