{
    "text": "Lots of instances we got stuck in a rut and truly assume we need a vacation.  Generally &lt;a href=&quot;http://www.meangreenlawncare.com/our-services/all-services.html&quot;&gt;thumbnail&lt;/a&gt; the trip impact can come about by generating  a change within the scenery exactly where you live.  You can find many fence companies in Dallas which will help you block out and transform the view of the residence.  The Dallas landscape boasts of a lot of distinct kinds of fencing. So no matter if you will be hunting for a chain hyperlink fence, a wood fence or even a vinyl fence make certain that you simply s",
    "user": "vx0s80A0ivxsJfg"
}