{
    "text": "Fred: Sicherlich sind wir beide, diese Blume und ich, wunderschön...!\r\n\r\nFred: Doch ist es falsch, zu sehr an solchen Oberflächlichkeiten festzuhalten...\r\n\r\nFred: Wichtig ist nicht nur das Äussere; wichtig ist vor allem innere Schönheit...!\r\n\r\nFred: *happ*\r\n[[Fred frisst die Blume]]",
    "user": null
}