{
    "text": "Fred [[hält ein Buch]]: Man sollte ein Buch niemals...\r\n\r\nFred [[schaut scharf auf das Buch]]: ...nach seinem Aussehen beurteilen...!\r\n\r\nFred [[balanciert das Buch auf dem Kopf]]: Schließlich wäre jedes Buch perfekt...\r\n\r\nFred [[mit dem Buch nach rechts ab]]: ...wenn ich es nach meinem Aussehen beurteilte...!\r\n\r\n{{Allerdings kann man Gärtner nach ihrem Aussäen beurteilen.}}",
    "user": "Woodpecker68"
}