{
    "text": "Fred: 2010 ist ein besonders tolles Jahr...!\r\nKäfer: ?\r\n\r\nFred: Es bekommt daher diesen Pokal überreicht!\r\nKäfer: ??\r\n\r\nKäfer: Wieso ist 2010 denn schon jetzt etwas besonderes?\r\n\r\nFred: Nunja, es hat schliesslich bereits am ersten Tag einen Pokal bekommen...\r\nKäfer: Seufz",
    "user": "Sanne"
}