{
    "text": "Fred: &quot;Morgenstund hat Gold im Mund.&quot;\r\n\r\nFred: Daher verschiebe ich immer alles auf Morgen...!\r\n\r\n{{Und weil man mit vollem Mund nicht spricht,...ähh...}}",
    "user": "ksa"
}