{
    "text": "Käfer: Sicherlich, ich sehe eigentlich immer toll aus...\r\n[[Käfer besieht sich im Spiegel]]\r\n\r\nKäfer: Heute aber bin ich irgendwie besonders hübsch...!\r\n\r\nKäfer: Aber das liegt vermutlich...\r\n[[Käfer guckt in Spiegel]]\r\n\r\nFred: An meinem neuen Hut!\r\nKäfer: ?\r\n[[Fred besieht sich im Spiegel und trägt einen Käferhut]]",
    "user": "sini"
}