{
  "user": "Woodpecker68",
  "text": "Professor-Fred [[mit Brille und Fliege]]: Ich werde eine Maschine erfinden, die dabei hilft...\r\n\r\nProfessor-Fred: ...Dinge zu erfinden!\r\n\r\nKäfer: Und wie soll sie funktionieren?!?\r\n\r\nProfessor-Fred [[zu Käfer gewandt]]: Das weiß die Maschine!\r\nKäfer [[schaut zum Leser]]: Seufz\r\n\r\n{{Ich mag es, wenn Dinge doppelt vereinfacht werden.}}"
}