{
    "text": "Fred [[steht vor der Staffelei mit einer Schatzkarte]]: P\r\n\r\nFred [[freut sich und ist gut drauf]]: E\r\n\r\nFred [[mit einer Stoffhaube über dem Kopf]]: K\r\n\r\nFred [[sitzt vor seinem Notebook und einem WLAN-Router]]: W\r\n\r\n{{Bob Dy}}",
    "user": "Woodpecker68"
}