{
    "text": "Schnecke: Ich lasse mir heute...\r\nSchnecke: ...viel Zeit...\r\n\r\nSchnecke: Denn Eile ist schliesslich auch nur...\r\nSchnecke: ...ein schwäbisches Hühnerprodukt!",
    "user": "Sanne"
}