{
    "user": "Woodpecker68",
    "text": "Fred [[auf der Wiese zu Käfer]]: Es ist noch Oktober...\r\nKäfer\r\n\r\nFred: ...und überall gebt es bereits Lebkuchen!!\r\n\r\nFred [[schaut sich um]]: Naja...\r\n\r\nFred [[leckt sich die Lippen]]: In meiner Nähe gibt es keine...!\r\nKäfer: Hihi!\r\n\r\n{{In meiner Hand werden Lebkuchen und zu Klebkuchen.}}"
}
