{
    "text": "Fred [[klein im Panel]]: ...die Panels...\r\n\r\nFred [[etwas größer, strahlt]]: ...nach Größe zu sortieren...\r\n\r\nFred [[nur Oberkörper zu sehen]]: ...eines Tages auf die Idee kommt...\r\n\r\nFred [[sein Kopf füllt fast das ganze Panel)): Ich hoffe nur, dass der Schöpfer nicht...\r\n\r\n{{nie passieren! wird Das}}",
    "user": "Woodpecker68"
}