{
    "user": "Woodpecker68",
    "text": "Fred [[liegt am Stein, links daneben steht ausserhalb der Greifreichweite ein leerer Teller mit ein paar Krümmeln drauf]]: Der letzte Keks ist lange her...\r\n\r\nFred [[liegt traurig am Stein, ein Teller mit einem Keks ausserhalb der Greifweite rechts vor sich]]: Der nächste Keks ist weit weg...\r\n\r\nFred: seufz\r\n\r\nFred [[liegt am Stein]]: Mittwoch.\r\n\r\n{{Mittwoch ist die Füllung im Wochenende-Sandwich.}}"
}
