{
    "text": "Fred [[liegt am Filosofiestein]]: Wenn mal nichts passiert...\r\nWurm: !\r\n\r\nProfessor-Fred [[vor der Staffelei]]: hat man immer noch Spass...!\r\nStaffelei-Bild: NichtSPASSiert\r\nWurm: Wuhu!\r\n\r\n{{Außerdem findet man noch diverse falsch und richtig geschriebene Personalpronomen. Und Personalpronomen sind bekanntlich Inbegriff von Spaß. Wuhuu!}}",
    "user": "Woodpecker68"
}