{
    "text": "Professor-Fred: Frühling...\r\n\r\nProfessor-Fred: ...sollte eigentlich Somm heißen!\r\n\r\nProfessor-Fred: ...und Herbst...\r\n\r\nProfessor-Fred: ...am Sommersten!\r\n\r\n{{Wobei der Frühling in diesem Jahr wohl eher 'am wintersten' heißen müsste.}}",
    "user": "Woodpecker68"
}