{
    "text": "Fred: Es ist bekannt, dass im Herbst eine Menge Leute eine Erkältung bekommen.\r\n\r\nFred: Außerdem werfen Bäume ihre Blätter ab.\r\n\r\nFred: Es liegt also nahe zu vermuten, dass die Bäume ihre Blätter ganz und gar nicht freiwillig verlieren...\r\n\r\nFred: ...sondern an Baum-Schnupfen leiden...!!\r\n[[Fred wickelt einen Schal um den Baum]]",
    "user": "sini"
}