{
    "user": "Woodpecker68",
    "text": "Fred [[hängt kopfüber von der Höhlendecke]]: Ich werde den heutigen Tag...\r\n\r\nFred: ...sehr gemütlich angehen...!\r\nKäfer: schaut von rechts ins Panel]]\r\n\r\nKäfer: Aber es ist schon wieder Schlafenszeit!\r\n\r\nFred [[grinst]]: Sag' ich aj...!\r\nKäfer: seufz\r\n\r\n{{Wer Mülsi frühstückt, beginnt den Tag gemüslich.}}"
}
