{
    "user": "Woodpecker68",
    "text": "Fred [[strahlend mit ausgebreiteten Armen]]: Ich liebe Sommeranfänge!\r\n\r\nFred [[sitzend vor einer Torte, Obst, Käse und Keksen]]: Denn alle Sommer beginnen mit S-en!\r\n\r\n{{Beginnen Winter mit W-en?}}"
}
