{
    "text": "Fred: Aahhh..., der Frühling naht...!\r\n\r\nFred: Nach all dem Glatteis, dem Schneematsch, der Kälte, nach all dem Frost, den eisigen Winden und Graupelschauern...\r\n\r\nFred: ...wird das Wetter endlich besser...!\r\n\r\n[[es fängt an zu regnen, Fred freut sich]]",
    "user": "Sanne"
}