{
    "user": "Woodpecker68",
    "text": "Fred: Fußball? Mag ich!\r\n\r\nFred [[sitzt auf der Wiese und isst einen Keks, vor sich einen Ball]]: Runde Dinge fetzen nämlich!\r\nKäfer [[sitzt Fred und dem Ball gegenüber]]: <3\r\n\r\n{{Zum Beispiel, wenn jemand eine Runde ausgibt.}}"
}
