{
    "text": "Käfer: Was glaubst du, welches der am häufigsten genutzte Buchstabe ist...? Fred: \"B\"\r\n\r\nKäfer: Und wie viele Fledermäuse, schätzt du, gibt es...?\r\nFrd:\"B?\"\r\n\r\nKäfer: Wie heisst die Hauptstadt von Mexico?\r\nFred:\"B!\"\r\n\r\nKäfer: Nun rate mal, welchen neuen Lieblingsberuf Fred derzeit ausübt...\r\nFred:\"B\"",
    "user": "ksa"
}