{
    "text": "Fred: Damit ich nichts vergesse, ...\r\n\r\nFred: ... mache ich mir bei wichtigen Sachen einen Knoten ins Taschentuch ...\r\n\r\nFred: Nanu?!? [[starrt auf knotenfreies Taschentuch]]\r\n\r\nKäfer: Nur wie sorgt man dafür, dass man nicht vergisst, den Knoten zu machen ...?\r\nFred: ?",
    "user": "bastian"
}