{
    "user": "Woodpecker68",
    "text": "Fred [[steht dozierend auf dem Stein]]: Strände sollten vor allem weich und breit sein!\r\nKäfer: ?\r\n\r\nFred: Deswegen sollte es nicht so schwer sein...\r\n\r\nFred [[liegt auf der Wiese, ein Stück Torte neben sich und einen angebissenen Keks in der Hand]]: ...die perfekte Strandfigur zu erreichen...!\r\nKäfer: !\r\n\r\n{{Strand. Strausd.}}"
}
