{
  "user": "Woodpecker68",
  "text": "Käfer [[alleine auf der verschneiten Wiese, schaut zum Leser]]\r\n\r\nKäfer [[schaut nach rechts]]: Ich stehe hier, genau wie du wolltest.\r\n\r\nKäfer: Aber warum?\r\n\r\nFred [[schaut vom rechten Panelrand zu Käfer]]: Weil das neue Jahr mit etwas wunderschönem anfangen sollte!!\r\nKäfer: <3\r\n\r\n{{Frohes Neüs!}}"
}