{
    "text": "Fred [[hängt in seiner Höhle an der Decke]]: Wenn die Erde so anziehend ist...\r\nWurm:?\r\n\r\nFred: ...warum bin ich dann nackt...?\r\n\r\n{{RD. NT. SN. ZL. IDJ.}}",
    "user": "Woodpecker68"
}