{
  "user": "Woodpecker68",
  "text": "Fred: Es weihnachtet allmählich...\r\n\r\nFred: Ich sollte mal weihnachtlich dekorieren...!\r\n\r\nFred [[schaut an sich runter]]: Zum Beispiel meinen Bauch...\r\n\r\nFred [[kauen mit einem Keks in den Händen]]: ...mit Plätzchen!\r\n\r\n{{In der Mitte der Dekoration  klebt eine englische Ratte.}}"
}