{
    "user": "Woodpecker68",
    "text": "Käfer [[auf der Wiese]]: Um Fred anzulocken...\r\n\r\nKäfer: ...braucht man nur den richtigen Köder...!\r\n\r\nKäfer [[sitzt unterm Sternenhimmel auf der Wiese]]\r\n\r\nFred [[kommt angeflattert]]: <3\r\nKäfer: !\r\n\r\n{{Köder sind sächsische Hunde.}}"
}
