{
    "text": "[[Fred auf dem Filosofierstein]]\r\nFred: Wall, nich, ter, m, ch, bbe, keln...\r\n\r\nFred: pt, gen, pfen. ke, üt, watte...\r\n\r\nFred: Ich glaube, ich brauche eine Krähe...!\r\n\r\n{{mpf, ss und nk habe ich auch ästhetischen Gründen einfach mal weggelassen}}",
    "user": "Lorena"
}