{
    "text": "[Fred schreibt in sein Tagebuch.]\r\nFred: Liebes Tahgebuch ...\r\n\r\nFred: Heute binn ich sähr seer -melankohl- -mählanch- mehl ...\r\n\r\nFred: Heute binn ich sähr seer -melankohl- -mählanch- -mehl- -depprimmi- -deprihm- debprimh ...\r\n[Fred guckt traurig.]\r\n\r\nFred: Heute binn ich sähr seer -melankohl- -mählanch- -mehl- -depprimmi- -deprihm- -debprimh- pfröhlich !\r\n[Fred grinst.]",
    "user": "winnie"
}