{
    "user": "Woodpecker68",
    "text": "Fred [[liegt am Filosofiestein, ein Becher steht auf dem kleinen Stein]]: Ich habe heute bereits zwei Gläser Wasser getrunken!\r\n\r\nFred [[liegt am Filosofiestein, ein Becher steht auf dem kleinen Stein]]: ...und eines gegessen!!\r\n\r\n{{WasserStoffTier.}}"
}
