{
    "text": "Fred [[mit Schal, hält eine Eistüte in der Hand]]: Sowohl Eismann... ... als auch Schneemann...\r\nSchneemann [[hält ebenfalls eine Eistüte]]\r\n\r\nFred [[entsetzt]]: ...sind Wassermänner!\r\n\r\n{{Dampfmann}}",
    "user": "Woodpecker68"
}