{
  "user": "Woodpecker68",
  "text": "Zauberer-Fred [[mit Magiermütze und Zauberstab]]: Ich werde dich  nun wunderschön zaubern!!\r\nKäfer: ??\r\n\r\nFred [[schwingt den Zauberstab]]: Abrakadabra!\r\n\r\nKäfer [[schaut an sich herunter]]: Ich sehe aus wie vorher!\r\n\r\nFred [[geht nach recht ab]]: Genau.\r\nKäfer: !\r\n\r\n{{Magier sind übrigens magierig.}}"
}