{
    "user": "Woodpecker68",
    "text": "Fred [sitzt mit Käfer auf dem Stein und schauen in den Sternenhimmel]]: Das Universum enthält sämtliche Kekse, die es gibt!\r\nKäfer\r\n\r\nFred [[schaut zu Käfer]]: Das Universum ist ein riesiger Magen!\r\nKäfer\r\n\r\n{{ }}"
}
