{
    "text": "Fred: Ich werde diese leere Geschenkschachtel füllen und dann irgendwo hinstellen, so dass irgendwer sie findet und sich ganz doll freut...!\r\n\r\nFred: Jetzt brauche ich nur noch den Inhalt... irgendetwas absolut wundertolles...!!\r\n\r\nFred: *kratz,kratz*\r\n\r\nFred: Passt nicht!\r\n[[Fred passt nicht in Geschenk]]",
    "user": "sini"
}