{
  "user": "Woodpecker68",
  "text": "Fred: Die richtige Hygiene ist nur eine Frage...\r\n\r\nFred [[auf der Wiese, Geruch zieht nach oben]]: ...der aktuellen Windrichtung.\r\n\r\n{{Reinheit. Rausheit.}}"
}