{
    "text": "Fred [[schaut auf eine Tablette]]: Dieses Medikament hilft wohl, länger wach zu bleiben.\r\n\r\nFred [[schaut fragend]]: Wie soll das gehen?\r\n\r\nFred [[liest den Beipackzettel]]: In der Packungsbeilage steht...\r\n\r\nFred [[stehend beim lesen eingeschlafen]]: Z\r\n\r\n{{ }}",
    "user": "Woodpecker68"
}