{
    "text": "Fred: Ich bin Vater geworden...\r\n\r\nFred: Mehrfach sogar!\r\n\r\nFred: Das war einfacher als ich dachte...\r\n\r\nFred: Schließlich liegen die Baum-Babys hier ja überall herum...",
    "user": "sini"
}