{
  "user": "Woodpecker68",
  "text": "Fred [[mit freudig ausgebreiteten Armen]]: Ich liebe Zahlen!\r\n\r\nFred [[hält die Hände vor den Bauch]]: Daher feiere ich jeden Tag...\r\n\r\nFred [[sitzt auf der Wiese, hinter sich einen Kuchen und vor sich zwei Teller mit Kekstürmen]]: ...dessen Datum eine Zahl enthält!\r\n\r\n{{Ich kannte Herrn Zahl noch, bevor er adlig wurde.}}"
}