{
    "text": "Fred: Ich habe heute festgestellt...\r\n\r\nFred: ...dass ich diese Waage kaum benutze...\r\n\r\nFred: Das bedeutet also...\r\n\r\nFred: ...dass ich wenig wiege...!",
    "user": "Sanne"
}