{
    "text": "[[Fred hebt einen Koffer]]\r\nFred: ächz\r\n\r\nFred: Diese Kofferschlepperei ist wirklich anstrengend!\r\n\r\nFred: Deswegen macht man danach auch meistens Urlaub...!",
    "user": "Lorena"
}