{
    "text": "Fred: Manchmal frage ich mich...\r\n\r\nFred: ...ob der Weihnachtsmann es überhaupt schaffen kann...\r\n\r\nFred: ...die vielen, vielen, vielen Geschenke zu transportieren...\r\n\r\nFred: ...die ich bekomme...!\r\nKäfer: Träumer!",
    "user": "Sanne"
}