{
    "text": "Fred: In diesen Glückskeksen befindet sich angeblich...\r\n\r\nFred: ...stets eine kleine, aber kostbare Weisheit.\r\n\r\nFred: Und tatsächlich stimmt es!!\r\n\r\nFred: Ich bin angefüllt mit 23facher Weisheit...!\r\nKäfer: !",
    "user": "Sanne"
}