{
    "text": "Fred: Es ist bei uns Tradition...\r\n\r\nFred: ...am zweiten Weihnachts-Feiertag zu verkünden...\r\n\r\nFred: ...das es bei uns Tradition ist,..\r\n\r\nFred: ...am zweiten Weihnachts-Feiertag zu verkünden...\r\n\r\nKäfer: HiHi!",
    "user": "Gamlor"
}