{
    "text": "Fred: Wow! Der Schreibblock ist magisch!\r\n\r\nFred: Jedes Wort, das ich falsch schreibe, streicht er automatisch durch!\r\n\r\nKäfer: Kann es ein, dass ein Schreibblock liniert ist...?\r\n\r\n[[Genau auf der Linie steht: Regän fädst....unt Tahgebuch...Kefer maint...abar]]\r\nFred: Ja. Wieso?",
    "user": "Lorena"
}