{
    "text": "Erzähler: Ausheit.\r\n[[Fred und Käfer stehen weit auseinander und sehen sich nicht an. Fred trägt eine gestreifte Krawatte.]]\r\n\r\nErzähler: Einheit.\r\nKäfer: Hihi!\r\n[[Fred und Käfer sitzen direkt nebeneinander. Fred streichelt Käfer und trägt eine gepunktete Krawatte.]]\r\n\r\n{{alt-text: Hach.}}",
    "user": "Gamlor"
}