{
    "text": "Fred [[mit Stern-Krawatte]]: Unter all den Minisern wäre ich vermutlich...\r\n\r\nFred [[strahlend]]: ...ein Maxistern!\r\nKäfer: !\r\n\r\n{{Naja, vielleicht auch ein Maxivollmond.}}",
    "user": "Woodpecker68"
}