{
    "user": "Woodpecker68",
    "text": "Fred [[schaut in den Himmel, es regnet]]: So... wenn derRegen mein ganzes Fell durchnässt...\r\n\r\nFred [[nachdenklich auf dem Stein im Regen sitzend]]: ...trage ich dann einen Regenmantel?\r\n\r\n{{Regenmantel und Genmanipulation haben erstaunlich viel genmansam.}}"
}
