{
    "text": "Fred: Mein Lieblingsbrettspiel ist übrigens...\r\n\r\nFred [[sitzt vor einer gedeckten Picknickdecke]] ...Frühstück!\r\nKäfer [[sitzt Fred gegenüber]]\r\n\r\n{{Fredspiel}}",
    "user": "Woodpecker68"
}