{
    "text": "Fred [[liegt am Filosfiestein]]: Ich schlafe viel besser als früher.\r\nWurm [[schläft]]: Z\r\n\r\nFred [[hinter vorgehaltener Hand]]: Ich habe heimlich geübt...!\r\n\r\n{{Und wenn es wam ist, schläft er auch länger.}}",
    "user": "Woodpecker68"
}