{
    "text": "Fred: Ein Hallenwart kümmert sich um eine Halle...\r\n\r\nFred: ...ein Torwart sich um ein Tor.\r\n\r\nFred: Da finde ich es doch wundervoll, dass sich auch jemand...\r\n\r\nFred: ...um die Präposition 'gegen' kümmert...!\r\n\r\n{{Wie geschickt ich doch in diesem Comic meine Heimatstadt erwähnte...}}",
    "user": "his"
}