{
    "text": "Fred: Darf man Geschenke vor Weihnachten öffnen...?\r\n\r\nFred: Der Weihnachtsmann war schon da und hat ein grosses Geschenk hinterlassen...\r\n\r\nFred: und ich wüsste doch so gerne...\r\n\r\nFred: ...was drin ist... [[schaut auf ein Päckchen in Form eines Weihnachtsbaumes]]",
    "user": "Sanne"
}