{
    "text": "Fred: Um welche Uhrzeit stehe ich normalerweise auf?\r\nFred: Um welchen Himmelskörper dreht sich die Erde?\r\n\r\nFred: Um welche Schuhgrösse handelt es sich hier?\r\nKäfer: Man ahnt es breits...\r\n\r\nKäfer: Fred startet heute lauter Umfragen...",
    "user": "Sanne"
}