{
    "text": "Fred: Es bringt Unglück, unter einer Leiter hindurchzugehen.\r\n\r\nFred: Dementsprechend bringt es mir wahrscheinlich Glück...\r\n\r\nFred: ...wenn die Leiter unter mir hindurchgeht...!\r\n\r\nFred: nun MACH' schon!!",
    "user": "Sanne"
}