{
    "text": "Fred: Heute fällt es mir schwer...\r\nWurm: ?\r\n\r\n[[jeweils ein Pfeil zeigt vom oberen Panel auf die beiden unteren]]\r\n\r\nFred [[mit Wurm auf dem Kopf]]: ...eine Wahl zu treffen.\r\n\r\nFred [[mit Wurm auf der Schulter]]: ...mich zu entscheiden.\r\n\r\n{{...mich auf etwas festzulegen.}}",
    "user": "Woodpecker68"
}