{
    "text": "[[Fred und Käfer stehen sich gegenüber, sind aber deutlich voneinander entfernt.]]\r\nFred: Manchmal muss man eben Entfernungen...\r\nKäfer: ?\r\n\r\n[[Das Panel sieht aus, als hätte jemand das leere Mittelstück zwischen Fred und Käfer weggeschnitten und die beiden Enden mit Tesa zusammengeklebt. Fred und Käfer sind einander somit nun sehr nahe. ]]\r\nFred... entfernen!\r\nKäfer: Hihi!\r\n\r\n{{alt-text: Welch schnippische Bemerkung!}}",
    "user": null
}