{
    "text": "Fred: Ich habe festgestellt\r\nKäfer: ?\r\n\r\nFred: da ich Donnerstags die Wochentage verwechsle\r\n\r\nKäfer: Aber heute ist Freitag!\r\n\r\n[[Fred strahlt mit Zufriedenheit]]\r\nKäfer: Seufz\r\n\r\n{{Donnerstags sind die Mittwoche besonders hübsch.}}",
    "user": "Gamlor"
}