{
    "text": "Fred [[liegt an einem Stein]]: Andere kämpfen für die Erhaltung von Parks, Museen oder Denkmälern.\r\nWurm: ?\r\n\r\nFred: Und was erhalt ich?\r\n\r\nFred [[strahlend, drückt Wurm]]: Kommentare!\r\nWurm\r\n\r\n{{Der museale Wert von Fredkommentaren ist allerdings unbestritten hoch.}}",
    "user": "Woodpecker68"
}