{
    "text": "Fred: If würde gerne ugeben, daff ich fu dick bin...\r\n[[Fred isst einen Keks]]\r\n\r\nFred: ...doch ich kann es nicht!\r\n\r\nFred: Schliesslich weiss ich überhaupt nicht, ob ich zuviel wiege...!\r\n\r\nFred: Mein Bauch versperrt die Sicht!\r\n[[Fred steht auf einer Waage]]",
    "user": null
}