{
    "user": "Woodpecker68",
    "text": "Fred [[sitzt auf der Wiese und liest in einem Buch]]: Aha!\r\nKäfer [[sitzt bei Fred auf dem Kopf und schaut auch in das Buch]]: !\r\n\r\nFred [[hält das zugeschlagene Buch]]: Lesen fördert anscheinend die Kreativität und steigert die Problemlösungsfähigkeit.\r\nKäfer [[noch bei Fred auf dem Kopf]]\r\n\r\nKäfer: Aber wie bringen wie die Leute dazu mehr zu lesen?\r\n\r\nFred [[hält Käfer im Arm, nachdenklich]]: Ich habe keine Idee...!\r\nKäfer\r\n\r\n{{Gute Zeilen. Schlechte Zeilen.}}"
}
