{
    "text": "Fred: Ich werde mich jetzt gertenschlank zaubern!\r\n\r\nFred: AbrakaDingsBums! [[schwingt den Zauberstab]]\r\n\r\nFred: [[guckt den Zauberstab verdutzt an]]\r\n\r\nFred: Mein Zauberspruch hat wohl versagt...!\r\n\r\n{{Werden Zauberstäbe nicht aus Gerten hergestellt?}}",
    "user": "Gamlor"
}