{
    "text": "Fred: Ich bin stets optimistisch, weil ich weiß...\r\n\r\nFred: ...dass am Ende alles wunderschön werden wird...!\r\n\r\nFred [[zeigt nach recht zu Panel 4]]: Das gilt übrgigens auch für diesen Comic.\r\n\r\n[[Fred steht strahlend im 4. Panel]]\r\n\r\n{{Ich bin ein bisschen in das hübsche Futur I im zweiten Panel verliebt}}",
    "user": "Woodpecker68"
}