{
    "text": "Professor-Fred: Frühling... genau die richtige Zeit...\r\n\r\nProfesor-Fred: ...um an der eigenen Bikinifigur zu arbeiten...!\r\n\r\nProfessor-Fred: Allerdings wurde der Bikini nach einem Atoll benannt...\r\n\r\nProfessor-Fred [[liegt am Stein und futtert einen Keks]]: ...und Atolle sind rund...!\r\n\r\n{{Und toll!}}",
    "user": "Woodpecker68"
}