{
    "text": "Fred [[hält einen Briefumschlag]]: Hier drin habe ich aufgeschrieben...\r\nKäfer: ?\r\n\r\nFred [[wedelt mit dem Brief]]: ...was in Zukunft geschehen wird...!\r\n\r\nKäfer: Zeig!\r\n\r\nFred [[faltet den Brief auseinander]]: 'Ich halte einen Zettel hoch'\r\nKäfer: seufz\r\n\r\n{{Und morgen ist Dienstag.}}",
    "user": "Woodpecker68"
}