{
    "text": "Professor-Fred: Die dinosaurier hatten keine Kekse.\r\n\r\nProfessor-Fred [[aufgeregt]]:  ...und dann starben sie aus...!\r\n\r\nProfessor-Fred [[sitzt bedrückt vor einem leeren Teller]]: Ich habe ein bischen Angst...!\r\nWurm\r\n\r\n{{Die Osaurier folgten den Regeln des Detuschen Instituts für Normung.}}",
    "user": "Woodpecker68"
}