{
    "text": "Käfer: ! [[vor ihm vibriert der Boden]]\r\nKäfer: !! [[ein kleiner Hügel entstet]]\r\nKäfer: !!! [[eindeutig ein Maulwurfshügel]]\r\nFred: Maulwurf hat recht: das fetzt! /Käfer: Hihi! [[Fred schaut aus dem Hügel]]\r\n\r\n{{alt-text: Hier ist mal wieder ein Alternativtext, der nichts mit dem Comic zu tun hat.}}",
    "user": "Woodpecker68"
}