{
  "user": "Woodpecker68",
  "text": "Fred: Ihr habt es vermutlich bereits bemerkt:\r\n\r\nFred: Mit jedem Lesen eines Fredcomics...\r\n\r\nFred: ...färbt ein bisschen meiner Großartigkeit...\r\n\r\nFred [[mit ausgebreiteten Armen auf der Wise]]: ...auch Euch ab!\r\n\r\n{{Das ist ein großar Tiger!}}"
}