{
    "text": "Professor-Fred [[liest in einm Buch]]: Luft ist ein schlechter Wärmeleiter.\r\n\r\nProfessor-Fred [[grinst]]: Deswegen sollte man sich bei Kälte...\r\n\r\nProfessor-Fred: ...mit allerlei fluffigem Zeug warme isolieren.\r\n\r\nProfessor-Fred [[freudig im Schnee]]: Zum Beispiel mit Schnee!\r\n\r\n{{Wärmel-Eiter}}",
    "user": "Woodpecker68"
}