{
    "user": "Woodpecker68",
    "text": "Schnecke [[auf der Wiese mit Fred vor einem Teller Kese]]: Kekse sind nicht sehr gesund. Dieser Teller enthält schon eine doppelte Tagesration an Zucker...!\r\nFred: !\r\n\r\nFred: Oh nein!\r\n\r\nFred [[kauend vor dem leeren Teller]]: besser?\r\nSchnecke [[schaut auf den Teller]]\r\n\r\n{{Ges&heit}}"
}
