{
    "text": "Fred: \"Der Klügere gibt nach.\" heisst es...\r\n\r\nFred: Wenn mein Bauch also Dicker wird...\r\n\r\nFred: ...werde ich weicher und nachgiebiger...\r\n\r\nFred: ...und somit immer klüger...!",
    "user": "Sanne"
}