{
  "user": "Woodpecker68",
  "text": "Fred: Um zu wissen, wann genau Schlafenszeit ist...\r\n\r\nFred: ...höre ich auf meinen Körper.\r\n\r\nFred [[liegt grinsend am Filosofiestein und schläft - neben sich einen Bleistift - auf seine Körperseite geschrieben steht 'jetzt']]: Z\r\n\r\n{{Das gleiche gilt für Essenszeit.}}"
}