{
    "text": "Fred [[schaut sich suchend um]]: ?\r\n\r\nFred [[schaut suchend hinter den Filosofiestein]]\r\n\r\nFred [[mit Käfer auf dem Arm]]: Nikolaus ist wie Ostern...\r\n\r\nFred: ...wenn man keine Schuhe besitzt...\r\n\r\n{{Und inmitten des Nikolauses ist eine Kola versteckt.}}",
    "user": "Woodpecker68"
}