{
    "user": "Woodpecker68",
    "text": "Fred [[nachdenklich]]: In diesem Jahr gibt es einen zusätzlichen Tag.\r\n\r\nFred [[aufgeregt]]: Wir sollten ihn nicht verschwenden!\r\nKäfer: !\r\n\r\nFred: Deswegen denke ich darüber nach, wie wir diesen einen zusätzlichen Tag prefekt nutzen werden...!\r\n\r\nFred: Seit drei Tagen!\r\nKäfer: seufz\r\n\r\n{{VerSchwenden. VerAnfangen.}}"
}
