{
    "text": "Fred [[mit Schal um den Hals und einem Schneeball in der Hand]]: Wenn Schneebälle aus Schnee bestehen...\r\nKäfer [[schaut zum Schneeball]]\r\n\r\nFred [[entsetzt]]: ...woraus bestehen dann Fußbälle?!?\r\n\r\n{{Und woraus bestehen Ballkleider?}}",
    "user": "Woodpecker68"
}