{
    "text": "Fred: Heute ist ein Tag voller...\r\n\r\nFred: Möglichkeiten...!\r\n\r\nFred: Alternativen...!\r\n\r\nFred: Optionen...!\r\n\r\nFred: Satzbeendender Krawattenträger...!",
    "user": "Sanne"
}