{
    "text": "Fred: Ich habe Appetit auf Kekse!\r\n\r\nFred [[nachdenklich]]: Obwohl...\r\n\r\nFred [[mit Wörterbuch]]: 'Petit' bedeutet im französischen 'klein'...\r\n\r\nFred: Ich habe Apgrand auf Kekse!\r\n\r\n{{Kekse oder Plätzchen?}}",
    "user": "Woodpecker68"
}