{
    "text": "Fred: mir ist Langweilig!\r\n\r\nFred: je häufiger ich auf die Uhr schaue, desto langsamer vergeht die Zeit...\r\n\r\n[[Fred hat eine Idee, Kerze erscheint über seinem Kopf]]\r\n\r\nFred: hihi!\r\nKäfer: seufz\r\n[[Fred hat sich die Augen verbunden]]",
    "user": "Drachin"
}