{
    "user": "Woodpecker68",
    "text": "Fred [[mit Krawatte]]: Obwohl Feiertag ist, werde ich heute arbeiten...\r\n\r\nFred [[freudig]]: ...doppelt so viel arbeiten!!\r\n\r\nFred [[liegt schlafend am Filosofiestein]]: ZZ\r\n\r\n{{May I? No, you have to!}}"
}
