{
    "user": "Woodpecker68",
    "text": "Fred [[sitzt auf einem Geschenk neben einem geschmückten Weihnachtsbaum]]: Ich habe in diesem Jahr gut aufgepasst...\r\n\r\nFred: ...aber ich haben den Weihnachtsmann trotzdem nicht gesehen...\r\n\r\nFred [[sitzt auf einem Geschenk neben einem geschmückten Weihnachtsbaum]]: Wie macht er das nur?\r\nMaulwurf [[trägt eine Pudelmütze, schaut weiter rechts aus einem Maulwurshügel, ein Gang geht von dort bis unter das Geschenk bei Fred]]: Hihi!"
}
