{
    "text": "Fred: Ich teste gerade, wie lange ich es schaffe, nicht auf die Uhr zu blicken...\r\n\r\nFred: WOW! Ich habe bereits mehr als sieben Stunden durchgehalten...! [[schaut auf die Uhr]]\r\n\r\n[[guckt]]\r\n\r\nFred: Mist.\r\nKäfer: Seufz",
    "user": "Sanne"
}