{
    "text": "Fred: Hier oben fühle ich mich leicht wie eine Feder...! [[fliegt beschwingt vor sich hin]]\r\n\r\n[[eine Feder schwbt hinab]]\r\n\r\n[[sie schwebt weiter nach unten, Fred schaut ihr nach]]\r\n\r\nFred: Wie eine grosse, dicke Feder... [[guckt betrübt]]",
    "user": "Sanne"
}