{
    "text": "Spinne[[bringt ein Paket]]\r\nFred[[freut sich]]:&quot;!&quot;\r\n\r\nFred[[öffnet das Paket]]:&quot;?&quot;\r\n\r\nKäfer:Was ist denn das?\r\nFred[[lacht und hält eine Lokomotive im Flügel]]\r\n\r\nFred:ist ein geschickter Spielzug!\r\nKäfer[[ist nur der Kopf zu sehen]]\r\n\r\n\r\n{{Deswegen mag ich Fußball.}}",
    "user": "ksa"
}