{
    "text": "Fred: Worüber ich mich besonders freue, ist ...\r\n\r\nFred: ... dass dieses Jahr so wundervoll begann ...!\r\nKäfer: ?\r\n\r\nKäfer: Wie denn?\r\n\r\nFred: Naja... indem ich mich darüber freue, dass dieses Jahr ...\r\nKäfer: Seufz",
    "user": "Andi"
}