{
  "user": "Woodpecker68",
  "text": "Fred [[steht auf der Wiese und schaut in den Himmel]]: Gleich regnet es!\r\nKäfer [[schaut auch hoch]]: Sieht nicht so aus...!\r\n\r\nFred [[steht auf der Wiese und schaut in den Himmel]]: Gleich!\r\nKäfer [[schaut auch hoch]]: Sicher?\r\n\r\nFred [[steht auf der Wiese und schaut in den Himmel]]: Gleich!\r\nKäfer [[schaut zu Fred]]\r\n\r\nFred [[steht auf der Wiese und schaut in den Himmel]]: Wenn ich das lang genug mache, habe ich irgendwann recht!\r\nKäfer [[geht nach rechts ab]]: Seufz\r\n\r\n{{sONne. sOFFne.}}\r\n\r\n"
}