{
    "text": "Fred: Wow! Was für ein grosser Umschlag! /Spinne [[mit Briefumschlag]]\r\nSpinne: und? Steckt auch wsa großes drin? /Fred ratsch\r\nFred: nur ein kleiner Zettel: /Spinne: ?\r\nFred: \"Dein Name ist zu lang für einen kleineren Umschlag!\" /Spinne: !",
    "user": "Woodpecker68"
}