{
    "user": "Woodpecker68",
    "text": "Fred [[mit Brille]]: Die Tür ist dort, wo die Wand keine Wand ist.\r\n\r\nFred [[sitzt auf dem Filosofiestein]]: Also eine Wausd.\r\nWurm [[schläft auf dem kleinen Stein}}: z\r\n\r\n{{Uhh, ein Schaltercomic ohne Schalter.}}"
}
