{
    "text": "Fred: Hallo! Wie geht's? [[Schnecke kommt ins Bild]]\r\n\r\n[[Fred schaut Schnecke an, Schnecke kriecht weiter ins Bild]]\r\n\r\nFred: ?\r\n\r\nSchnecke: Hab's eilig!\r\nFred: !",
    "user": "Sanne"
}